{
    "_id": "7VqibTAEXXX6PIhh",
    "data": {
        "attributes": {
            "ac": {
                "value": 21
            },
            "hardness": 11,
            "hasHealth": true,
            "hp": {
                "details": "",
                "max": 44,
                "temp": 0,
                "tempmax": 0,
                "value": 44
            },
            "stealth": {
                "details": "(trained)",
                "value": 13
            }
        },
        "creatureType": "",
        "details": {
            "description": "Two blades, each hidden in a 15-foot-long ceiling groove, are both connected to a trip wire.",
            "disable": "<p><span data-pf2-check=\"thievery\" data-pf2-label=\"Disable a Blade DC\" data-pf2-dc=\"21\" data-pf2-show-dc=\"gm\">Thievery</span> (trained) to disable each blade</p>",
            "isComplex": false,
            "level": {
                "value": 4
            },
            "reset": "The trap resets after 15 minutes.",
            "routine": ""
        },
        "saves": {
            "fortitude": {
                "saveDetail": "",
                "value": 12
            },
            "reflex": {
                "saveDetail": "",
                "value": 8
            },
            "will": {
                "saveDetail": "",
                "value": 0
            }
        },
        "source": {
            "value": "Pathfinder Core Rulebook"
        },
        "statusEffects": [],
        "traits": {
            "ci": [],
            "di": {
                "custom": "",
                "selected": {},
                "value": [
                    "critical-hits",
                    "object-immunities",
                    "precision"
                ]
            },
            "dr": [],
            "dv": [],
            "rarity": {
                "value": "common"
            },
            "size": {
                "value": "med"
            },
            "traits": {
                "custom": "",
                "value": [
                    "mechanical",
                    "trap"
                ]
            }
        }
    },
    "effects": [],
    "flags": {},
    "img": "systems/pf2e/icons/default-icons/hazard.svg",
    "items": [
        {
            "_id": "0fjRyLkdj1a2kfGM",
            "data": {
                "actionCategory": {
                    "value": ""
                },
                "actionType": {
                    "value": "reaction"
                },
                "actions": {
                    "value": null
                },
                "description": {
                    "value": "<p data-visibility=\"gm\"><strong>Trigger</strong> The trip wire is pulled or severed.</p>\n<p><strong>Effect</strong> Both blades swing down, each one attacking all creatures under the ceiling grooves.</p>"
                },
                "requirements": {
                    "value": ""
                },
                "rules": [],
                "slug": null,
                "source": {
                    "value": ""
                },
                "traits": {
                    "custom": "",
                    "rarity": {
                        "value": "common"
                    },
                    "value": [
                        "attack"
                    ]
                },
                "trigger": {
                    "value": ""
                },
                "weapon": {
                    "value": ""
                }
            },
            "effects": [],
            "flags": {},
            "img": "systems/pf2e/icons/actions/Reaction.webp",
            "name": "Falling Scythes",
            "sort": 100000,
            "type": "action"
        },
        {
            "_id": "oaNkRH35bkjdSm6P",
            "data": {
                "attack": {
                    "value": ""
                },
                "attackEffects": {
                    "value": []
                },
                "bonus": {
                    "value": 17
                },
                "damageRolls": {
                    "guj26mkvvr90w00st8m3": {
                        "damage": "2d12+4",
                        "damageType": "slashing"
                    }
                },
                "description": {
                    "value": "<p>No multiple attack penalty.</p>"
                },
                "rules": [],
                "slug": null,
                "source": {
                    "value": ""
                },
                "traits": {
                    "custom": "",
                    "rarity": {
                        "value": "common"
                    },
                    "value": [
                        "deadly-d12"
                    ]
                },
                "weaponType": {
                    "value": "melee"
                }
            },
            "effects": [],
            "flags": {},
            "img": "systems/pf2e/icons/default-icons/melee.svg",
            "name": "Scythe",
            "sort": 200000,
            "type": "melee"
        }
    ],
    "name": "Scythe Blades",
    "token": {
        "disposition": 0,
        "height": 1,
        "img": "systems/pf2e/icons/default-icons/hazard.svg",
        "name": "Scythe Blades",
        "width": 1
    },
    "type": "hazard"
}
