{
    "_id": "ARb0Q9D2gmqalPnM",
    "content": "<h1>Beast Gunner</h1>\n<p><strong>Rarity</strong> uncommon</p>\n<hr />\n<p>The art of creating the weapons most commonly referred to as “beast guns” is truly ancient, with the first iterations of the weapons created on the continent of Arcadia well over 10,000 years ago. This means that beast guns predate all other forms of firearm crafting in Arcadia, even the legendary star guns, whose secrets have been lost to the ages. The tradition of designing beast guns has persisted throughout Arcadia well into the modern era, though it has become increasingly rare as the proliferation of classic firearms and the prestige associated with star guns has allowed more people access to equivalent destructive power without the intense requirements behind crafting a beast gun. However, beast gunners remain virtually unknown outside of Arcadia.</p>\n<p>The art of bonding to a beast gun and gaining the full magic of a beast gunner is an extended ritual with multiple steps, beginning with the hunt. A person seeking to bond to a beast gun typically does so with a brand new weapon made after they hunt down the creature themselves. This involves telling the story of the hunt, the beast, and the weapon created from the hunted creature. Finally, the weapon is carefully modified and tailored to ensure a proper bond between the beast gun and the prospective beast gunner. However, it's also possible to bond to an heirloom beast gun passed down through the generations by adding symbolic fresh components from the same kind of creature, after performing the same ritual hunt necessary to forge a new weapon with the intent of establishing a bond.</p>\n<p>To perform the ritual the prospective beast gunner must first plan a hunt to slay the creature corresponding to the beast gun, whether they wish to bond with a brand new beast gun or establish a link to an old beast gun. Typically, these ritualized hunts can include up to five assistants plus hunting beasts like canines or birds who help corner the beast and bring it down. If the assistants are significantly more powerful than the hunted creature, or if there are so many assistants the creature never stood a chance at survival, the magic simply fails during the bonding process and the hunt and organic materials are wasted, usually much to the shame and chagrin of the hunter. The same doesn't apply if the prospective beast gunner hunts the creature alone, even if they are significantly more powerful than the creature, such that the creature never stood a chance against them in a one on one fight.</p>\n<p>You're one of those who successfully completed the hunt and bonded with your prized weapon. Now, you seek to discover the hidden depths that others who think they know how to use beast guns can only imagine.</p>\n<section class=\"info\">\n<h4>Choosing Your Beast Gun</h4>\n<p>A beast gunner's bond with their beast gun is deep and mystical, so if you hope to be a successful beast gunner, it's important to choose a beast gun that suits your temperament, magic, and combat style. For example, if you favor strength and intimidation, a screech shooter is the right choice for you, whereas a spider gun might be optimal if you prefer a more careful style of setting up the battlefield in advance. Similarly, a tentacle cannon is slow and methodical and can hold an enemy in place at close range, while a drake rifle is energetic and mobile and can be used to attack from a great distance. Each beast gun has a personality and magical abilities that attract people who value them. For this reason, some experienced beast gunners say the weapon chooses you.</p>\n</section>\n<h2>@Compendium[pf2e.feats-srd.Beast Gunner Dedication]{Beast Gunner Dedication} Feat 6</h2>\n<p><strong>Prerequisites</strong> expert with at least one type of firearm, you own a beast gun and have slain the type of creature associated with your beast gun in a fair hunt (see above); trained in Arcana and Crafting</p>\n<hr />\n<p>You've bonded to your beast gun and unlocked the first hints of its hidden potential. You treat all beast guns as martial firearms when determining your proficiency with them, even beast guns that are normally advanced weapons. You can change your bonded beast gun to another beast gun you own each day during your daily preparations, as long as you've previously performed a ritual hunt associated with the new beast gun.</p>\n<p>The beast gun also acts as a conduit, drawing out and amplifying any latent or active magic power you have. You learn to cast spontaneous spells and gain the Cast a Spell activity. You gain a spell repertoire with one cantrip of your choice, from either the arcane or primal spell list. You choose this cantrip from the common spells on your chosen spell list or from other spells you have access to on the list. This cantrip must require a spell attack roll. You're trained in spell attack rolls and spell DCs for arcane or primal spells, whichever of the two traditions you chose. Your key spellcasting ability for these spells is Charisma.</p>\n<p>If you already cast arcane or primal spells from spell slots, you learn one additional cantrip from that tradition. If you're a prepared caster, you can prepare this spell in addition to your usual cantrips per day; if you're a spontaneous caster, you add this cantrip to your spell repertoire.</p>\n<p>You also gain @Compendium[pf2e.actionspf2e.Spellsling]{Spellsling}.</p>\n<h2>@Compendium[pf2e.feats-srd.Basic Beast Gunner Spellcasting]{Basic Beast Gunner Spellcasting} Feat 8</h2>\n<p><strong>Prerequisites</strong> @Compendium[pf2e.feats-srd.Beast Gunner Dedication]{Beast Gunner Dedication}</p>\n<hr />\n<p>You've unlocked the first secrets of beast guns, granting you the power of their synergistic magic.You gain the basic spellcasting benefits. Each time you gain a spell slot of a new level from this archetype, add a spell of the appropriate spell level to your repertoire, either a common spell of your chosen tradition or another spell of that tradition you've learned or discovered.</p>\n<h2>@Compendium[pf2e.feats-srd.Call Gun]{Call Gun} Feat 8*</h2>\n<p><strong>Prerequisites</strong> @Compendium[pf2e.feats-srd.Spellshot Dedication]{Spellshot Dedication}</p>\n<p>* This version of the Call Gun feat is intended for use with an Archetype and has a different level for access than the @Compendium[pf2e.feats-srd.Call Gun]{original feat}.</p>\n<hr />\n<p>You build a powerful magical connection with a chosen gun or crossbow, gaining the ability to conjure it directly to your hand from any distant location. During your daily preparations, choose a single crossbow or firearm. Until your next daily preparations, you can use the @Compendium[pf2e.actionspf2e.Call Gun]{Call Gun} action to call the gun to your hand.</p>\n<h2>@Compendium[pf2e.feats-srd.Drain Vitality]{Drain Vitality} Feat 10</h2>\n<p><strong>Frequency</strong> once per minute</p>\n<p><strong>Prerequisites</strong> @Compendium[pf2e.feats-srd.Beast Gunner Dedication]{Beast Gunner Dedication}</p>\n<p><strong>Requirements</strong> You're wielding your bonded beast gun.</p>\n<hr />\n<p>You draw out the bestial magic energy within your bonded beast gun to fortify yourself, purge ongoing harm, and bolster your life force with a sheath of swirling life essence. You gain temporary Hit Points equal to your level and attempt a flat check against any ongoing persistent damage, using the DC appropriate for particularly effective assistance. Using this ability depletes the magic within your bonded beast gun, preventing you from using any of its activated abilities until the end of your next turn.</p>\n<h2>@Compendium[pf2e.feats-srd.Expert Beast Gunner Spellcasting]{Expert Beast Gunner Spellcasting} Feat 12</h2>\n<p><strong>Prerequisites</strong> @Compendium[pf2e.feats-srd.Basic Beast Gunner Spellcasting]{Basic Beast Gunner Spellcasting}</p>\n<hr />\n<p>You've learned the deeper secrets of beast guns, making you an expert in the magic they grant you. You gain the expert spellcasting benefits.</p>\n<h2>@Compendium[pf2e.feats-srd.Controlled Bullet]{Controlled Bullet} Feat 16</h2>\n<p><strong>Frequency</strong> once per day</p>\n<p><strong>Prerequisites</strong> @Compendium[pf2e.feats-srd.Beast Gunner Dedication]{Beast Gunner Dedication}</p>\n<hr />\n<p>You create a direct magical connection with your beast gun, allowing you to guide the beast gun's next shot by taking control of the projectile directly, steering it through the air, and swerving and veering it to continue to hit target after target. Make a beast gun Strike against a creature within the first range increment. On a hit, the shot tears through the target and continues toward another target you can see. You make a Strike against this new target. The new target must be no farther from the previous target than a distance equal to the beast gun's range increment. For example, the new target must be within 150 feet of the previous target when attacking with a drake rifle. On a hit, you can direct the bullet toward a new target.</p>\n<p>You can continue to make Strikes against new targets in this same way until your attack misses, at which point your shot dissipates. You can't make a Strike against a target you already attacked during this use of Controlled Bullet, but you can otherwise continue to make attacks against valid targets until you miss. Each attack counts toward your multiple attack penalty, but don't increase your penalty until you've made all your attacks.</p>\n<h2>@Compendium[pf2e.feats-srd.Master Beast Gunner Spellcasting]{Master Beast Gunner Spellcasting} Feat 18</h2>\n<p><strong>Prerequisites</strong> @Compendium[pf2e.feats-srd.Expert Beast Gunner Spellcasting]{Expert Beast Gunner Spellcasting}</p>\n<hr />\n<p>You've learned the final truth of beast guns, making you a master in the magic they grant you. You gain the master spellcasting benefits.</p>",
    "flags": {},
    "name": "Beast Gunner",
    "permission": {
        "default": 0
    }
}
