{
    "_id": "LHk50lz5Kk5ZYTeo",
    "data": {
        "boosts": {
            "0": {
                "value": [
                    "cha",
                    "wis"
                ]
            },
            "1": {
                "value": [
                    "cha",
                    "con",
                    "dex",
                    "int",
                    "str",
                    "wis"
                ]
            }
        },
        "description": {
            "value": "<p>Hao Jin really has some nerve for a supposed disciple of Abadar. First, she dares to start a collection of trinkets in hopes of emulating the great Abadar's unsurpassable First Vault. As if that weren't enough, she also sets up a contest to give away her most powerful treasures to anyone who can throw a punch! Abadar hasn't directly told you as much, per se, but surely this kind of hubris can't sit well with your beloved deity, regardless of Hao Jin's own supposed ties to the Master of the First Vault. At the very least, someone's got to check out this shoddy imitation of the First Vault and write a report for the church of Abadar - and you've decided that someone is you.</p>\n<p>With or without the blessing of an actual priest of Abadar, you've taken it upon yourself to investigate Hao Jin's \"wondrous\" vault by winning her Ruby Phoenix Tournament. You read a few flyers about the tournament's home city and joined the first team that could handle your righteous zealotry, but any more preparation would be a waste of time. You clearly have the divine will of Abadar on your side (but again, no actual proof of this), which is all you'll need to win this tournament and dispel any notions of Hao Jin's ties to your patron deity.</p>\n<p>Choose two ability boosts. One must be to <strong>Charisma</strong> or <strong>Wisdom</strong>, and one is a free ability boost.</p>\n<p>You're trained in Religion and the Goka Lore skill. You gain the @Compendium[pf2e.feats-srd.Assurance]{Assurance} skill feat with Religion.</p>"
        },
        "items": {
            "703ge": {
                "id": "W6Gl9ePmItfDHji0",
                "img": "systems/pf2e/icons/features/feats/feats.webp",
                "level": 1,
                "name": "Assurance",
                "pack": "pf2e.feats-srd"
            }
        },
        "rules": [],
        "source": {
            "value": "Pathfinder: Fists of the Ruby Phoenix Player's Guide"
        },
        "trainedLore": "Goka",
        "trainedSkills": {
            "value": [
                "rel"
            ]
        },
        "traits": {
            "custom": "",
            "rarity": {
                "value": "common"
            },
            "value": []
        }
    },
    "effects": [],
    "flags": {},
    "img": "systems/pf2e/icons/default-icons/background.svg",
    "name": "Abadar's Avenger",
    "type": "background"
}
