{
    "_id": "4yN5miHoMvKwZIsa",
    "data": {
        "boosts": {
            "0": {
                "value": [
                    "str",
                    "wis"
                ]
            },
            "1": {
                "value": [
                    "cha",
                    "con",
                    "dex",
                    "int",
                    "str",
                    "wis"
                ]
            }
        },
        "description": {
            "value": "<p><strong>Prerequisite</strong>: Region - High Seas</p>\n<hr />\n<p>You were forced into service as a sailor against your will. Perhaps you were punished for a crime, were drafted into military service, are repaying a debt, or simply were abducted. Though you were initially trained as a simple deckhand, you may have subsequently studied a trade under one of the vessel's specialists.</p>\n<p>Choose two ability boosts. One must be to <strong>Strength</strong> or <strong>Wisdom</strong>, and one is a free ability boost.</p>\n<p>You're trained in the Society skill and the Sailing Lore skill. You gain the @Compendium[pf2e.feats-srd.Experienced Professional]{Experienced Professional} skill feat.</p>"
        },
        "items": {
            "u3r44": {
                "id": "sMm0UfYxEPpq2Yzd",
                "img": "systems/pf2e/icons/features/feats/feats.webp",
                "level": "1",
                "name": "Experienced Professional",
                "pack": "pf2e.feats-srd"
            }
        },
        "rules": [],
        "source": {
            "value": "Pathfinder Lost Omens: World Guide"
        },
        "trainedLore": "Sailing Lore",
        "trainedSkills": {
            "value": [
                "soc"
            ]
        },
        "traits": {
            "custom": "",
            "rarity": {
                "value": "common"
            },
            "value": []
        }
    },
    "effects": [],
    "flags": {},
    "img": "systems/pf2e/icons/default-icons/background.svg",
    "name": "Press-Ganged",
    "type": "background"
}
