{
    "_id": "WRVEUkemqj2uNHwl",
    "data": {
        "boosts": {
            "0": {
                "value": [
                    "int",
                    "wis"
                ]
            },
            "1": {
                "value": [
                    "cha",
                    "con",
                    "dex",
                    "int",
                    "str",
                    "wis"
                ]
            }
        },
        "description": {
            "value": "<p>You have a knack for learning, and sequestered yourself from the outside world to learn all you could. You read about so many wondrous places and things in your books, and always dreamed about one day seeing the real things. Eventually, that curiosity led you to leave your studies and become an adventurer.</p>\n<p>Choose two ability boosts. One must be to <strong>Intelligence</strong> or <strong>Wisdom</strong>, and one is a free ability boost.</p>\n<p>You're trained in the Arcana skill, and the Academia Lore skill. You gain the @Compendium[pf2e.feats-srd.Assurance (Arcana)]{Assurance (Arcana)} skill feat.</p>"
        },
        "items": {
            "8l1xu": {
                "id": "5nTNxbOx6G8ZmSp4",
                "img": "systems/pf2e/icons/features/feats/feats.webp",
                "level": 1,
                "name": "Assurance (Arcana)",
                "pack": "pf2e.feats-srd"
            }
        },
        "rules": [],
        "source": {
            "value": "Pathfinder: Core Rulebook"
        },
        "trainedLore": "Academia Lore",
        "trainedSkills": {
            "custom": "",
            "value": [
                "arc"
            ]
        },
        "traits": {
            "custom": "",
            "rarity": {
                "value": "common"
            },
            "value": []
        }
    },
    "effects": [],
    "flags": {},
    "img": "systems/pf2e/icons/default-icons/background.svg",
    "name": "Scholar (Arcana)",
    "type": "background"
}
