{
    "_id": "aBVrNIPoPGOYxm80",
    "data": {
        "baseItem": null,
        "brokenThreshold": {
            "value": 0
        },
        "bulkCapacity": {
            "value": ""
        },
        "collapsed": {
            "value": false
        },
        "containerId": {
            "value": ""
        },
        "description": {
            "value": "<p>This item looks like an ordinary glass flask full of water. The stopper can't be removed unless you speak one of the item's three command words, each of which causes water to pour forth in a different way. Pulling the stopper straight out creates fresh water, and rotating it as you pull creates salt water. Any effect of the decanter lasts until the decanter is plugged (with its own stopper, a finger, or the like).</p>\n<p><strong>Activate</strong> <span class=\"pf2-icon\">A</span> command, Interact; <strong>Effect</strong> Speaking \"stream\", you cause water to pour out at a rate of 1 gallon per round.</p>\n<p><strong>Activate</strong> <span class=\"pf2-icon\">A</span> command, Interact; <strong>Effect</strong> Speaking \"fountain\", you cause water to pour out in a 5-foot-long stream at a rate of 5 gallons per round.</p>\n<p><strong>Activate</strong> <span class=\"pf2-icon\">A</span> command, Interact; <strong>Effect</strong> Speaking \"geyser\", you cause a powerful deluge of water to erupt at a rate of 15 gallons per round. You can direct the stream at a creature, subjecting it to the effects of <em>@Compendium[pf2e.spells-srd.Hydraulic Push]{Hydraulic Push}</em> (spell attack roll +15). You can repeat this once per round as long as the geyser continues, spending an Interact action to direct the geyser each time.</p>"
        },
        "equipped": {
            "value": false
        },
        "equippedBulk": {
            "value": ""
        },
        "hardness": {
            "value": 0
        },
        "hp": {
            "value": 0
        },
        "identification": {
            "misidentified": {},
            "status": "identified",
            "unidentified": {
                "data": {
                    "description": {
                        "value": ""
                    }
                },
                "img": "",
                "name": ""
            }
        },
        "invested": {
            "value": false
        },
        "level": {
            "value": 7
        },
        "maxHp": {
            "value": 0
        },
        "negateBulk": {
            "value": "0"
        },
        "preciousMaterial": {
            "value": ""
        },
        "preciousMaterialGrade": {
            "value": ""
        },
        "price": {
            "value": "320 gp"
        },
        "quantity": {
            "value": 1
        },
        "rules": [],
        "size": {
            "value": "med"
        },
        "source": {
            "value": "Pathfinder Core Rulebook"
        },
        "stackGroup": {
            "value": ""
        },
        "traits": {
            "custom": "",
            "rarity": {
                "value": "common"
            },
            "value": [
                "conjuration",
                "magical",
                "water"
            ]
        },
        "usage": {
            "value": "held-in-two-hands"
        },
        "weight": {
            "value": "L"
        }
    },
    "effects": [],
    "flags": {},
    "img": "systems/pf2e/icons/equipment/held-items/decanter-of-endless-water.webp",
    "name": "Decanter of Endless Water",
    "type": "equipment"
}
