{
    "_id": "NtUB9xqRZQ2duOUo",
    "data": {
        "activation": {
            "condition": "",
            "cost": 0,
            "type": ""
        },
        "autoDestroy": {
            "_deprecated": true,
            "value": true
        },
        "autoUse": {
            "_deprecated": true,
            "value": true
        },
        "baseItem": null,
        "brokenThreshold": {
            "value": 0
        },
        "bulkCapacity": {
            "value": ""
        },
        "charges": {
            "_deprecated": true,
            "max": 0,
            "value": 0
        },
        "collapsed": {
            "value": false
        },
        "consumableType": {
            "value": "snare"
        },
        "consume": {
            "_deprecated": true,
            "value": ""
        },
        "containerId": {
            "value": null
        },
        "description": {
            "value": "<p>Small flecks of mica, sand, and ground glass are packed into a spring-loaded canister that can be rigged to a trip wire or hidden in a container. The first creature to enter the square or open the container must attempt a <span data-pf2-check=\"reflex\" data-pf2-traits=\"uncommon,consumable,mechanical,snare,trap,visual\" data-pf2-label=\"Glittering Snare DC\" data-pf2-dc=\"20\" data-pf2-show-dc=\"all\">Reflex</span> save as the area is showered with bright, glittering dust that sticks to skin, fur, and clothing.</p>\n<hr />\n<p><strong>Critical Success</strong> The creature is unaffected.</p>\n<p><strong>Success</strong> The creature takes a -1 status penalty to Stealth checks for 1 minute or until it uses an Interact action to remove the glitter.</p>\n<p>@Compendium[pf2e.equipment-effects.Effect: Glittering Snare (Success)]{Effect: Glittering Snare (Success)}</p>\n<p><strong>Failure</strong> The creature takes a -2 status penalty to Stealth checks for 2 minutes or until it spends a 2-action activity, which has the manipulate trait, to remove the glitter. If the creature was @Compendium[pf2e.conditionitems.Invisible]{Invisible}, the glitter outlines it for 1 round, making it @Compendium[pf2e.conditionitems.Concealed]{Concealed} rather than @Compendium[pf2e.conditionitems.Undetected]{Undetected} to visual senses.</p>\n<p>@Compendium[pf2e.equipment-effects.Effect: Glittering Snare (Failure)]{Effect: Glittering Snare (Failure)}</p>\n<p><strong>Critical Failure</strong> As failure, but the penalty is -4. The glitter sticks for 5 minutes or until the creature spends a 3-action activity, which has the manipulate trait, to remove it. The glitter continues to fall around the creature until completely removed, leaving a trail behind it as it moves and revealing its rough location; the creature is @Compendium[pf2e.conditionitems.Hidden]{Hidden}, rather than undetected, to any creature that can see the glitter whenever it would otherwise have been undetected.</p>\n<p>@Compendium[pf2e.equipment-effects.Effect: Glittering Snare (Critical Failure)]{Effect: Glittering Snare (Critical Failure)}</p>"
        },
        "duration": {
            "units": "",
            "value": null
        },
        "equipped": {
            "value": false
        },
        "equippedBulk": {
            "value": ""
        },
        "hardness": {
            "value": 0
        },
        "hp": {
            "value": 0
        },
        "identification": {
            "misidentified": {},
            "status": "identified",
            "unidentified": {
                "data": {
                    "description": {
                        "value": ""
                    }
                },
                "img": "",
                "name": ""
            }
        },
        "level": {
            "value": 4
        },
        "maxHp": {
            "value": 0
        },
        "negateBulk": {
            "value": "0"
        },
        "preciousMaterial": {
            "value": null
        },
        "preciousMaterialGrade": {
            "value": null
        },
        "price": {
            "value": "18 gp"
        },
        "quantity": {
            "value": 1
        },
        "range": {
            "long": null,
            "units": "",
            "value": null
        },
        "rules": [],
        "size": {
            "value": "med"
        },
        "source": {
            "value": "Pathfinder Lost Omens: The Grand Bazaar"
        },
        "spell": {
            "data": null,
            "heightenedLevel": null
        },
        "stackGroup": {
            "value": ""
        },
        "target": {
            "type": "",
            "units": "",
            "value": null
        },
        "traits": {
            "custom": "",
            "rarity": {
                "value": "uncommon"
            },
            "value": [
                "consumable",
                "mechanical",
                "snare",
                "trap",
                "visual"
            ]
        },
        "usage": {
            "value": "held-in-one-hand"
        },
        "uses": {
            "autoDestroy": true,
            "autoUse": true,
            "max": 0,
            "per": null,
            "value": 0
        },
        "weight": {
            "value": "-"
        }
    },
    "effects": [],
    "flags": {},
    "img": "systems/pf2e/icons/default-icons/consumable.svg",
    "name": "Glittering Snare",
    "type": "consumable"
}
