{
    "_id": "son3QT3YfrBYlWPq",
    "data": {
        "baseItem": null,
        "brokenThreshold": {
            "value": 0
        },
        "bulkCapacity": {
            "value": ""
        },
        "collapsed": {
            "value": false
        },
        "containerId": {
            "value": null
        },
        "description": {
            "value": "<p>These silk headbands always come in pairs and usually feature a prominent symbol of a nation or team. If both wearers Invest their headbands at the same time and think of the same symbol while doing so, both headbands change to display that symbol until they are removed. As long as you both have Invested your headbands, you can Aid each other without taking an action to prepare and when you get a critical failure when attempting to Aid an ally with a paired headband, you get a failure instead.</p>\n<hr />\n<p><strong>Activate</strong> <span class=\"pf2-icon\">2 </span> Interact;</p>\n<p><strong>Frequency</strong> once per day;</p>\n<p><strong>Effect</strong> You remove your headband, which teleports you to a space adjacent to the other Invested wearer's location, if you are within 1 mile of each other.</p>"
        },
        "equipped": {
            "value": false
        },
        "equippedBulk": {
            "value": ""
        },
        "hardness": {
            "value": 0
        },
        "hp": {
            "value": 0
        },
        "identification": {
            "misidentified": {},
            "status": "identified",
            "unidentified": {
                "data": {
                    "description": {
                        "value": ""
                    }
                },
                "img": "",
                "name": ""
            }
        },
        "invested": {
            "value": null
        },
        "level": {
            "value": 16
        },
        "maxHp": {
            "value": 0
        },
        "negateBulk": {
            "value": "0"
        },
        "preciousMaterial": {
            "value": null
        },
        "preciousMaterialGrade": {
            "value": null
        },
        "price": {
            "value": "10000 gp"
        },
        "quantity": {
            "value": 1
        },
        "rules": [],
        "size": {
            "value": "med"
        },
        "source": {
            "value": "Pathfinder #167: Ready? Fight!"
        },
        "stackGroup": {
            "value": ""
        },
        "traits": {
            "custom": "",
            "rarity": {
                "value": "uncommon"
            },
            "value": [
                "conjuration",
                "invested",
                "magical",
                "teleportation"
            ]
        },
        "usage": {
            "value": "wornheadwear"
        },
        "weight": {
            "value": "-"
        }
    },
    "effects": [],
    "flags": {},
    "img": "systems/pf2e/icons/default-icons/equipment.svg",
    "name": "Headbands of Translocation",
    "type": "equipment"
}
