{
    "_id": "fLqRH3XpvDZEMxOO",
    "data": {
        "MAP": {
            "value": ""
        },
        "baseItem": "lance",
        "bonus": {
            "value": 1
        },
        "bonusDamage": {
            "value": 0
        },
        "brokenThreshold": {
            "value": 0
        },
        "bulkCapacity": {
            "value": ""
        },
        "category": "martial",
        "collapsed": {
            "value": false
        },
        "containerId": {
            "value": ""
        },
        "damage": {
            "damageType": "piercing",
            "dice": 1,
            "die": "d8",
            "value": ""
        },
        "description": {
            "value": "<section class=\"content\">\n<p>When wielded in battle, these silver lances blaze with light. A radiant lance is a +2 greater striking @Compendium[pf2e.equipment-srd.Holy]{Holy} @Compendium[pf2e.equipment-srd.Flaming]{Flaming} silver lance.</p>\n<hr />\n<p>When wielded in battle, the radiant lance sheds bright light in a 60- foot radius.</p>\n<hr />\n<p>On a hit against an undead creature that is specifically vulnerable to sunlight, the lance bursts with a brilliant flash of light, and that undead must attempt a DC 35 Fortitude save. If the attack was a critical hit, the undead uses an outcome one degree of success worse than the result of its saving throw.</p>\n<p class=\"tab0\"><strong>Success</strong> The undead is unaffected.</p>\n<p><strong>Failure</strong> The undead is slowed 1 for 1 round.</p>\n<p><strong>Critical Failure</strong> The undead is slowed 1 for 1 minute.</p>\n<hr />\n<p><strong>Activate</strong> <span class=\"pf2-icon\">D</span> command, Interact</p>\n<p><strong>Frequency</strong> once per day</p>\n<p><strong>Effect</strong> You point the lance at a foe and call out, firing a beam with the effects of a 7th-level <em>@Compendium[pf2e.spells-srd.Searing Light]{Searing Light}</em>.</p>\n</section>"
        },
        "equipped": {
            "value": false
        },
        "equippedBulk": {
            "value": ""
        },
        "group": "spear",
        "hands": {
            "value": ""
        },
        "hardness": {
            "value": 0
        },
        "hp": {
            "value": 0
        },
        "identification": {
            "misidentified": {},
            "status": "identified",
            "unidentified": {
                "data": {
                    "description": {
                        "value": ""
                    }
                },
                "img": "",
                "name": ""
            }
        },
        "invested": {
            "value": false
        },
        "level": {
            "value": 15
        },
        "maxHp": {
            "value": 0
        },
        "negateBulk": {
            "value": "0"
        },
        "potencyRune": {
            "value": 2
        },
        "preciousMaterial": {
            "value": null
        },
        "preciousMaterialGrade": {
            "value": null
        },
        "price": {
            "value": "5,750 gp"
        },
        "property1": {
            "critDamage": "",
            "critDamageType": "",
            "critDice": null,
            "critDie": "",
            "criticalConditionType": "",
            "criticalConditionValue": null,
            "damageType": "",
            "dice": null,
            "die": "",
            "strikeConditionType": "",
            "strikeConditionValue": null,
            "value": ""
        },
        "propertyRune1": {
            "value": "flaming"
        },
        "propertyRune2": {
            "value": "holy"
        },
        "propertyRune3": {
            "value": null
        },
        "propertyRune4": {
            "value": null
        },
        "quantity": {
            "value": 1
        },
        "range": null,
        "reload": {
            "value": ""
        },
        "rules": [],
        "size": {
            "value": "med"
        },
        "source": {
            "value": "Pathfinder Lost Omens: Character Guide"
        },
        "specific": {
            "material": null,
            "runes": {
                "potency": 2,
                "striking": "greaterStriking"
            },
            "value": true
        },
        "splashDamage": {
            "value": null
        },
        "stackGroup": {
            "value": ""
        },
        "strikingRune": {
            "value": "greaterStriking"
        },
        "traits": {
            "custom": "",
            "rarity": {
                "value": "uncommon"
            },
            "value": [
                "deadly-d6",
                "divine",
                "evocation",
                "fire",
                "good",
                "jousting-d6",
                "light",
                "reach"
            ]
        },
        "usage": {
            "value": "held-in-two-hands"
        },
        "weight": {
            "value": "2"
        }
    },
    "effects": [],
    "flags": {},
    "img": "systems/pf2e/icons/equipment/weapons/specific-magic-weapons/radiant-lance.webp",
    "name": "Radiant Lance",
    "type": "weapon"
}
