{
    "_id": "fKCNfS3PnDJW4f6x",
    "data": {
        "baseItem": null,
        "brokenThreshold": {
            "value": 0
        },
        "bulkCapacity": {
            "value": ""
        },
        "collapsed": {
            "value": false
        },
        "containerId": {
            "value": null
        },
        "description": {
            "value": "<p>Moss and winding vines give this gnarled staff of wild wood a vibrant green tinge. You created this staff to aid you in speaking to the plants you met on your adventure and beseeching them to come to your aid.</p>\n<hr />\n<p><strong>Activate</strong> Cast a Spell;</p>\n<p><strong>Effect</strong> You expend a number of charges from the staff to cast a spell from its list.</p>\n<ul>\n<li><strong>Cantrip</strong> <em>@Compendium[pf2e.spells-srd.Tanglefoot]{Tanglefoot}</em></li>\n<li><strong>1st</strong> protector tree , <em>@Compendium[pf2e.spells-srd.Shillelagh]{Shillelagh}</em></li>\n<li><strong>2nd</strong> <em>@Compendium[pf2e.spells-srd.Entangle]{Entangle}</em>, <em>@Compendium[pf2e.spells-srd.Shape Wood]{Shape Wood}</em></li>\n<li><strong>3rd</strong> <em>@Compendium[pf2e.spells-srd.Tree Shape]{Tree Shape}</em>, <em>@Compendium[pf2e.spells-srd.Wall of Thorns]{Wall of Thorns}</em></li>\n<li><strong>4th</strong> <em>@Compendium[pf2e.spells-srd.Barkskin]{Barkskin}</em>, <em>@Compendium[pf2e.spells-srd.Speak with Plants]{Speak with Plants}</em><hr /><strong>Craft Requirements</strong> Supply one casting of all listed levels of all listed spells.</li>\n</ul>"
        },
        "equipped": {
            "value": false
        },
        "equippedBulk": {
            "value": ""
        },
        "hardness": {
            "value": 0
        },
        "hp": {
            "value": 0
        },
        "identification": {
            "misidentified": {},
            "status": "identified",
            "unidentified": {
                "data": {
                    "description": {
                        "value": ""
                    }
                },
                "img": "",
                "name": ""
            }
        },
        "invested": {
            "value": null
        },
        "level": {
            "value": 11
        },
        "maxHp": {
            "value": 0
        },
        "negateBulk": {
            "value": "0"
        },
        "preciousMaterial": {
            "value": null
        },
        "preciousMaterialGrade": {
            "value": null
        },
        "price": {
            "value": "1400 gp"
        },
        "quantity": {
            "value": 1
        },
        "rules": [],
        "size": {
            "value": "med"
        },
        "source": {
            "value": "Pathfinder Secrets of Magic"
        },
        "stackGroup": {
            "value": ""
        },
        "traits": {
            "custom": "",
            "rarity": {
                "value": "common"
            },
            "value": [
                "magical",
                "plant",
                "staff",
                "transmutation"
            ]
        },
        "usage": {
            "value": "held-in-one-hand"
        },
        "weight": {
            "value": "-"
        }
    },
    "effects": [],
    "flags": {},
    "img": "systems/pf2e/icons/default-icons/equipment.svg",
    "name": "Staff of Nature's Cunning (Greater)",
    "type": "equipment"
}
