{
    "_id": "GpcZXdiJppItyWJg",
    "data": {
        "baseItem": null,
        "brokenThreshold": {
            "value": 0
        },
        "bulkCapacity": {
            "value": ""
        },
        "collapsed": {
            "value": false
        },
        "containerId": {
            "value": null
        },
        "description": {
            "value": "<p>This small, hand-propelled vehicle has a single wheel and is designed to carry large loads over a distance. A wheelbarrow can typically hold up to 5 Bulk of objects without issue. The GM might rule that it can hold more Bulk of particular items, such as sand, or less Bulk of other items, like awkwardly shaped rocks.</p>\n<p>You can raise or place a wheelbarrow using an Interact action and can Stride your normal Speed while you have the wheelbarrow raised, though you're encumbered while pushing a wheelbarrow. You can Release a wheelbarrow as normal, but a loaded wheelbarrow has a chance of tipping over if you don't place it down with care.</p>\n<p>When you Release a wheelbarrow, attempt a <span data-pf2-check=\"flat\" data-pf2-dc=\"7\">DC 7 flat check</span>. On a failure, the wheelbarrow tips over, spilling its contents into a randomly determined adjacent space.</p>"
        },
        "equipped": {
            "value": false
        },
        "equippedBulk": {
            "value": ""
        },
        "hardness": {
            "value": 0
        },
        "hp": {
            "value": 0
        },
        "identification": {
            "misidentified": {},
            "status": "identified",
            "unidentified": {
                "data": {
                    "description": {
                        "value": ""
                    }
                },
                "img": "",
                "name": ""
            }
        },
        "invested": {
            "value": null
        },
        "level": {
            "value": 0
        },
        "maxHp": {
            "value": 0
        },
        "negateBulk": {
            "value": "0"
        },
        "preciousMaterial": {
            "value": null
        },
        "preciousMaterialGrade": {
            "value": null
        },
        "price": {
            "value": "5 sp"
        },
        "quantity": {
            "value": 1
        },
        "rules": [],
        "size": {
            "value": "med"
        },
        "source": {
            "value": "Pathfinder Lost Omens: The Grand Bazaar"
        },
        "stackGroup": {
            "value": ""
        },
        "traits": {
            "custom": "",
            "rarity": {
                "value": "common"
            },
            "value": []
        },
        "usage": {
            "value": "held-in-two-hands"
        },
        "weight": {
            "value": "5"
        }
    },
    "effects": [],
    "flags": {},
    "img": "systems/pf2e/icons/default-icons/equipment.svg",
    "name": "Wheelbarrow",
    "type": "equipment"
}
