{
    "_id": "sECjzfaYaW68vbLV",
    "data": {
        "actionCategory": {
            "value": "offensive"
        },
        "actionType": {
            "value": "action"
        },
        "actions": {
            "value": 1
        },
        "description": {
            "value": "<p>A vrykolakas master can transform into a form resembling the body it had in life, with the effects of humanoid form but with unlimited duration. It loses its fangs and claw Strikes but gains a +2 circumstance bonus to Deception checks to @Compendium[pf2e.actionspf2e.Impersonate]{Impersonate} in this form.</p>"
        },
        "requirements": {
            "value": ""
        },
        "rules": [
            {
                "key": "ToggleProperty",
                "label": "Impersonating the Body It Had in Life",
                "property": "flags.pf2e.rollOptions.all.change-shape"
            },
            {
                "key": "FlatModifier",
                "predicate": {
                    "all": [
                        "change-shape",
                        "action:impersonate"
                    ]
                },
                "selector": "deception",
                "type": "circumstance",
                "value": 2
            }
        ],
        "source": {
            "value": "Pathfinder Bestiary 2"
        },
        "traits": {
            "custom": "",
            "rarity": {
                "value": "common"
            },
            "value": [
                "concentrate",
                "divine",
                "polymorph",
                "transmutation"
            ]
        },
        "trigger": {
            "value": ""
        }
    },
    "effects": [],
    "flags": {},
    "img": "systems/pf2e/icons/actions/OneAction.webp",
    "name": "(Vampire, Vrykolakas Master) Change Shape",
    "type": "action"
}
