{
    "_id": "nZMQh4AaBr291TUf",
    "data": {
        "actionCategory": {
            "value": "defensive"
        },
        "actionType": {
            "value": "reaction"
        },
        "actions": {
            "value": null
        },
        "description": {
            "value": "<p><span data-pf2-check=\"reflex\" data-pf2-dc=\"\" data-pf2-label=\"Buck DC\" data-pf2-show-dc=\"gm\">Reflex</span> @Localize[PF2E.NPC.Abilities.Glossary.Buck]</p>"
        },
        "requirements": {
            "value": ""
        },
        "rules": [],
        "source": {
            "value": ""
        },
        "traits": {
            "custom": "",
            "rarity": {
                "value": "common"
            },
            "value": []
        },
        "trigger": {
            "value": ""
        },
        "weapon": {
            "value": ""
        }
    },
    "effects": [],
    "flags": {},
    "img": "systems/pf2e/icons/actions/Reaction.webp",
    "name": "Buck",
    "type": "action"
}
