{
    "_id": "mYJ6NNthl702Pz2s",
    "data": {
        "abilities": {
            "cha": {
                "mod": 6
            },
            "con": {
                "mod": 3
            },
            "dex": {
                "mod": 7
            },
            "int": {
                "mod": 0
            },
            "str": {
                "mod": 2
            },
            "wis": {
                "mod": 4
            }
        },
        "attributes": {
            "ac": {
                "details": "",
                "value": 32
            },
            "allSaves": {
                "value": ""
            },
            "hp": {
                "details": "",
                "max": 195,
                "temp": 0,
                "value": 195
            },
            "initiative": {
                "ability": "perception"
            },
            "perception": {
                "value": 21
            },
            "shield": {
                "ac": 0,
                "brokenThreshold": 0,
                "hardness": 0,
                "max": 0,
                "value": 0
            },
            "speed": {
                "otherSpeeds": [],
                "value": "25"
            }
        },
        "details": {
            "alignment": {
                "value": "NE"
            },
            "blurb": "",
            "creatureType": "Humanoid",
            "level": {
                "value": 11
            },
            "privateNotes": "",
            "publicNotes": "",
            "source": {
                "value": "Pathfinder #148: Fires of the Haunted City"
            }
        },
        "resources": {
            "focus": {
                "max": 1,
                "value": 1
            }
        },
        "saves": {
            "fortitude": {
                "saveDetail": "",
                "value": 18
            },
            "reflex": {
                "saveDetail": "",
                "value": 24
            },
            "will": {
                "saveDetail": "",
                "value": 21
            }
        },
        "traits": {
            "ci": [],
            "di": {
                "custom": "",
                "value": []
            },
            "dr": [],
            "dv": [],
            "languages": {
                "custom": "",
                "selected": [],
                "value": [
                    "common",
                    "dwarven",
                    "undercommon"
                ]
            },
            "rarity": {
                "value": "unique"
            },
            "senses": {
                "value": ""
            },
            "size": {
                "value": "med"
            },
            "traits": {
                "custom": "",
                "value": [
                    "human",
                    "humanoid"
                ]
            }
        }
    },
    "effects": [],
    "flags": {},
    "img": "systems/pf2e/icons/default-icons/npc.svg",
    "items": [
        {
            "_id": "FhsrGa7AEoEP0kgu",
            "data": {
                "ability": {
                    "value": "cha"
                },
                "autoHeightenLevel": {
                    "value": 3
                },
                "description": {
                    "value": ""
                },
                "displayLevels": {},
                "prepared": {
                    "flexible": false,
                    "value": "innate"
                },
                "proficiency": {
                    "value": 0
                },
                "rules": [],
                "showSlotlessLevels": {
                    "value": false
                },
                "showUnpreparedSpells": {
                    "value": true
                },
                "signatureSpells": {
                    "value": []
                },
                "slots": {
                    "slot0": {
                        "max": 0,
                        "prepared": [],
                        "value": 0
                    },
                    "slot1": {
                        "max": 0,
                        "prepared": [],
                        "value": 0
                    },
                    "slot10": {
                        "max": 0,
                        "prepared": [],
                        "value": 0
                    },
                    "slot11": {
                        "max": 0,
                        "prepared": [],
                        "value": 0
                    },
                    "slot2": {
                        "max": 0,
                        "prepared": [],
                        "value": 0
                    },
                    "slot3": {
                        "max": 0,
                        "prepared": [],
                        "value": 0
                    },
                    "slot4": {
                        "max": 0,
                        "prepared": [],
                        "value": 0
                    },
                    "slot5": {
                        "max": 0,
                        "prepared": [],
                        "value": 0
                    },
                    "slot6": {
                        "max": 0,
                        "prepared": [],
                        "value": 0
                    },
                    "slot7": {
                        "max": 0,
                        "prepared": [],
                        "value": 0
                    },
                    "slot8": {
                        "max": 0,
                        "prepared": [],
                        "value": 0
                    },
                    "slot9": {
                        "max": 0,
                        "prepared": [],
                        "value": 0
                    }
                },
                "slug": null,
                "source": {
                    "value": ""
                },
                "spelldc": {
                    "dc": 33,
                    "mod": 0,
                    "value": 25
                },
                "tradition": {
                    "value": "arcane"
                },
                "traits": {
                    "custom": "",
                    "rarity": {
                        "value": "common"
                    },
                    "value": []
                }
            },
            "effects": [],
            "flags": {},
            "img": "systems/pf2e/icons/default-icons/spellcastingEntry.svg",
            "name": "Arcane Spells Known",
            "sort": 100000,
            "type": "spellcastingEntry"
        },
        {
            "_id": "zTnZR4qWpyhaTTBq",
            "data": {
                "ability": {
                    "value": ""
                },
                "area": {
                    "areaType": "",
                    "value": null
                },
                "areasize": {
                    "value": ""
                },
                "autoHeightenLevel": {
                    "value": null
                },
                "category": {
                    "value": "spell"
                },
                "components": {
                    "focus": false,
                    "material": false,
                    "somatic": true,
                    "verbal": true
                },
                "cost": {
                    "value": ""
                },
                "damage": {
                    "value": {}
                },
                "description": {
                    "value": "<p>The target is overtaken with uncontrollable laughter. It must attempt a Will save.</p>\n<hr /><strong>Critical Success</strong> The target is unaffected.\n<p><strong>Success</strong> The target is plagued with uncontrollable laugher. It can't use reactions.</p>\n<p><strong>Failure</strong> The target is @Compendium[pf2e.conditionitems.Slowed]{Slowed 1} and can't use reactions.</p>\n<p><strong>Critical Failure</strong> The target falls @Compendium[pf2e.conditionitems.Prone]{Prone} and can't use actions or reactions for 1 round. It then suffers the failure effects.</p>"
                },
                "duration": {
                    "value": "sustained"
                },
                "hasCounteractCheck": {
                    "value": false
                },
                "heightenedLevel": {
                    "value": 2
                },
                "level": {
                    "value": 2
                },
                "location": {
                    "value": "FhsrGa7AEoEP0kgu"
                },
                "materials": {
                    "value": ""
                },
                "prepared": {
                    "value": ""
                },
                "primarycheck": {
                    "value": ""
                },
                "range": {
                    "value": "30 feet"
                },
                "rules": [],
                "save": {
                    "basic": "",
                    "value": "will"
                },
                "school": {
                    "value": "enchantment"
                },
                "secondarycasters": {
                    "value": ""
                },
                "secondarycheck": {
                    "value": ""
                },
                "slug": "hideous-laughter",
                "source": {
                    "value": "Pathfinder Core Rulebook"
                },
                "spellType": {
                    "value": "save"
                },
                "sustained": {
                    "value": false
                },
                "target": {
                    "value": "1 living creature"
                },
                "time": {
                    "value": "2"
                },
                "traditions": {
                    "value": [
                        "arcane",
                        "occult"
                    ]
                },
                "traits": {
                    "custom": "",
                    "rarity": {
                        "value": "common"
                    },
                    "value": [
                        "emotion",
                        "mental"
                    ]
                }
            },
            "effects": [],
            "flags": {
                "core": {
                    "sourceId": "Compendium.pf2e.spells-srd.tlSE7Ly8vi1Dgddv"
                }
            },
            "img": "systems/pf2e/icons/spells/hideous-laughter.webp",
            "name": "Hideous Laughter",
            "sort": 200000,
            "type": "spell"
        },
        {
            "_id": "qQu4b1Q9Rh2jb4KC",
            "data": {
                "ability": {
                    "value": ""
                },
                "area": {
                    "areaType": "",
                    "value": null
                },
                "areasize": {
                    "value": ""
                },
                "autoHeightenLevel": {
                    "value": null
                },
                "category": {
                    "value": "spell"
                },
                "components": {
                    "focus": false,
                    "material": false,
                    "somatic": true,
                    "verbal": true
                },
                "cost": {
                    "value": ""
                },
                "damage": {
                    "value": {}
                },
                "description": {
                    "value": "<p>You plant fear in the target; it must attempt a Will save.</p>\n<hr />\n<p><strong>Critical Success</strong> The target is unaffected.</p>\n<p><strong>Success</strong> The target is @Compendium[pf2e.conditionitems.Frightened]{Frightened 1}.</p>\n<p><strong>Failure</strong> The target is @Compendium[pf2e.conditionitems.Frightened]{Frightened 2}.</p>\n<p><strong>Critical Failure</strong> The target is @Compendium[pf2e.conditionitems.Frightened]{Frightened 3} and @Compendium[pf2e.conditionitems.Fleeing]{Fleeing} for 1 round.</p>\n<hr />\n<p><strong>Heightened (3rd)</strong> You can target up to five creatures.</p>"
                },
                "duration": {
                    "value": "varies"
                },
                "hasCounteractCheck": {
                    "value": false
                },
                "heightenedLevel": {
                    "value": 1
                },
                "level": {
                    "value": 1
                },
                "location": {
                    "value": "FhsrGa7AEoEP0kgu"
                },
                "materials": {
                    "value": ""
                },
                "prepared": {
                    "value": ""
                },
                "primarycheck": {
                    "value": ""
                },
                "range": {
                    "value": "30 feet"
                },
                "rules": [],
                "save": {
                    "basic": "",
                    "value": "will"
                },
                "school": {
                    "value": "enchantment"
                },
                "secondarycasters": {
                    "value": ""
                },
                "secondarycheck": {
                    "value": ""
                },
                "slug": "fear",
                "source": {
                    "value": "Pathfinder Core Rulebook"
                },
                "spellType": {
                    "value": "save"
                },
                "sustained": {
                    "value": false
                },
                "target": {
                    "value": "1 creature"
                },
                "time": {
                    "value": "2"
                },
                "traditions": {
                    "value": [
                        "arcane",
                        "divine",
                        "occult",
                        "primal"
                    ]
                },
                "traits": {
                    "custom": "",
                    "rarity": {
                        "value": "common"
                    },
                    "value": [
                        "emotion",
                        "fear",
                        "mental"
                    ]
                }
            },
            "effects": [],
            "flags": {
                "core": {
                    "sourceId": "Compendium.pf2e.spells-srd.4koZzrnMXhhosn0D"
                }
            },
            "img": "systems/pf2e/icons/spells/fear.webp",
            "name": "Fear",
            "sort": 300000,
            "type": "spell"
        },
        {
            "_id": "3lkj0eOL7fWxEvi5",
            "data": {
                "ability": {
                    "value": ""
                },
                "area": {
                    "areaType": "",
                    "value": null
                },
                "areasize": {
                    "value": ""
                },
                "autoHeightenLevel": {
                    "value": null
                },
                "category": {
                    "value": "spell"
                },
                "components": {
                    "focus": false,
                    "material": false,
                    "somatic": true,
                    "verbal": true
                },
                "cost": {
                    "value": ""
                },
                "damage": {
                    "value": {}
                },
                "description": {
                    "value": "<p>You create an auditory illusion of simple sounds that has a maximum volume equal to four normal humans shouting. The sounds emanate from a square you designate within range. You can't create intelligible words or other intricate sounds (such as music).</p>\n<hr />\n<p><strong>Heightened (3rd)</strong> The range increases to 60 feet.</p>\n<p><strong>Heightened (5th)</strong> The range increases to 120 feet.</p>"
                },
                "duration": {
                    "value": "sustained"
                },
                "hasCounteractCheck": {
                    "value": false
                },
                "level": {
                    "value": 1
                },
                "location": {
                    "value": "FhsrGa7AEoEP0kgu"
                },
                "materials": {
                    "value": ""
                },
                "prepared": {
                    "value": ""
                },
                "primarycheck": {
                    "value": ""
                },
                "range": {
                    "value": "30 feet"
                },
                "rules": [],
                "save": {
                    "basic": "",
                    "value": ""
                },
                "school": {
                    "value": "illusion"
                },
                "secondarycasters": {
                    "value": ""
                },
                "secondarycheck": {
                    "value": ""
                },
                "slug": "ghost-sound",
                "source": {
                    "value": "Pathfinder Core Rulebook"
                },
                "spellType": {
                    "value": "utility"
                },
                "sustained": {
                    "value": false
                },
                "target": {
                    "value": ""
                },
                "time": {
                    "value": "2"
                },
                "traditions": {
                    "value": [
                        "arcane",
                        "occult"
                    ]
                },
                "traits": {
                    "custom": "",
                    "rarity": {
                        "value": "common"
                    },
                    "value": [
                        "auditory",
                        "cantrip"
                    ]
                }
            },
            "effects": [],
            "flags": {
                "core": {
                    "sourceId": "Compendium.pf2e.spells-srd.atlgGNI1E1Ox3O3a"
                }
            },
            "img": "systems/pf2e/icons/spells/ghost-sound.webp",
            "name": "Ghost Sound",
            "sort": 400000,
            "type": "spell"
        },
        {
            "_id": "k5MIDqYJcBWIPdJJ",
            "data": {
                "ability": {
                    "value": ""
                },
                "area": {
                    "areaType": "",
                    "value": ""
                },
                "areasize": {
                    "value": ""
                },
                "autoHeightenLevel": {
                    "value": null
                },
                "category": {
                    "value": "spell"
                },
                "components": {
                    "focus": false,
                    "material": false,
                    "somatic": true,
                    "verbal": true
                },
                "cost": {
                    "value": ""
                },
                "damage": {
                    "value": {}
                },
                "description": {
                    "value": "<p>You create an illusion that causes you to appear as another creature of the same body shape, and with roughly similar height (within 6 inches) and weight (within 50 pounds), as yourself. The disguise is typically good enough to hide your identity, but not to impersonate a specific individual. The spell doesn't change your voice, scent, or mannerisms. You can change the appearance of your clothing and worn items, such as making your armor look like a dress. Held items are unaffected, and any worn item you remove returns to its true appearance.</p>\n<p>Casting illusory disguise counts as setting up a disguise for the @Compendium[pf2e.action-macros.Impersonate: Deception]{Impersonate} use of Deception; it ignores any circumstance penalties you might take for disguising yourself as a dissimilar creature, it gives you a +4 status bonus to Deception checks to prevent others from seeing through your disguise, and you add your level even if you're untrained. You can Dismiss this spell.</p>\n<hr />\n<p><strong>Heightened (2nd)</strong> The spell also disguises your voice and scent, and it gains the auditory and olfactory traits.</p>\n<p><strong>Heightened (3rd)</strong> You can appear as any creature of the same size, even a specific individual. You must have seen an individual to take on their appearance. The spell also disguises your voice and scent, and it gains the auditory and olfactory traits.</p>\n<p>@Compendium[pf2e.spell-effects.Spell Effect: Illusory Disguise]{Spell Effect: Illusory Disguise}</p>"
                },
                "duration": {
                    "value": "1 hour"
                },
                "hasCounteractCheck": {
                    "value": false
                },
                "heightenedLevel": {
                    "value": 3
                },
                "level": {
                    "value": 1
                },
                "location": {
                    "value": "FhsrGa7AEoEP0kgu"
                },
                "materials": {
                    "value": ""
                },
                "prepared": {
                    "value": ""
                },
                "primarycheck": {
                    "value": ""
                },
                "range": {
                    "value": ""
                },
                "rules": [],
                "save": {
                    "basic": "",
                    "value": ""
                },
                "school": {
                    "value": "illusion"
                },
                "secondarycasters": {
                    "value": ""
                },
                "secondarycheck": {
                    "value": ""
                },
                "slug": "illusory-disguise",
                "source": {
                    "value": "Pathfinder Core Rulebook"
                },
                "spellType": {
                    "value": "utility"
                },
                "sustained": {
                    "value": false
                },
                "target": {
                    "value": ""
                },
                "time": {
                    "value": "2"
                },
                "traditions": {
                    "value": [
                        "arcane",
                        "occult"
                    ]
                },
                "traits": {
                    "custom": "",
                    "rarity": {
                        "value": "common"
                    },
                    "value": [
                        "visual"
                    ]
                }
            },
            "effects": [],
            "flags": {
                "core": {
                    "sourceId": "Compendium.pf2e.spells-srd.i35dpZFI7jZcRoBo"
                }
            },
            "img": "systems/pf2e/icons/spells/illusory-disguise.webp",
            "name": "Illusory Disguise",
            "sort": 500000,
            "type": "spell"
        },
        {
            "_id": "irD8xjxQpjn4UevT",
            "data": {
                "MAP": {
                    "value": ""
                },
                "baseItem": "rapier",
                "bonus": {
                    "value": 0
                },
                "bonusDamage": {
                    "value": 0
                },
                "brokenThreshold": {
                    "value": 0
                },
                "bulkCapacity": {
                    "value": ""
                },
                "category": "martial",
                "collapsed": {
                    "value": false
                },
                "containerId": {
                    "value": ""
                },
                "damage": {
                    "damageType": "piercing",
                    "dice": 1,
                    "die": "d6",
                    "value": ""
                },
                "description": {
                    "value": "<p>The rapier is a long and thin piercing blade with a basket hilt. It is prized among many as a dueling weapon.</p>"
                },
                "equipped": {
                    "value": false
                },
                "equippedBulk": {
                    "value": ""
                },
                "group": "sword",
                "hands": {
                    "value": ""
                },
                "hardness": {
                    "value": 0
                },
                "hp": {
                    "value": 0
                },
                "identification": {
                    "misidentified": {},
                    "status": "identified",
                    "unidentified": {
                        "data": {
                            "description": {
                                "value": ""
                            }
                        },
                        "img": "",
                        "name": ""
                    }
                },
                "invested": {
                    "value": false
                },
                "level": {
                    "value": 0
                },
                "maxHp": {
                    "value": 0
                },
                "negateBulk": {
                    "value": "0"
                },
                "potencyRune": {
                    "value": 1
                },
                "preciousMaterial": {
                    "value": null
                },
                "preciousMaterialGrade": {
                    "value": null
                },
                "price": {
                    "value": "2 gp"
                },
                "property1": {
                    "critDamage": "",
                    "critDamageType": "",
                    "critDice": null,
                    "critDie": "",
                    "criticalConditionType": "",
                    "criticalConditionValue": null,
                    "damageType": "",
                    "dice": null,
                    "die": "",
                    "strikeConditionType": "",
                    "strikeConditionValue": null,
                    "value": ""
                },
                "propertyRune1": {
                    "value": null
                },
                "propertyRune2": {
                    "value": null
                },
                "propertyRune3": {
                    "value": null
                },
                "propertyRune4": {
                    "value": null
                },
                "quantity": {
                    "value": 1
                },
                "range": null,
                "reload": {
                    "value": ""
                },
                "rules": [],
                "size": {
                    "value": "med"
                },
                "slug": "rapier",
                "source": {
                    "value": "Pathfinder Core Rulebook"
                },
                "specific": {
                    "value": false
                },
                "splashDamage": {
                    "value": 0
                },
                "stackGroup": {
                    "value": ""
                },
                "strikingRune": {
                    "value": "striking"
                },
                "traits": {
                    "custom": "",
                    "rarity": {
                        "value": "common"
                    },
                    "value": [
                        "deadly-d8",
                        "disarm",
                        "finesse"
                    ]
                },
                "usage": {
                    "value": "held-in-one-hand"
                },
                "weight": {
                    "value": "1"
                }
            },
            "effects": [],
            "flags": {
                "core": {
                    "sourceId": "Compendium.pf2e.equipment-srd.tH5GirEy7YB3ZgCk"
                }
            },
            "img": "systems/pf2e/icons/equipment/weapons/rapier.webp",
            "name": "Rapier",
            "sort": 600000,
            "type": "weapon"
        },
        {
            "_id": "i75RxKRPOxjb3boz",
            "data": {
                "MAP": {
                    "value": ""
                },
                "baseItem": "blowgun",
                "bonus": {
                    "value": "0"
                },
                "bonusDamage": {
                    "value": 0
                },
                "brokenThreshold": {
                    "value": 0
                },
                "bulkCapacity": {
                    "value": ""
                },
                "category": "simple",
                "collapsed": {
                    "value": false
                },
                "containerId": {
                    "value": ""
                },
                "damage": {
                    "damageType": "bludgeoning",
                    "dice": 1,
                    "die": "d4",
                    "value": ""
                },
                "description": {
                    "value": "<p>This long, narrow tube is used for shooting blowgun darts, using only the power of a forcefully exhaled breath.</p>"
                },
                "equipped": {
                    "value": false
                },
                "equippedBulk": {
                    "value": ""
                },
                "group": "dart",
                "hands": {
                    "value": ""
                },
                "hardness": {
                    "value": 0
                },
                "hp": {
                    "value": 0
                },
                "identification": {
                    "misidentified": {},
                    "status": "identified",
                    "unidentified": {
                        "data": {
                            "description": {
                                "value": ""
                            }
                        },
                        "img": "",
                        "name": ""
                    }
                },
                "invested": {
                    "value": false
                },
                "level": {
                    "value": 0
                },
                "maxHp": {
                    "value": 0
                },
                "negateBulk": {
                    "value": "0"
                },
                "potencyRune": {
                    "value": 1
                },
                "preciousMaterial": {
                    "value": null
                },
                "preciousMaterialGrade": {
                    "value": null
                },
                "price": {
                    "value": "1 sp"
                },
                "property1": {
                    "critDamage": "",
                    "critDamageType": "",
                    "critDice": 0,
                    "critDie": "",
                    "criticalConditionType": "",
                    "criticalConditionValue": null,
                    "damageType": "",
                    "dice": null,
                    "die": "",
                    "strikeConditionType": "",
                    "strikeConditionValue": null,
                    "value": ""
                },
                "propertyRune1": {
                    "value": null
                },
                "propertyRune2": {
                    "value": null
                },
                "propertyRune3": {
                    "value": null
                },
                "propertyRune4": {
                    "value": null
                },
                "quantity": {
                    "value": 1
                },
                "range": 20,
                "reload": {
                    "value": "1"
                },
                "rules": [],
                "size": {
                    "value": "med"
                },
                "slug": "blowgun",
                "source": {
                    "value": "Pathfinder Core Rulebook"
                },
                "specific": {
                    "value": false
                },
                "splashDamage": {
                    "value": 0
                },
                "stackGroup": {
                    "value": ""
                },
                "strikingRune": {
                    "value": ""
                },
                "traits": {
                    "custom": "",
                    "rarity": {
                        "value": "common"
                    },
                    "value": [
                        "agile",
                        "nonlethal"
                    ]
                },
                "usage": {
                    "value": "held-in-one-hand"
                },
                "weight": {
                    "value": "L"
                }
            },
            "effects": [],
            "flags": {
                "core": {
                    "sourceId": "Compendium.pf2e.equipment-srd.FPwsiGqMCNPLHmjX"
                }
            },
            "img": "systems/pf2e/icons/equipment/weapons/blowgun.webp",
            "name": "Blowgun",
            "sort": 700000,
            "type": "weapon"
        },
        {
            "_id": "qI6twUaVRsclA6HJ",
            "data": {
                "armor": {
                    "value": 1
                },
                "armorType": {
                    "value": "light"
                },
                "baseItem": "leather-armor",
                "brokenThreshold": {
                    "value": null
                },
                "bulkCapacity": {
                    "value": ""
                },
                "check": {
                    "value": -1
                },
                "collapsed": {
                    "value": false
                },
                "containerId": {
                    "value": ""
                },
                "description": {
                    "value": "<p>A mix of flexible and molded boiled leather, a suit of this type of armor provides some protection with maximum flexibility.</p>"
                },
                "dex": {
                    "value": 4
                },
                "equipped": {
                    "value": false
                },
                "equippedBulk": {
                    "value": "1"
                },
                "group": {
                    "value": "leather"
                },
                "hardness": {
                    "value": null
                },
                "hp": {
                    "value": null
                },
                "identification": {
                    "misidentified": {},
                    "status": "identified",
                    "unidentified": {
                        "data": {
                            "description": {
                                "value": ""
                            }
                        },
                        "img": "",
                        "name": ""
                    }
                },
                "invested": {
                    "value": false
                },
                "level": {
                    "value": 8
                },
                "maxHp": {
                    "value": null
                },
                "negateBulk": {
                    "value": "0"
                },
                "potency": {},
                "potencyRune": {
                    "value": 1
                },
                "preciousMaterial": {
                    "value": null
                },
                "preciousMaterialGrade": {
                    "value": null
                },
                "price": {
                    "value": "500 gp"
                },
                "propertyRune1": {
                    "value": ""
                },
                "propertyRune2": {
                    "value": ""
                },
                "propertyRune3": {
                    "value": ""
                },
                "propertyRune4": {
                    "value": ""
                },
                "quantity": {
                    "value": 1
                },
                "resiliencyRune": {
                    "value": "resilient"
                },
                "rules": [],
                "size": {
                    "value": "med"
                },
                "slug": "leather-armor",
                "source": {
                    "value": ""
                },
                "speed": {
                    "value": 0
                },
                "stackGroup": {
                    "value": ""
                },
                "strength": {
                    "value": 10
                },
                "traits": {
                    "custom": "",
                    "rarity": {
                        "value": "common"
                    },
                    "value": []
                },
                "usage": {
                    "value": "wornarmor"
                },
                "weight": {
                    "value": "2"
                }
            },
            "effects": [],
            "flags": {
                "core": {
                    "sourceId": "Compendium.pf2e.equipment-srd.4tIVTg9wj56RrveA"
                }
            },
            "img": "systems/pf2e/icons/equipment/armor/leather-armor.webp",
            "name": "+1 Resilient Leather Armor",
            "sort": 800000,
            "type": "armor"
        },
        {
            "_id": "7Afkzbe3xhQIPSKe",
            "data": {
                "baseItem": null,
                "brokenThreshold": {
                    "value": 0
                },
                "bulkCapacity": {
                    "value": ""
                },
                "collapsed": {
                    "value": false
                },
                "containerId": {
                    "value": ""
                },
                "description": {
                    "value": "<p>You can manacle someone who is willing or otherwise at your mercy as an exploration activity taking 10-30 seconds depending on the creature's size and how many manacles you apply. A two‑legged creature with its legs bound takes a -15‑foot circumstance penalty to its Speeds, and a two‑handed creature with its wrists bound has to succeed at a DC 5 flat check any time it uses a manipulate action or else that action fails. This DC may be higher depending on how tightly the manacles constrain the hands. A creature bound to a stationary object is immobilized. For creatures with more or fewer limbs, the GM determines what effect manacles have, if any.Freeing a creature from good manacles requires five successful DC 32 Thievery checks.</p>"
                },
                "equipped": {
                    "value": false
                },
                "equippedBulk": {
                    "value": ""
                },
                "hardness": {
                    "value": 0
                },
                "hp": {
                    "value": 0
                },
                "identification": {
                    "misidentified": {},
                    "status": "identified",
                    "unidentified": {
                        "data": {
                            "description": {
                                "value": ""
                            }
                        },
                        "img": "",
                        "name": ""
                    }
                },
                "invested": {
                    "value": false
                },
                "level": {
                    "value": 9
                },
                "maxHp": {
                    "value": 0
                },
                "negateBulk": {
                    "value": "0"
                },
                "preciousMaterial": {
                    "value": ""
                },
                "preciousMaterialGrade": {
                    "value": ""
                },
                "price": {
                    "value": "250 gp"
                },
                "quantity": {
                    "value": 1
                },
                "rules": [],
                "size": {
                    "value": "med"
                },
                "slug": "manacles-good",
                "source": {
                    "value": "Pathfinder Core Rulebook"
                },
                "stackGroup": {
                    "value": ""
                },
                "traits": {
                    "custom": "",
                    "rarity": {
                        "value": "common"
                    },
                    "value": []
                },
                "usage": {
                    "value": "held-in-one-hand"
                },
                "weight": {
                    "value": "-"
                }
            },
            "effects": [],
            "flags": {
                "core": {
                    "sourceId": "Compendium.pf2e.equipment-srd.5g0rE5yMsTH3E2LJ"
                }
            },
            "img": "systems/pf2e/icons/equipment/adventuring-gear/manacles.webp",
            "name": "Manacles (Good)",
            "sort": 900000,
            "type": "equipment"
        },
        {
            "_id": "5xmJxT1ZiZuJgbB3",
            "data": {
                "activation": {
                    "condition": "",
                    "cost": 0,
                    "type": ""
                },
                "autoDestroy": {
                    "_deprecated": true,
                    "value": true
                },
                "autoUse": {
                    "_deprecated": true,
                    "value": true
                },
                "baseItem": null,
                "brokenThreshold": {
                    "value": 0
                },
                "bulkCapacity": {
                    "value": ""
                },
                "charges": {
                    "_deprecated": true,
                    "max": 0,
                    "value": 0
                },
                "collapsed": {
                    "value": false
                },
                "consumableType": {
                    "value": "ammo"
                },
                "consume": {
                    "_deprecated": true,
                    "value": ""
                },
                "containerId": {
                    "value": ""
                },
                "description": {
                    "value": "<p>These thin, light darts are typically made of hardwood and stabilized with fletching of down or fur. They are often hollow so they can be used to deliver poison.</p>"
                },
                "duration": {
                    "units": "",
                    "value": null
                },
                "equipped": {
                    "value": false
                },
                "equippedBulk": {
                    "value": ""
                },
                "hardness": {
                    "value": 0
                },
                "hp": {
                    "value": 0
                },
                "identification": {
                    "misidentified": {},
                    "status": "identified",
                    "unidentified": {
                        "data": {
                            "description": {
                                "value": ""
                            }
                        },
                        "img": "",
                        "name": ""
                    }
                },
                "level": {
                    "value": 0
                },
                "maxHp": {
                    "value": 0
                },
                "negateBulk": {
                    "value": "0"
                },
                "preciousMaterial": {
                    "value": ""
                },
                "preciousMaterialGrade": {
                    "value": ""
                },
                "price": {
                    "value": "5 cp"
                },
                "quantity": {
                    "value": 20
                },
                "range": {
                    "long": null,
                    "units": "",
                    "value": null
                },
                "rules": [],
                "size": {
                    "value": "med"
                },
                "slug": "blowgun-darts",
                "source": {
                    "value": "Pathfinder Core Rulebook"
                },
                "spell": {
                    "data": null,
                    "heightenedLevel": null
                },
                "stackGroup": {
                    "value": "blowgunDarts"
                },
                "target": {
                    "type": "",
                    "units": "",
                    "value": null
                },
                "traits": {
                    "custom": "",
                    "rarity": {
                        "value": "common"
                    },
                    "value": []
                },
                "usage": {
                    "value": "held-in-one-hand"
                },
                "uses": {
                    "autoDestroy": true,
                    "autoUse": true,
                    "max": 0,
                    "per": null,
                    "value": 0
                },
                "weight": {
                    "value": "-"
                }
            },
            "effects": [],
            "flags": {
                "core": {
                    "sourceId": "Compendium.pf2e.equipment-srd.sqhr1crb184s3Vnd"
                }
            },
            "img": "systems/pf2e/icons/equipment/weapons/blowgun-dart.webp",
            "name": "Blowgun Darts",
            "sort": 1000000,
            "type": "consumable"
        },
        {
            "_id": "ZeNnnsPWhSxxn2jp",
            "data": {
                "activation": {
                    "condition": "",
                    "cost": 0,
                    "type": ""
                },
                "autoDestroy": {
                    "_deprecated": true,
                    "value": true
                },
                "autoUse": {
                    "_deprecated": true,
                    "value": true
                },
                "baseItem": null,
                "brokenThreshold": {
                    "value": 0
                },
                "bulkCapacity": {
                    "value": ""
                },
                "charges": {
                    "_deprecated": true,
                    "max": 1,
                    "value": 1
                },
                "collapsed": {
                    "value": false
                },
                "consumableType": {
                    "value": "potion"
                },
                "consume": {
                    "_deprecated": true,
                    "value": ""
                },
                "containerId": {
                    "value": ""
                },
                "description": {
                    "value": "<p>Lethargy poison is commonly used in hit-and-run tactics by drow and others who want their victims alive; the ambusher retreats until the poison sets in and the victim falls unconscious. Further exposure to lethargy poison does not require the target to attempt additional saving throws; only failing an saving throw against an ongoing exposure can progress its stage.</p>\n<hr />\n<p><strong>Activate</strong> <span class=\"pf2-icon\">D</span> Interact (Injury)</p>\n<p><strong>Saving Throw</strong> <span data-pf2-check=\"fortitude\" data-pf2-dc=\"18\" data-pf2-traits=\"alchemical,conjuration,incapacitation,injury,poison,sleep\" data-pf2-label=\"Lethargy Poison DC\" data-pf2-show-dc=\"gm\">Fortitude</span></p>\n<p><strong>Maximum Duration</strong> 4 hours</p>\n<p><strong>Stage 1</strong> @Compendium[pf2e.conditionitems.Slowed]{Slowed 1} (1 round)</p>\n<p><strong>Stage 2</strong> slowed 1 (1 minute)</p>\n<p><strong>Stage 3</strong> @Compendium[pf2e.conditionitems.Unconscious]{Unconscious} with no Perception check to wake up (1 round)</p>\n<p><strong>Stage 4</strong> unconscious with no Perception check to wake up ([[/br 1d4 #hours]]{1d4 hours}).</p>"
                },
                "duration": {
                    "units": "",
                    "value": null
                },
                "equipped": {
                    "value": false
                },
                "equippedBulk": {
                    "value": ""
                },
                "hardness": {
                    "value": 0
                },
                "hp": {
                    "value": 0
                },
                "identification": {
                    "misidentified": {},
                    "status": "identified",
                    "unidentified": {
                        "data": {
                            "description": {
                                "value": ""
                            }
                        },
                        "img": "",
                        "name": ""
                    }
                },
                "level": {
                    "value": 2
                },
                "maxHp": {
                    "value": 0
                },
                "negateBulk": {
                    "value": "0"
                },
                "preciousMaterial": {
                    "value": ""
                },
                "preciousMaterialGrade": {
                    "value": ""
                },
                "price": {
                    "value": "7 gp"
                },
                "quantity": {
                    "value": 4
                },
                "range": {
                    "long": null,
                    "units": "",
                    "value": null
                },
                "rules": [],
                "size": {
                    "value": "med"
                },
                "slug": "lethargy-poison",
                "source": {
                    "value": "Pathfinder Core Rulebook"
                },
                "spell": {
                    "data": null,
                    "heightenedLevel": null
                },
                "stackGroup": {
                    "value": ""
                },
                "target": {
                    "type": "",
                    "units": "",
                    "value": null
                },
                "traits": {
                    "custom": "",
                    "rarity": {
                        "value": "uncommon"
                    },
                    "value": [
                        "alchemical",
                        "conjuration",
                        "incapacitation",
                        "injury",
                        "poison",
                        "sleep"
                    ]
                },
                "usage": {
                    "value": "held-in-one-hand"
                },
                "uses": {
                    "autoDestroy": true,
                    "autoUse": true,
                    "max": 0,
                    "per": null,
                    "value": 0
                },
                "weight": {
                    "value": "L"
                }
            },
            "effects": [],
            "flags": {
                "core": {
                    "sourceId": "Compendium.pf2e.equipment-srd.zo0ophqfKunJFxZN"
                }
            },
            "img": "systems/pf2e/icons/equipment/alchemical-items/alchemical-poisons/lethargy-poison.webp",
            "name": "Lethargy Poison",
            "sort": 1100000,
            "type": "consumable"
        },
        {
            "_id": "iyIXzElmltmOUYSw",
            "data": {
                "activation": {
                    "condition": "",
                    "cost": 0,
                    "type": ""
                },
                "autoDestroy": {
                    "_deprecated": true,
                    "value": true
                },
                "autoUse": {
                    "_deprecated": true,
                    "value": true
                },
                "baseItem": null,
                "brokenThreshold": {
                    "value": 0
                },
                "bulkCapacity": {
                    "value": ""
                },
                "charges": {
                    "_deprecated": true,
                    "max": 1,
                    "value": 1
                },
                "collapsed": {
                    "value": false
                },
                "consumableType": {
                    "value": "potion"
                },
                "consume": {
                    "_deprecated": true,
                    "value": ""
                },
                "containerId": {
                    "value": ""
                },
                "description": {
                    "value": "<p>Venom from enormous purple worms leaves a victim weakened.</p>\n<hr />\n<p><strong>Activate</strong> <span class=\"pf2-icon\">D</span> Interact (Injury)</p>\n<p><strong>Saving Throw</strong> <span data-pf2-check=\"fortitude\" data-pf2-dc=\"32\" data-pf2-traits=\"alchemical,consumable,injury,poison\" data-pf2-label=\"Purple Worm Venom DC\" data-pf2-show-dc=\"gm\">Fortitude</span></p>\n<p><strong>Maximum Duration</strong> 6 rounds</p>\n<p><strong>Stage 1</strong> [[/r {5d6}[poison]]]{5d6 poison damage} and @Compendium[pf2e.conditionitems.Enfeebled]{Enfeebled 2} (1 round)</p>\n<p><strong>Stage 2</strong> [[/r {6d6}[poison]]]{6d6 poison damage} and enfeebled 2 (1 round)</p>\n<p><strong>Stage 3</strong> [[/r {8d6}[poison]]]{8d6 poison damage} and enfeebled 2 (1 round)</p>"
                },
                "duration": {
                    "units": "",
                    "value": null
                },
                "equipped": {
                    "value": false
                },
                "equippedBulk": {
                    "value": ""
                },
                "hardness": {
                    "value": 0
                },
                "hp": {
                    "value": 0
                },
                "identification": {
                    "misidentified": {},
                    "status": "identified",
                    "unidentified": {
                        "data": {
                            "description": {
                                "value": ""
                            }
                        },
                        "img": "",
                        "name": ""
                    }
                },
                "level": {
                    "value": 13
                },
                "maxHp": {
                    "value": 0
                },
                "negateBulk": {
                    "value": "0"
                },
                "preciousMaterial": {
                    "value": ""
                },
                "preciousMaterialGrade": {
                    "value": ""
                },
                "price": {
                    "value": "500 gp"
                },
                "quantity": {
                    "value": 1
                },
                "range": {
                    "long": null,
                    "units": "",
                    "value": null
                },
                "rules": [],
                "size": {
                    "value": "med"
                },
                "slug": "purple-worm-venom",
                "source": {
                    "value": "Pathfinder Core Rulebook"
                },
                "spell": {
                    "data": null,
                    "heightenedLevel": null
                },
                "stackGroup": {
                    "value": ""
                },
                "target": {
                    "type": "",
                    "units": "",
                    "value": null
                },
                "traits": {
                    "custom": "",
                    "rarity": {
                        "value": "common"
                    },
                    "value": [
                        "alchemical",
                        "consumable",
                        "injury",
                        "poison"
                    ]
                },
                "usage": {
                    "value": "held-in-one-hand"
                },
                "uses": {
                    "autoDestroy": true,
                    "autoUse": true,
                    "max": 0,
                    "per": null,
                    "value": 0
                },
                "weight": {
                    "value": "L"
                }
            },
            "effects": [],
            "flags": {
                "core": {
                    "sourceId": "Compendium.pf2e.equipment-srd.iRDCa4OVSTGUD3vi"
                }
            },
            "img": "systems/pf2e/icons/equipment/alchemical-items/alchemical-poisons/purple-worm-venom.webp",
            "name": "Purple Worm Venom",
            "sort": 1200000,
            "type": "consumable"
        },
        {
            "_id": "jEFmMCQkUOlH3g51",
            "data": {
                "baseItem": null,
                "brokenThreshold": {
                    "value": 0
                },
                "bulkCapacity": {
                    "value": ""
                },
                "collapsed": {
                    "value": false
                },
                "containerId": {
                    "value": ""
                },
                "denomination": {
                    "value": "gp"
                },
                "description": {
                    "value": ""
                },
                "equipped": {
                    "value": false
                },
                "equippedBulk": {
                    "value": ""
                },
                "hardness": {
                    "value": 0
                },
                "hp": {
                    "value": 0
                },
                "identification": {
                    "misidentified": {},
                    "status": "identified",
                    "unidentified": {
                        "data": {
                            "description": {
                                "value": ""
                            }
                        },
                        "img": "",
                        "name": ""
                    }
                },
                "level": {
                    "value": 0
                },
                "maxHp": {
                    "value": 0
                },
                "negateBulk": {
                    "value": "0"
                },
                "preciousMaterial": {
                    "value": ""
                },
                "preciousMaterialGrade": {
                    "value": ""
                },
                "price": {
                    "value": "0 gp"
                },
                "quantity": {
                    "value": 1
                },
                "rules": [],
                "size": {
                    "value": "med"
                },
                "slug": "engraved-copper-ring",
                "source": {
                    "value": ""
                },
                "stackGroup": {
                    "value": ""
                },
                "traits": {
                    "custom": "",
                    "rarity": {
                        "value": "common"
                    },
                    "value": []
                },
                "usage": {
                    "value": ""
                },
                "value": {
                    "value": 100
                },
                "weight": {
                    "value": "-"
                }
            },
            "effects": [],
            "flags": {
                "core": {
                    "sourceId": "Compendium.pf2e.equipment-srd.Mm3xgz27Q94wZhti"
                }
            },
            "img": "systems/pf2e/icons/equipment/treasure/art-objects/minor-art-object/engraved-copper-ring.webp",
            "name": "Ruby and Sapphire ring",
            "sort": 1300000,
            "type": "treasure"
        },
        {
            "_id": "j5LDyAGkf9FeoBAt",
            "data": {
                "attack": {
                    "value": ""
                },
                "attackEffects": {
                    "value": []
                },
                "bonus": {
                    "value": 24
                },
                "damageRolls": {
                    "3gpq4kz9gnglakvjgu96": {
                        "damage": "2d6+8",
                        "damageType": "piercing"
                    }
                },
                "description": {
                    "value": ""
                },
                "rules": [],
                "slug": null,
                "source": {
                    "value": ""
                },
                "traits": {
                    "custom": "",
                    "rarity": {
                        "value": "common"
                    },
                    "value": [
                        "deadly-d8",
                        "disarm",
                        "finesse"
                    ]
                },
                "weaponType": {
                    "value": "melee"
                }
            },
            "effects": [],
            "flags": {},
            "img": "systems/pf2e/icons/default-icons/melee.svg",
            "name": "Rapier",
            "sort": 1400000,
            "type": "melee"
        },
        {
            "_id": "Lib2HMDlJgkSTQcZ",
            "data": {
                "attack": {
                    "value": ""
                },
                "attackEffects": {
                    "custom": "poison",
                    "value": []
                },
                "bonus": {
                    "value": 24
                },
                "damageRolls": {
                    "ikabv2pxeweo2mu4lw1x": {
                        "damage": "7",
                        "damageType": "piercing"
                    }
                },
                "description": {
                    "value": ""
                },
                "rules": [],
                "slug": null,
                "source": {
                    "value": ""
                },
                "traits": {
                    "custom": "",
                    "rarity": {
                        "value": "common"
                    },
                    "value": [
                        "agile",
                        "nonlethal",
                        "range-increment-20",
                        "reload-1"
                    ]
                },
                "weaponType": {
                    "value": "ranged"
                }
            },
            "effects": [],
            "flags": {},
            "img": "systems/pf2e/icons/default-icons/melee.svg",
            "name": "Blowgun",
            "sort": 1500000,
            "type": "melee"
        },
        {
            "_id": "9dzKJk6ywUvYJxGr",
            "data": {
                "actionCategory": {
                    "value": "offensive"
                },
                "actionType": {
                    "value": "action"
                },
                "actions": {
                    "value": 3
                },
                "description": {
                    "value": "<p data-visibility=\"gm\"><strong>Requirements</strong> The Scarlet Triad agent has manacles in hand and is adjacent to a creature.</p>\n<p><strong>Effect</strong> The Scarlet Triad agent attempts to bind the creature's wrists or ankles with the manacles. If they succeed at an attack roll with a [[/r 1d20+24]]{+24 modifier} against the target's AC, they apply the manacles.</p>"
                },
                "requirements": {
                    "value": ""
                },
                "rules": [],
                "slug": null,
                "source": {
                    "value": ""
                },
                "traits": {
                    "custom": "",
                    "rarity": {
                        "value": "common"
                    },
                    "value": [
                        "attack",
                        "manipulate"
                    ]
                },
                "trigger": {
                    "value": ""
                }
            },
            "effects": [],
            "flags": {},
            "img": "systems/pf2e/icons/actions/ThreeActions.webp",
            "name": "Efficient Capture",
            "sort": 1600000,
            "type": "action"
        },
        {
            "_id": "tfAQ1l4sV2c1psLD",
            "data": {
                "actionCategory": {
                    "value": "offensive"
                },
                "actionType": {
                    "value": "free"
                },
                "actions": {
                    "value": null
                },
                "description": {
                    "value": "<p data-visibility=\"gm\"><strong>Trigger</strong> The Scarlet Triad agent's Strike hits a flat- footed creature and deals damage.</p>\n<p><strong>Effect</strong> The Scarlet Triad agent applies one of the following debilitations to the creature, which lasts until the end of their next turn.</p>\n<ul>\n<li><em>Brow Gash</em> The target becomes @Compendium[pf2e.conditionitems.Flat-Footed]{Flat-Footed}.</li>\n<li><em>Deep Cut</em> The target takes an additional [[/r 2d6[precision]]]{2d6 precision damage} from the Scarlet Triad agent's attacks.</li>\n<li><em>Hamstring</em> The target takes a -10-foot status penalty to its Speeds.</li>\n<li><em>Low Blow</em> The target becomes @Compendium[pf2e.conditionitems.Enfeebled]{Enfeebled 1}.</li>\n</ul>"
                },
                "requirements": {
                    "value": ""
                },
                "rules": [
                    {
                        "key": "Note",
                        "predicate": {
                            "all": [
                                "target:flatFooted"
                            ]
                        },
                        "selector": "damage",
                        "text": "<p class='compact-text' data-visibility='gm'><strong>Precise Debilitations</strong> <span class='pf2-icon'>f</span> The Scarlet Triad agent applies one of the following debilitations to the creature, which lasts until the end of their next turn.</p><p class='compact-text' data-visibility='gm'><em>Brow Gash</em> The target becomes @Compendium[pf2e.conditionitems.Flat-Footed]{Flat-Footed}.</p><p class='compact-text' data-visibility='gm'><em>Deep Cut</em> The target takes an additional [[/r 2d6[precision]]]{2d6 precision damage} from the Scarlet Triad agent's attacks.</p><p class='compact-text' data-visibility='gm'><em>Hamstring</em> The target takes a -10-foot status penalty to its Speeds.</p><p class='compact-text' data-visibility='gm'><em>Low Blow</em> The target becomes @Compendium[pf2e.conditionitems.Enfeebled]{Enfeebled 1}.</p>"
                    }
                ],
                "slug": null,
                "source": {
                    "value": ""
                },
                "traits": {
                    "custom": "",
                    "rarity": {
                        "value": "common"
                    },
                    "value": []
                },
                "trigger": {
                    "value": ""
                }
            },
            "effects": [],
            "flags": {},
            "img": "systems/pf2e/icons/actions/FreeAction.webp",
            "name": "Precise Debilitations",
            "sort": 1700000,
            "type": "action"
        },
        {
            "_id": "gfn5BwHE30Pa2NV4",
            "data": {
                "actionCategory": {
                    "value": "offensive"
                },
                "actionType": {
                    "value": "passive"
                },
                "actions": {
                    "value": null
                },
                "description": {
                    "value": "<p>[[/r 3d6[precision]]]{3d6 precision damage}</p>\n<p>@Localize[PF2E.NPC.Abilities.Glossary.SneakAttack</p>"
                },
                "requirements": {
                    "value": ""
                },
                "rules": [
                    {
                        "category": "precision",
                        "diceNumber": 3,
                        "dieSize": "d6",
                        "key": "DamageDice",
                        "predicate": {
                            "all": [
                                "target:flatFooted"
                            ],
                            "any": [
                                "finesse",
                                "agile",
                                "ranged"
                            ]
                        },
                        "selector": "damage"
                    }
                ],
                "slug": "sneak-attack",
                "source": {
                    "value": ""
                },
                "traits": {
                    "custom": "",
                    "rarity": {
                        "value": "common"
                    },
                    "value": []
                },
                "trigger": {
                    "value": ""
                },
                "weapon": {
                    "value": ""
                }
            },
            "effects": [],
            "flags": {
                "core": {
                    "sourceId": "Compendium.pf2e.bestiary-ability-glossary-srd.AWvNPE4U0kEJSL1T"
                }
            },
            "img": "systems/pf2e/icons/actions/Passive.webp",
            "name": "Sneak Attack",
            "sort": 1800000,
            "type": "action"
        },
        {
            "_id": "SJvjp5tv9lMwcTyw",
            "data": {
                "actionCategory": {
                    "value": "offensive"
                },
                "actionType": {
                    "value": "passive"
                },
                "actions": {
                    "value": null
                },
                "description": {
                    "value": "<p>When the Scarlet Triad agent critically succeeds at an attack roll against a @Compendium[pf2e.conditionitems.Flat-Footed]{Flat-Footed} creature, they apply the critical specialization effect for the weapon they are wielding.</p>"
                },
                "requirements": {
                    "value": ""
                },
                "rules": [
                    {
                        "key": "Note",
                        "outcome": [
                            "criticalSuccess"
                        ],
                        "predicate": {
                            "all": [
                                "target:flatFooted"
                            ]
                        },
                        "selector": "rapier-damage",
                        "text": "<p class='compact-text'><strong>Critical Specialization</strong> The target is made off-balance by your attack, becoming @Compendium[pf2e.conditionitems.Flat-Footed]{Flat-Footed} until the start of your next turn.</p>"
                    },
                    {
                        "key": "Note",
                        "outcome": [
                            "criticalSuccess"
                        ],
                        "predicate": {
                            "all": [
                                "target:flatFooted"
                            ]
                        },
                        "selector": "blowgun-damage",
                        "text": "<p class='compact-text'><strong>Critical Specialization</strong> The target takes [[/r {1d6+1}[persistent,bleed]]] @Compendium[pf2e.conditionitems.Persistent Damage]{Persistent Bleed Damage}.</p>"
                    }
                ],
                "slug": null,
                "source": {
                    "value": ""
                },
                "traits": {
                    "custom": "",
                    "rarity": {
                        "value": "common"
                    },
                    "value": []
                },
                "trigger": {
                    "value": ""
                }
            },
            "effects": [],
            "flags": {},
            "img": "systems/pf2e/icons/actions/Passive.webp",
            "name": "Weapon Trick",
            "sort": 1900000,
            "type": "action"
        },
        {
            "_id": "DWZEMkESl2TzGE7S",
            "data": {
                "description": {
                    "value": ""
                },
                "item": {
                    "value": 0
                },
                "mod": {
                    "value": 22
                },
                "proficient": {
                    "value": 0
                },
                "rules": [],
                "slug": null,
                "source": {
                    "value": ""
                },
                "traits": {
                    "custom": "",
                    "rarity": {
                        "value": "common"
                    },
                    "value": []
                }
            },
            "effects": [],
            "flags": {},
            "img": "systems/pf2e/icons/default-icons/lore.svg",
            "name": "Acrobatics",
            "sort": 2000000,
            "type": "lore"
        },
        {
            "_id": "IkMZWKhBdRo6O9O3",
            "data": {
                "description": {
                    "value": ""
                },
                "item": {
                    "value": 0
                },
                "mod": {
                    "value": 15
                },
                "proficient": {
                    "value": 0
                },
                "rules": [],
                "slug": null,
                "source": {
                    "value": ""
                },
                "traits": {
                    "custom": "",
                    "rarity": {
                        "value": "common"
                    },
                    "value": []
                }
            },
            "effects": [],
            "flags": {},
            "img": "systems/pf2e/icons/default-icons/lore.svg",
            "name": "Arcana",
            "sort": 2100000,
            "type": "lore"
        },
        {
            "_id": "l3crPYv8atICycAc",
            "data": {
                "description": {
                    "value": ""
                },
                "item": {
                    "value": 0
                },
                "mod": {
                    "value": 19
                },
                "proficient": {
                    "value": 0
                },
                "rules": [],
                "slug": null,
                "source": {
                    "value": ""
                },
                "traits": {
                    "custom": "",
                    "rarity": {
                        "value": "common"
                    },
                    "value": []
                }
            },
            "effects": [],
            "flags": {},
            "img": "systems/pf2e/icons/default-icons/lore.svg",
            "name": "Athletics",
            "sort": 2200000,
            "type": "lore"
        },
        {
            "_id": "exJ9szl2q03IU0Wv",
            "data": {
                "description": {
                    "value": ""
                },
                "item": {
                    "value": 0
                },
                "mod": {
                    "value": 23
                },
                "proficient": {
                    "value": 0
                },
                "rules": [],
                "slug": null,
                "source": {
                    "value": ""
                },
                "traits": {
                    "custom": "",
                    "rarity": {
                        "value": "common"
                    },
                    "value": []
                }
            },
            "effects": [],
            "flags": {},
            "img": "systems/pf2e/icons/default-icons/lore.svg",
            "name": "Deception",
            "sort": 2300000,
            "type": "lore"
        },
        {
            "_id": "wjJGW0BFMWLlCcmx",
            "data": {
                "description": {
                    "value": ""
                },
                "item": {
                    "value": 0
                },
                "mod": {
                    "value": 19
                },
                "proficient": {
                    "value": 0
                },
                "rules": [],
                "slug": null,
                "source": {
                    "value": ""
                },
                "traits": {
                    "custom": "",
                    "rarity": {
                        "value": "common"
                    },
                    "value": []
                }
            },
            "effects": [],
            "flags": {},
            "img": "systems/pf2e/icons/default-icons/lore.svg",
            "name": "Nature",
            "sort": 2400000,
            "type": "lore"
        },
        {
            "_id": "98vwDaWhPbhpDiPw",
            "data": {
                "description": {
                    "value": ""
                },
                "item": {
                    "value": 0
                },
                "mod": {
                    "value": 24
                },
                "proficient": {
                    "value": 0
                },
                "rules": [],
                "slug": null,
                "source": {
                    "value": ""
                },
                "traits": {
                    "custom": "",
                    "rarity": {
                        "value": "common"
                    },
                    "value": []
                }
            },
            "effects": [],
            "flags": {},
            "img": "systems/pf2e/icons/default-icons/lore.svg",
            "name": "Stealth",
            "sort": 2500000,
            "type": "lore"
        },
        {
            "_id": "AUVtpMN2WCt1gqXn",
            "data": {
                "description": {
                    "value": ""
                },
                "item": {
                    "value": 0
                },
                "mod": {
                    "value": 24
                },
                "proficient": {
                    "value": 0
                },
                "rules": [],
                "slug": null,
                "source": {
                    "value": ""
                },
                "traits": {
                    "custom": "",
                    "rarity": {
                        "value": "common"
                    },
                    "value": []
                }
            },
            "effects": [],
            "flags": {},
            "img": "systems/pf2e/icons/default-icons/lore.svg",
            "name": "Thievery",
            "sort": 2600000,
            "type": "lore"
        }
    ],
    "name": "Scarlet Triad Agent",
    "token": {
        "disposition": -1,
        "height": 1,
        "img": "systems/pf2e/icons/default-icons/npc.svg",
        "name": "Scarlet Triad Agent",
        "width": 1
    },
    "type": "npc"
}
