{
    "_id": "bZF7zf43UBxS188h",
    "content": "<table class=\"pf2-table\">\n<thead>\n<tr>\n<th>\n<h3><strong>Name</strong></h3>\n</th>\n<th>\n<h3><strong>Crit Effect</strong></h3>\n</th>\n<th>\n<h3><strong>Type</strong></h3>\n</th>\n</tr>\n</thead>\n<tbody>\n<tr>\n<td>\n<h3>Busted Shin</h3>\n</td>\n<td>\n<h3>Until healed, the target is clumsy 1 and takes a -10-foot status penalty to its land Speed.</h3>\n</td>\n<td>\n<h3>Bludgeoning</h3>\n</td>\n</tr>\n<tr>\n<td>\n<h3 style=\"box-sizing: border-box; user-select: text; color: #191813;\">Perfect strike</h3>\n</td>\n<td>\n<h3 style=\"box-sizing: border-box; user-select: text; color: #191813;\">Triple damage.</h3>\n</td>\n<td>\n<h3>Piercing</h3>\n</td>\n</tr>\n<tr>\n<td>\n<h3 style=\"box-sizing: border-box; user-select: text; color: #191813;\">Sapping Slash</h3>\n</td>\n<td>\n<h3 style=\"box-sizing: border-box; user-select: text; color: #191813;\">The target is fatigued.</h3>\n</td>\n<td>\n<h3>Slashing</h3>\n</td>\n</tr>\n<tr>\n<td>\n<h3 style=\"box-sizing: border-box; user-select: text; color: #191813;\">Light Blast</h3>\n</td>\n<td>\n<h3 style=\"box-sizing: border-box; user-select: text; color: #191813;\">The target is blinded until the end of its next turn.</h3>\n</td>\n<td>\n<h3>Bomb or Spell</h3>\n</td>\n</tr>\n</tbody>\n</table>\n<h3 style=\"text-align: left;\"> </h3>",
    "flags": {},
    "name": "Critical Hit Deck #48",
    "permission": {
        "default": 0
    }
}
