{
    "_id": "xsBlA35rvfHSzJe4",
    "content": "<table class=\"pf2-table\">\n<thead>\n<tr>\n<th>\n<h3><strong>Name</strong></h3>\n</th>\n<th>\n<h3><strong>Crit Effect</strong></h3>\n</th>\n<th>\n<h3><strong>Type</strong></h3>\n</th>\n</tr>\n</thead>\n<tbody>\n<tr>\n<td>Broken Weapon</td>\n<td>Your weapon's current Hit Point are reduced to its Broken Threshold. If already broken, the weapon takes 3d6 damage, ignoring Hardness.</td>\n<td>\n<h3>Melee</h3>\n</td>\n</tr>\n<tr>\n<td>My Spleeny Bits!</td>\n<td>You become wounded 1 or your wounded value increases by 1.</td>\n<td>\n<h3>Ranged</h3>\n</td>\n</tr>\n<tr>\n<td>Frustration</td>\n<td>You take a -2 circumstance penalty to attack rolls until the end of your next turn.</td>\n<td>\n<h3>Unarmed</h3>\n</td>\n</tr>\n<tr>\n<td>Beastly Rift</td>\n<td>Your spell becomes a <em>summon animal</em> spell of the same level. The animal attacks you.</td>\n<td>\n<h3>Spell</h3>\n</td>\n</tr>\n</tbody>\n</table>\n<h3 style=\"text-align: left;\"> </h3>",
    "flags": {},
    "name": "Critical Fumble Deck #15",
    "permission": {
        "default": 0
    }
}
