{
    "_id": "YRY6c3WdBEuKiOCv",
    "content": "<table class=\"pf2-table\">\n<thead>\n<tr>\n<th>\n<h3><strong>Name</strong></h3>\n</th>\n<th>\n<h3><strong>Crit Effect</strong></h3>\n</th>\n<th>\n<h3><strong>Type</strong></h3>\n</th>\n</tr>\n</thead>\n<tbody>\n<tr>\n<td>Winded</td>\n<td>You are fatigued.</td>\n<td>\n<h3>Melee</h3>\n</td>\n</tr>\n<tr>\n<td>Bad Alignment</td>\n<td>You take a -2 circumstance penalty to attacks using this weapon until the end of your next turn.</td>\n<td>\n<h3>Ranged</h3>\n</td>\n</tr>\n<tr>\n<td>It bit your Fist</td>\n<td>The target deals jaws damage to you.</td>\n<td>\n<h3>Unarmed</h3>\n</td>\n</tr>\n<tr>\n<td>Poor Trade</td>\n<td>You hit, but you lose a prepared spell or spell slot of the highest level available (you choose the spell).</td>\n<td>\n<h3>Spell</h3>\n</td>\n</tr>\n</tbody>\n</table>\n<h3 style=\"text-align: left;\"> </h3>",
    "flags": {},
    "name": "Critical Fumble Deck #42",
    "permission": {
        "default": 0
    }
}
