{
    "_id": "JfnvVoWqEHN1ymd5",
    "content": "<table class=\"pf2-table\">\n<thead>\n<tr>\n<th>\n<h3><strong>Name</strong></h3>\n</th>\n<th>\n<h3><strong>Crit Effect</strong></h3>\n</th>\n<th>\n<h3><strong>Type</strong></h3>\n</th>\n</tr>\n</thead>\n<tbody>\n<tr>\n<td>\n<h3>Shattered Hand</h3>\n</td>\n<td>\n<h3>Normal damage. Until healed, the target is clumsy 2 and enfeebled 2, and it can't use one of its hands (chosen randomly by the GM).</h3>\n</td>\n<td>\n<h3>Bludgeoning</h3>\n</td>\n</tr>\n<tr>\n<td>\n<h3>Right in the Ear</h3>\n</td>\n<td>\n<h3>Normal damage. The target is deafened until healed.</h3>\n</td>\n<td>\n<h3>Piercing</h3>\n</td>\n</tr>\n<tr>\n<td>\n<h3>Stand Aside</h3>\n</td>\n<td>\n<h3>Push the target 5 feet.</h3>\n</td>\n<td>\n<h3>Slashing</h3>\n</td>\n</tr>\n<tr>\n<td>\n<h3>Vampiric Feedback</h3>\n</td>\n<td>\n<h3>Normal damage. You regain Hit Points equal half the damage you dealt.</h3>\n</td>\n<td>\n<h3>Bomb or Spell</h3>\n</td>\n</tr>\n</tbody>\n</table>\n<h3 style=\"text-align: left;\"> </h3>",
    "flags": {},
    "name": "Critical Hit Deck #14",
    "permission": {
        "default": 0
    }
}
