{
    "_id": "Toz2ZIpy7N4pDmyi",
    "content": "<table class=\"pf2-table\">\n<thead>\n<tr>\n<th>\n<h3><strong>Name</strong></h3>\n</th>\n<th>\n<h3><strong>Crit Effect</strong></h3>\n</th>\n<th>\n<h3><strong>Type</strong></h3>\n</th>\n</tr>\n</thead>\n<tbody>\n<tr>\n<td>Overextended</td>\n<td>You trigger reactions as if you had used a move action.</td>\n<td>\n<h3>Melee</h3>\n</td>\n</tr>\n<tr>\n<td>Aching Back</td>\n<td>You are fatigued.</td>\n<td>\n<h3>Ranged</h3>\n</td>\n</tr>\n<tr>\n<td>Upset Stomach</td>\n<td>You are sickened 2.</td>\n<td>\n<h3>Unarmed</h3>\n</td>\n</tr>\n<tr>\n<td>Critical Backlash</td>\n<td>You critically hit yourself instead of the target.</td>\n<td>\n<h3>Spell</h3>\n</td>\n</tr>\n</tbody>\n</table>\n<h3 style=\"text-align: left;\"> </h3>",
    "flags": {},
    "name": "Critical Fumble Deck #18",
    "permission": {
        "default": 0
    }
}
