{
    "_id": "YcQEfWxkmpMWXUz4",
    "content": "<table class=\"pf2-table\">\n<thead>\n<tr>\n<th>\n<h3><strong>Name</strong></h3>\n</th>\n<th>\n<h3><strong>Crit Effect</strong></h3>\n</th>\n<th>\n<h3><strong>Type</strong></h3>\n</th>\n</tr>\n</thead>\n<tbody>\n<tr>\n<td>\n<h3>Solid Blow</h3>\n</td>\n<td>\n<h3>Triple damage.</h3>\n</td>\n<td>\n<h3>Bludgeoning</h3>\n</td>\n</tr>\n<tr>\n<td>\n<h3>Tenacious Wound</h3>\n</td>\n<td>\n<h3>Normal damage. The target can't heal this damage until it has rested at least 8 hours.</h3>\n</td>\n<td>\n<h3>Piercing</h3>\n</td>\n</tr>\n<tr>\n<td>\n<h3>Parrying Strike</h3>\n</td>\n<td>\n<h3>Gain a +2 circumstance bonus to AC until the end of your next turn.</h3>\n</td>\n<td>\n<h3>Slashing</h3>\n</td>\n</tr>\n<tr>\n<td>\n<h3>Phased</h3>\n</td>\n<td>\n<h3>The target becomes incorporeal (Pathfinder Bestiary 346) until the end of your next turn.</h3>\n</td>\n<td>\n<h3>Bomb or Spell</h3>\n</td>\n</tr>\n</tbody>\n</table>\n<h3 style=\"text-align: left;\"> </h3>",
    "flags": {},
    "name": "Critical Hit Deck #49",
    "permission": {
        "default": 0
    }
}
