{
    "_id": "x4850Hq18S9qYGed",
    "content": "<table class=\"pf2-table\">\n<thead>\n<tr>\n<th>\n<h3><strong>Name</strong></h3>\n</th>\n<th>\n<h3><strong>Crit Effect</strong></h3>\n</th>\n<th>\n<h3><strong>Type</strong></h3>\n</th>\n</tr>\n</thead>\n<tbody>\n<tr>\n<td>\n<h3>Dazing Thud</h3>\n</td>\n<td>\n<h3>The target is stunned 1.</h3>\n</td>\n<td>\n<h3>Bludgeoning</h3>\n</td>\n</tr>\n<tr>\n<td>\n<h3>Cheek Pierced</h3>\n</td>\n<td>\n<h3>The target must succeed at a DC 5 flat check to cast spells with a verbal component until healed.</h3>\n</td>\n<td>\n<h3>Piercing</h3>\n</td>\n</tr>\n<tr>\n<td>\n<h3>Across the Eyes</h3>\n</td>\n<td>\n<h3>Normal damage. The target is blinded until healed.</h3>\n</td>\n<td>\n<h3>Slashing</h3>\n</td>\n</tr>\n<tr>\n<td>\n<h3>Slowed Down</h3>\n</td>\n<td>\n<h3>The target is slowed 2 for 1 round.</h3>\n</td>\n<td>\n<h3>Bomb or Spell</h3>\n</td>\n</tr>\n</tbody>\n</table>\n<h3 style=\"text-align: left;\"> </h3>",
    "flags": {},
    "name": "Critical Hit Deck #31",
    "permission": {
        "default": 0
    }
}
