{
    "_id": "kjoBsS79JcjUUPnr",
    "content": "<table class=\"pf2-table\">\n<thead>\n<tr>\n<th>\n<h3><strong>Name</strong></h3>\n</th>\n<th>\n<h3><strong>Crit Effect</strong></h3>\n</th>\n<th>\n<h3><strong>Type</strong></h3>\n</th>\n</tr>\n</thead>\n<tbody>\n<tr>\n<td>rang your own Bell</td>\n<td>Until healed, you are deafened.</td>\n<td>\n<h3>Melee</h3>\n</td>\n</tr>\n<tr>\n<td>Lowered Guard</td>\n<td>You provoke reactions as if you used a move action.</td>\n<td>\n<h3>Ranged</h3>\n</td>\n</tr>\n<tr>\n<td>Ferocious Fumble</td>\n<td>You critically hit an ally within your reach (determined randomly by the GM).</td>\n<td>\n<h3>Unarmed</h3>\n</td>\n</tr>\n<tr>\n<td>The magic is Gone</td>\n<td>You take a -1 circumstance penalty to attack rolls until you score a critical hit.</td>\n<td>\n<h3>Spell</h3>\n</td>\n</tr>\n</tbody>\n</table>\n<h3 style=\"text-align: left;\"> </h3>",
    "flags": {},
    "name": "Critical Fumble Deck #38",
    "permission": {
        "default": 0
    }
}
