{
    "_id": "qD4ybNUceFacSJGu",
    "content": "<table class=\"pf2-table\">\n<thead>\n<tr>\n<th>\n<h3><strong>Name</strong></h3>\n</th>\n<th>\n<h3><strong>Crit Effect</strong></h3>\n</th>\n<th>\n<h3><strong>Type</strong></h3>\n</th>\n</tr>\n</thead>\n<tbody>\n<tr>\n<td>Bad Fall</td>\n<td>You fall prone and are slowed 1 until the end of your next turn.</td>\n<td>\n<h3>Melee</h3>\n</td>\n</tr>\n<tr>\n<td>Spraining Shot</td>\n<td>Until healed, you take a -10-foot circumstance penalty to your land Speed and are clumsy 1.</td>\n<td>\n<h3>Ranged</h3>\n</td>\n</tr>\n<tr>\n<td>Bad Jam</td>\n<td>You are clumsy 1 and enfeebled 2.</td>\n<td>\n<h3>Unarmed</h3>\n</td>\n</tr>\n<tr>\n<td>Exploding Skull</td>\n<td>You must attempt a Fortitude save. If you succeed, you take 3d6 mental damage. If you fail, your head explodes and you die.</td>\n<td>\n<h3>Spell</h3>\n</td>\n</tr>\n</tbody>\n</table>\n<h3 style=\"text-align: left;\"> </h3>",
    "flags": {},
    "name": "Critical Fumble Deck #3",
    "permission": {
        "default": 0
    }
}
