{
    "_id": "LVy8SfUF8Jrd6X18",
    "data": {
        "description": {
            "value": ""
        },
        "duration": {
            "expiry": "turn-start",
            "sustained": false,
            "unit": "hours",
            "value": 1
        },
        "level": {
            "value": 9
        },
        "rules": [
            {
                "key": "FlatModifier",
                "selector": "stealth",
                "type": "item",
                "value": 2
            },
            {
                "key": "FlatModifier",
                "selector": "intimidation",
                "type": "item",
                "value": 2
            },
            {
                "key": "FlatModifier",
                "selector": "diplomacy",
                "type": "item",
                "value": -2
            },
            {
                "key": "FlatModifier",
                "selector": "society",
                "type": "item",
                "value": -2
            }
        ],
        "source": {
            "value": "Pathfinder #170: Spoken on the Song Wind"
        },
        "start": {
            "initiative": null,
            "value": 0
        },
        "target": null,
        "tokenIcon": {
            "show": true
        },
        "traits": {
            "custom": "",
            "rarity": {
                "value": "common"
            },
            "value": []
        }
    },
    "effects": [],
    "flags": {},
    "img": "systems/pf2e/icons/default-icons/effect.svg",
    "name": "Effect: Leopard's Armor",
    "type": "effect"
}
