{
    "_id": "0qJEtpXWPb7JJBbY",
    "data": {
        "description": {
            "value": "<p>The components of this ammunition emit a strong smell when combined during its activation. A creature hit by an activated aromatic ammunition gains a distinct odor for up to 1 hour or until the scent is washed off (requiring at least a gallon of water and 10 minutes of scrubbing). Any creatures within 30 feet smell the target, allowing even those with a weak sense of smell to detect its presence, and all creatures gain a +1 item bonus to Track the affected creature for as long as it has the odor. A creature that has imprecise or precise scent doubles the range at which they can detect the target using their scent compared to the normal range of their scent.</p>"
        },
        "duration": {
            "expiry": "turn-start",
            "sustained": false,
            "unit": "hours",
            "value": 1
        },
        "level": {
            "value": 2
        },
        "rules": [
            {
                "key": "ToggleProperty",
                "label": "Tracking Aromatic Ammunition's Target",
                "property": "flags.pf2e.rollOptions.all.aromaticAmmo"
            },
            {
                "key": "FlatModifier",
                "predicate": {
                    "all": [
                        "aromaticAmmo"
                    ]
                },
                "selector": "survival",
                "value": 1
            }
        ],
        "source": {
            "value": "Pathfinder Guns & Gears"
        },
        "start": {
            "initiative": null,
            "value": 0
        },
        "target": null,
        "tokenIcon": {
            "show": true
        },
        "traits": {
            "custom": "",
            "rarity": {
                "value": "common"
            },
            "value": []
        }
    },
    "effects": [],
    "flags": {},
    "img": "systems/pf2e/icons/default-icons/effect.svg",
    "name": "Effect: Aromatic Ammunition",
    "type": "effect"
}
