{
    "_id": "2ytxPqhGyLtEjYxW",
    "data": {
        "description": {
            "value": "<p>The target takes a -1 circumstance penalty to saving throws against electricity effects for as long as the persistent electricity damage lasts.</p>"
        },
        "duration": {
            "expiry": "turn-start",
            "sustained": false,
            "unit": "unlimited",
            "value": -1
        },
        "level": {
            "value": 1
        },
        "rules": [
            {
                "key": "FlatModifier",
                "label": "Static Snare",
                "predicate": {
                    "all": [
                        "electricity"
                    ]
                },
                "selector": "saving-throw",
                "type": "circumstance",
                "value": -1
            }
        ],
        "source": {
            "value": ""
        },
        "start": {
            "initiative": null,
            "value": 0
        },
        "target": null,
        "tokenIcon": {
            "show": false
        },
        "traits": {
            "custom": "",
            "rarity": {
                "value": "common"
            },
            "value": []
        }
    },
    "effects": [],
    "flags": {},
    "img": "systems/pf2e/icons/default-icons/effect.svg",
    "name": "Effect: Static Snare",
    "type": "effect"
}
