{
    "_id": "uC6KjfiWrTBXYtP8",
    "data": {
        "description": {
            "value": "<p>For 1 minute, you gain a fly Speed equal to your Speed, and adjacent creatures that hit you with a melee attack, as well as creatures that touch or hit you with an unarmed attack, take [[/r {2d6}[electricity]]]{2d6 electricity damage} each time. As normal, this applies to creatures who choose to touch you, not when you touch or attack another creature.</p>"
        },
        "duration": {
            "expiry": "turn-start",
            "sustained": false,
            "unit": "minutes",
            "value": 1
        },
        "level": {
            "value": 14
        },
        "rules": [
            {
                "key": "BaseSpeed",
                "selector": "fly",
                "value": "@attributes.speed.value"
            }
        ],
        "source": {
            "value": "Pathfinder Guns & Gears"
        },
        "start": {
            "initiative": null,
            "value": 0
        },
        "target": null,
        "tokenIcon": {
            "show": true
        },
        "traits": {
            "custom": "",
            "rarity": {
                "value": "common"
            },
            "value": []
        }
    },
    "effects": [],
    "flags": {},
    "img": "systems/pf2e/icons/spells/chain-lightning.webp",
    "name": "Effect: Storm Chair",
    "type": "effect"
}
