{
    "_id": "VRPVppdQ4W0oXeB1",
    "content": "<h1>Alocer (Infernal Duke of Beasts, Hunters and, Tradition) [LE]</h1>\n<p><strong>Alocer </strong>is a lawful evil diabolic demigod, the infernal duke of beasts, hunters, and tradition. Known also as the Pack Lord, he appears as a fire-breathing, lion-headed, heavily armored archer with eagle talons for feet. His symbol is a dragon-legged horse, said to be a representation of his favored mount.</p>\n<p><strong>Edicts</strong> hunt those who are capable of thinking for themselves, gather like-minded hunters into groups based in hunting lodges, burn places of worship devoted to Erastil or corrupt those who follow his faith</p>\n<p><strong>Anathema</strong> sleep in a place sacred to Erastil, willingly harm a lion, grant a merciful death to a creature you have wounded</p>\n<p><strong>Follower Alignments</strong> LE, NE</p>\n<h2>Devotee Benefits</h2>\n<div><strong>Divine Font</strong> harm</div>\n<div><strong>Divine Skill</strong> Survival</div>\n<div><strong>Favored Weapon</strong> @Compendium[pf2e.equipment-srd.Shortbow]{Shortbow}</div>\n<div><strong>Domains</strong> might, nature, pain, zeal</div>\n<div><strong>Cleric Spells</strong> 1st: <em>@Compendium[pf2e.spells-srd.True Strike]{True Strike}</em>, 3rd: <em>@Compendium[pf2e.spells-srd.Summon Animal]{Summon Animal}</em> (lion only), 7th: <em>@Compendium[pf2e.spells-srd.Unfettered Pack]{Unfettered Pack}</em></div>",
    "flags": {},
    "name": "Alocer",
    "permission": {
        "default": 0
    }
}
