{
    "_id": "MbJ93Nw39h2cBYi5",
    "content": "<h1>Lao Shu Po (Old Rat Woman) [NE]</h1><p><strong>Edicts</strong> Work quietly toward your goals in the shadows, steal what you need, keep an ear among the ignored and downtrodden</p><p><strong>Anathema</strong> Work honestly for something you could steal instead, risk too much for another creature</p><p><strong>Follower Alignments</strong> N, LE, NE, CE</span></p><p></span></p><h2>Devotee Benefits</h2><div><div><strong>Divine Ability</strong> Dexterity or Intelligence</div><div><strong>Divine Font</strong> harm</div><div><strong>Divine Skill</strong> Thievery</div><div><strong>Favored Weapon</strong> dagger</div><div><strong>Domains</strong> darkness, luck, swarm, trickery</div><div><strong>Cleric Spells</strong> 1st: summon animal (rodents only), 2nd: knock, 3rd: nondetection</div></div>",
    "flags": {},
    "name": "Lao Shu Po",
    "permission": {
        "default": 0
    }
}
