{
    "_id": "tb0oADxOoMhyrYRA",
    "content": "<h1>Yamatsumi (The Mountain Lord) [N]</h1><p><strong>Edicts</strong> Strive to be self-sufficient, respect nature, test yourself against the elements</p><p><strong>Anathema</strong> Become reliant on civilization, destroy something without creating or growing something in its place</p><p><strong>Follower Alignments</strong> NG, LN, N, CN</span></p><h2>Devotee Benefits</h2><div><div><strong>Divine Ability</strong> Strength or Wisdom</div><div><strong>Divine Font</strong> harm or heal</div><div><strong>Divine Skill</strong> Athletics</div><div><strong>Favored Weapon</strong> greatclub</div><div><strong>Domains</strong> cold, earth, fire, might</div><div><strong>Cleric Spells</strong> 1st: shockwave, 3rd: shifting sand, 7th: volcanic eruption</div></div>",
    "flags": {},
    "name": "Yamatsumi",
    "permission": {
        "default": 0
    }
}
