{
    "_id": "bEdFgywri7fABhBT",
    "data": {
        "actionCategory": {
            "value": ""
        },
        "actionType": {
            "value": "reaction"
        },
        "actions": {
            "value": null
        },
        "description": {
            "value": "<p><strong>Frequency</strong> once per 10 minutes</p>\n<p><strong>Trigger</strong> You critically succeed at a saving throw against a foe's spell, and that spell is of a level you can normally cast.</p>\n<hr />\n<p>You absorb a spell and store it in your body. If you are a spontaneous spellcaster, you can cast the triggering spell once during the next 10 minutes, even if it's not on your spell list as if it were in your repertoire. If you are a prepared spellcaster, you can replace one of your prepared spells of the same level with the absorbed spell, but you must cast the absorbed spell within 10 minutes or you lose that spell slot for the day. You cast the spell at the same spell level as the spell you absorbed, but the spell is of your magical tradition and uses your spell DC, spell attack roll, and other statistics to determine its effects.</p>"
        },
        "featType": {
            "value": "archetype"
        },
        "level": {
            "value": 14
        },
        "location": "",
        "prerequisites": {
            "value": [
                {
                    "value": "Spellmaster Dedication"
                },
                {
                    "value": "spell repertoire or ability to prepare spells"
                }
            ]
        },
        "rules": [],
        "source": {
            "value": "Pathfinder Lost Omens: Character Guide"
        },
        "traits": {
            "custom": "",
            "rarity": {
                "value": "common"
            },
            "value": [
                "archetype"
            ]
        }
    },
    "effects": [],
    "flags": {},
    "img": "systems/pf2e/icons/features/feats/feats.webp",
    "name": "Absorb Spell",
    "type": "feat"
}
