{
    "_id": "JeMGDAD5s9AXCZ2G",
    "data": {
        "actionCategory": {
            "value": ""
        },
        "actionType": {
            "value": "passive"
        },
        "actions": {
            "value": null
        },
        "description": {
            "value": "<p>Your shapeshifting grants you a magical connection to the animal world. You can cast <em>@Compendium[pf2e.spells-srd.Animal Messenger]{Animal Messenger}</em>, <em>@Compendium[pf2e.spells-srd.Calm Emotions]{Calm Emotions}</em> (animals only), and <em>@Compendium[pf2e.spells-srd.Speak with Animals]{Speak with Animals}</em> as 2nd-level primal innate spells once per day each. These spells use your class DC or spell DC, whichever is higher.</p>"
        },
        "featType": {
            "value": "ancestry"
        },
        "level": {
            "value": 9
        },
        "location": "",
        "prerequisites": {
            "value": []
        },
        "rules": [],
        "source": {
            "value": "Pathfinder Lost Omens: Ancestry Guide"
        },
        "traits": {
            "custom": "",
            "rarity": {
                "value": "common"
            },
            "value": [
                "beastkin"
            ]
        }
    },
    "effects": [],
    "flags": {},
    "img": "systems/pf2e/icons/features/feats/feats.webp",
    "name": "Animal Magic",
    "type": "feat"
}
