{
    "_id": "bRftzbFvSF1pilIo",
    "data": {
        "actionCategory": {
            "value": ""
        },
        "actionType": {
            "value": "action"
        },
        "actions": {
            "value": 1
        },
        "description": {
            "value": "<p>You forge a mystical connection with an ally using your body as a focus, allowing them to benefit from your magic.</p>\n<p>You place a blood rune on an adjacent ally that lasts for 1 minute. When you would gain a blood magic effect, you can forgo it, granting it to your ally instead.</p>\n<p>You can anoint only one ally at a time; if you place another rune, your previous designation ends.</p>\n<p>@Compendium[pf2e.feat-effects.Effect: Anoint Ally]{Effect: Anoint Ally}</p>"
        },
        "featType": {
            "value": "class"
        },
        "level": {
            "value": 2
        },
        "location": "",
        "prerequisites": {
            "value": []
        },
        "rules": [],
        "source": {
            "value": "Pathfinder Advanced Player's Guide"
        },
        "traits": {
            "custom": "",
            "rarity": {
                "value": "common"
            },
            "value": [
                "manipulate",
                "sorcerer"
            ]
        }
    },
    "effects": [],
    "flags": {},
    "img": "systems/pf2e/icons/features/feats/feats.webp",
    "name": "Anoint Ally",
    "type": "feat"
}
