{
    "_id": "XeFMWjJkZy2O7lou",
    "data": {
        "actionCategory": {
            "value": ""
        },
        "actionType": {
            "value": "passive"
        },
        "actions": {
            "value": null
        },
        "description": {
            "value": "<p>Your growing link to cloud dragons has granted you the ability to walk on clouds. Once per hour, you can cast <em>@Compendium[pf2e.spells-srd.Air Walk]{Air Walk}</em> on yourself as an innate arcane spell, but only to walk on clouds or fog.</p>"
        },
        "featType": {
            "value": "archetype"
        },
        "level": {
            "value": 10
        },
        "location": "",
        "prerequisites": {
            "value": [
                {
                    "value": "Dragon Disciple Dedication"
                }
            ]
        },
        "rules": [],
        "source": {
            "value": "Pathfinder #171: Hurricane's Howl"
        },
        "traits": {
            "custom": "",
            "rarity": {
                "value": "uncommon"
            },
            "value": []
        }
    },
    "effects": [],
    "flags": {},
    "img": "systems/pf2e/icons/default-icons/feats.webp",
    "name": "Cloud Walk",
    "type": "feat"
}
