{
    "_id": "XM4zR0q9rBxjR3lG",
    "data": {
        "actionCategory": {
            "value": ""
        },
        "actionType": {
            "value": "passive"
        },
        "actions": {
            "value": null
        },
        "description": {
            "value": "<p>@Compendium[pf2e.deities.Zon-Kuthon]{Zon-Kuthon} smiles upon you-even if you curse his name-granting you pitch-black eyes that allow you to see in shadows and darkness. You gain @Compendium[pf2e.ancestryfeatures.Darkvision]{Darkvision}.</p>"
        },
        "featType": {
            "value": "ancestry"
        },
        "level": {
            "value": 5
        },
        "location": "",
        "prerequisites": {
            "value": [
                {
                    "value": "Gloomseer"
                }
            ]
        },
        "rules": [
            {
                "key": "Sense",
                "selector": "darkvision"
            }
        ],
        "source": {
            "value": "Pathfinder Lost Omens: Character Guide"
        },
        "traits": {
            "custom": "",
            "rarity": {
                "value": "common"
            },
            "value": [
                "human"
            ]
        }
    },
    "effects": [],
    "flags": {},
    "img": "systems/pf2e/icons/features/feats/feats.webp",
    "name": "Darkseer",
    "type": "feat"
}
