{
    "_id": "EOmTf95t03y4IGdp",
    "data": {
        "actionCategory": {
            "value": ""
        },
        "actionType": {
            "value": "passive"
        },
        "actions": {
            "value": null
        },
        "description": {
            "value": "<p>Few can sway you from your goals while the fury of combat fills you. While raging, you gain a +2 status bonus to saving throws against emotion effects.</p>"
        },
        "featType": {
            "value": "class"
        },
        "level": {
            "value": 1
        },
        "location": "",
        "prerequisites": {
            "value": [
                {
                    "value": "dragon instinct"
                }
            ]
        },
        "rules": [
            {
                "key": "FlatModifier",
                "label": "Draconic Arrogance (vs. emotion)",
                "predicate": {
                    "all": [
                        "rage",
                        "emotion"
                    ]
                },
                "selector": "saving-throw",
                "type": "status",
                "value": 2
            }
        ],
        "source": {
            "value": "Pathfinder Advanced Player's Guide"
        },
        "traits": {
            "custom": "",
            "rarity": {
                "value": "common"
            },
            "value": [
                "barbarian",
                "rage"
            ]
        }
    },
    "effects": [],
    "flags": {},
    "img": "systems/pf2e/icons/features/feats/feats.webp",
    "name": "Draconic Arrogance",
    "type": "feat"
}
