{
    "_id": "sjChYEuEWPqndCSK",
    "data": {
        "actionCategory": {
            "value": "interaction"
        },
        "actionType": {
            "value": "action"
        },
        "actions": {
            "value": 1
        },
        "description": {
            "value": "<p><strong>Requirements</strong> You're wielding two one-handed weapons, each in a different hand, one of which is a ranged weapon.</p>\n<hr />\n<p>You carry your ammunition in a way that allows you to reload while holding two weapons. You Interact to reload a one‑handed ranged weapon you're holding. Unlike most Interact actions, you don't need a free hand to reload your ranged weapon in this way.</p>"
        },
        "featType": {
            "value": "class"
        },
        "level": {
            "value": 1
        },
        "location": "",
        "prerequisites": {
            "value": []
        },
        "rules": [],
        "source": {
            "value": ""
        },
        "traits": {
            "custom": "",
            "rarity": {
                "value": "common"
            },
            "value": [
                "gunslinger"
            ]
        }
    },
    "effects": [],
    "flags": {},
    "img": "systems/pf2e/icons/default-icons/feats.webp",
    "name": "Dual-Weapon Reload",
    "type": "feat"
}
