{
    "_id": "dIIqejy4JAVuF0I8",
    "data": {
        "actionCategory": {
            "value": ""
        },
        "actionType": {
            "value": "passive"
        },
        "actions": {
            "value": null
        },
        "description": {
            "value": "<p>You have been exposed to powerful fey magic. You become trained in primal DCs and spell attack rolls. You gain the fey trait and one of the following features which grant an innate primal spell that can be used once per day.</p>\n<ul>\n<li><strong>Anteater</strong> You can launch your tongue forward as a deadly attack, gaining <em>@Compendium[pf2e.spells-srd.Grim Tendrils]{Grim Tendrils}</em>.</li>\n<li><strong>Dryad</strong> Your body is covered in elegant vines, granting you <em>@Compendium[pf2e.spells-srd.Summon Plant or Fungus]{Summon Plant or Fungus}</em></li>\n<li><strong>Gremlin</strong> You have long, bat-like ears and gain <em>@Compendium[pf2e.spells-srd.Bane]{Bane}</em></li>\n<li><strong>Monarch</strong> You have vestigial, insectile features and gain <em>@Compendium[pf2e.spells-srd.Spider Sting]{Spider Sting}</em>.</li>\n</ul>\n<p>This feat gains the trait appropriate for your ancestry (human for human, goblin for goblin, etc.)</p>"
        },
        "featType": {
            "value": "general"
        },
        "level": {
            "value": 5
        },
        "location": "",
        "prerequisites": {
            "value": []
        },
        "rules": [],
        "source": {
            "value": "Pathfinder Society Scenario #1-17: The Perennial Crown Part 2, The Thorned Monarch"
        },
        "traits": {
            "custom": "",
            "rarity": {
                "value": "rare"
            },
            "value": [
                "general"
            ]
        }
    },
    "effects": [],
    "flags": {},
    "img": "systems/pf2e/icons/features/feats/feats.webp",
    "name": "Fey Influence",
    "type": "feat"
}
