{
    "_id": "CdSWMqPOVWIEzyUA",
    "data": {
        "actionCategory": {
            "value": ""
        },
        "actionType": {
            "value": "passive"
        },
        "actions": {
            "value": null
        },
        "description": {
            "value": "<p>You can ignore difficult terrain caused by moving through tight spaces that aren't tight enough to force you to Squeeze. When you roll a critical failure on a check to Squeeze, you get a failure instead, and when you roll a success, you get a critical success instead.</p>"
        },
        "featType": {
            "value": "ancestry"
        },
        "level": {
            "value": 5
        },
        "location": "",
        "prerequisites": {
            "value": []
        },
        "rules": [
            {
                "key": "Note",
                "predicate": {
                    "all": [
                        "action:squeeze"
                    ]
                },
                "text": "<p class=\"compact-text\"><strong>{item|name}</strong> When you roll a critical failure on a check to Squeeze, you get a failure instead, and when you roll a success, you get a critical success instead.</p>"
            },
            {
                "adjustment": {
                    "criticalFailure": "one-degree-better",
                    "success": "one-degree-better"
                },
                "key": "AdjustDegreeOfSuccess",
                "predicate": {
                    "all": [
                        "action:squeeze"
                    ]
                }
            }
        ],
        "source": {
            "value": "Pathfinder Lost Omens: Ancestry Guide"
        },
        "traits": {
            "custom": "",
            "rarity": {
                "value": "common"
            },
            "value": [
                "undine"
            ]
        }
    },
    "effects": [],
    "flags": {},
    "img": "systems/pf2e/icons/features/feats/feats.webp",
    "name": "Fluid Contortionist",
    "type": "feat"
}
