{
    "_id": "1ul2dasQBdlaMEC5",
    "data": {
        "actionCategory": {
            "value": ""
        },
        "actionType": {
            "value": "passive"
        },
        "actions": {
            "value": null
        },
        "description": {
            "value": "<p>Witnessing the might of the kaiju King Mogaru, Alru, and Toraloa up close awoke a new ferocity within you. When you transform using Monstrosity Shape, you can take on a kaiju form. When you take this feat, choose acid, cold, electricity, fire, or sonic damage; this is the damage your breath weapon deals. You can't change this later. The battle form is Gargantuan size with the following specific abilities; the damage values already include the extra die from being a 9th-level spell.</p>\n<p><strong>Kaiju</strong> Speed 40 feet; physical resistance 5; <strong>Melee <span class=\"pf2-icon\">1</span></strong> jaws (reach 20 feet), <strong>Damage</strong>[[/r {3d12+20}[piercing]]]{3d12+20 piercing damage}; <strong>Melee <span class=\"pf2-icon\">1</span></strong> claws (agile, reach 20 feet), <strong>Damage</strong>[[/r {3d8+20}[slashing]]]{3d8+20 slashing damage};</p>\n<p><strong>Breath Weapon</strong><span class=\"pf2-icon\">2</span> (evocation, primal) Each creature in a 60-foot cone takes [[/r {15d6}]]{15d6 damage} (of your chosen damage type), with a basic Reflex save against your spell DC. Once activated, your breath weapon can't be used again for [[/br 1d4 #rounds]]{1d4 rounds}.</p>"
        },
        "featType": {
            "value": "class"
        },
        "level": {
            "value": 20
        },
        "location": "",
        "prerequisites": {
            "value": [
                {
                    "value": "Monstrosity Shape"
                }
            ]
        },
        "rules": [],
        "source": {
            "value": "Pathfinder #168: King of the Mountain"
        },
        "traits": {
            "custom": "",
            "rarity": {
                "value": "uncommon"
            },
            "value": [
                "druid"
            ]
        }
    },
    "effects": [],
    "flags": {},
    "img": "systems/pf2e/icons/default-icons/feats.webp",
    "name": "Heart of the Kaiju",
    "type": "feat"
}
