{
    "_id": "PPUNMjRLQYnmwQvF",
    "data": {
        "actionCategory": {
            "value": ""
        },
        "actionType": {
            "value": "action"
        },
        "actions": {
            "value": 2
        },
        "description": {
            "value": "<p>You channel your draconic exemplar's power into a gout of energy that manifests as a <span data-pf2-effect-area=\"line\" data-pf2-distance=\"30\">30-foot line</span> or a <span data-pf2-effect-area=\"cone\" data-pf2-distance=\"15\">15-foot cone</span>;, dealing [[/r ceil(@details.level.value/2)d4]]{1d4 leveled damage}. Each creature in the area must attempt a basic saving throw against the higher of your class DC or spell DC. You can't use this ability again for [[/r 1d4 #rounds]]{1d4 rounds}.</p>\n<p>At 3rd level and every 2 levels thereafter, the damage increases by 1d4. The shape of the breath, the damage type, and the saving throw match those of your @Compendium[pf2e.ancestryfeatures.Draconic Exemplar]{Draconic Exemplar}. This ability has the trait associated with the type of damage it deals.</p>"
        },
        "featType": {
            "value": "ancestry"
        },
        "level": {
            "value": 1
        },
        "location": "",
        "prerequisites": {
            "value": []
        },
        "rules": [],
        "source": {
            "value": "Pathfinder Advanced Player's Guide"
        },
        "traits": {
            "custom": "",
            "rarity": {
                "value": "common"
            },
            "value": [
                "arcane",
                "evocation",
                "kobold"
            ]
        }
    },
    "effects": [],
    "flags": {},
    "img": "systems/pf2e/icons/features/feats/feats.webp",
    "name": "Kobold Breath",
    "type": "feat"
}
