{
    "_id": "zNxbsYgQgPVxdTLV",
    "data": {
        "actionCategory": {
            "value": ""
        },
        "actionType": {
            "value": "passive"
        },
        "actions": {
            "value": null
        },
        "description": {
            "value": "<p><strong>Access</strong> You are from Taldor.</p>\n<hr />\n<p>Your lion blade spy training helps you conceal yourself and your identity. You become trained in your choice of Deception or Stealth and in Espionage Lore; if you were already trained, you become an expert instead. You never take circumstance penalties for attempting to take a disguise of a different ancestry, age, and so on, as long as the disguised form is appropriate for your size.</p>\n<hr />\n<p><strong>Special</strong> You cannot select another dedication feat until you have gained two other feats from the Lion Blade archetype.</p>"
        },
        "featType": {
            "value": "archetype"
        },
        "level": {
            "value": 2
        },
        "location": "",
        "prerequisites": {
            "value": [
                {
                    "value": "member of the Lion Blades"
                },
                {
                    "value": "trained in Performance"
                }
            ]
        },
        "rules": [],
        "source": {
            "value": "Pathfinder Lost Omens: World Guide"
        },
        "traits": {
            "custom": "",
            "rarity": {
                "value": "uncommon"
            },
            "value": [
                "archetype",
                "dedication"
            ]
        }
    },
    "effects": [],
    "flags": {},
    "img": "systems/pf2e/icons/features/feats/feats.webp",
    "name": "Lion Blade Dedication",
    "type": "feat"
}
