{
    "_id": "4xeDjt8eARzAGARP",
    "data": {
        "actionCategory": {
            "value": ""
        },
        "actionType": {
            "value": "free"
        },
        "actions": {
            "value": null
        },
        "description": {
            "value": "<p><strong>Requirements</strong> You are wearing your signifer's mask.</p>\n<p><strong>Trigger</strong> You begin Casting a Spell.</p>\n<hr />\n<p>You harness the magical energy flowing through your eyeless mask to effortlessly protect you from visual effects. You @Compendium[pf2e.actionspf2e.Avert Gaze]{Avert your Gaze}.</p>"
        },
        "featType": {
            "value": "archetype"
        },
        "level": {
            "value": 8
        },
        "prerequisites": {
            "value": [
                {
                    "value": "Hellknight Signifer Dedication "
                }
            ]
        },
        "rules": [],
        "source": {
            "value": "Pathfinder Lost Omens: Character Guide"
        },
        "traits": {
            "custom": "",
            "rarity": {
                "value": "common"
            },
            "value": [
                "archetype"
            ]
        }
    },
    "effects": [],
    "flags": {},
    "img": "systems/pf2e/icons/features/feats/feats.webp",
    "name": "Masked Casting",
    "type": "feat"
}
