{
    "_id": "2LdncNMDNJW5Oeyu",
    "data": {
        "actionCategory": {
            "value": ""
        },
        "actionType": {
            "value": "reaction"
        },
        "actions": {
            "value": null
        },
        "description": {
            "value": "<p><strong>Requirements</strong> You are Juggling a thrown weapon.</p>\n<p><strong>Trigger</strong> A creature within 10 feet of you uses a manipulate action or a move action, makes a ranged attack, or leaves a square during a move action it's using.</p>\n<hr />\n<p>You make a thrown ranged Strike with the required weapon against the triggering creature. If you critically succeed and the trigger was a manipulate action, you disrupt that action. This Strike doesn't count against your multiple attack penalty, and your multiple attack penalty doesn't apply to this Strike.</p>"
        },
        "featType": {
            "value": "archetype"
        },
        "level": {
            "value": 16
        },
        "prerequisites": {
            "value": [
                {
                    "value": "legendary in Performance"
                },
                {
                    "value": "Juggler Dedication"
                }
            ]
        },
        "rules": [],
        "source": {
            "value": "Pathfinder #151: The Show Must Go On"
        },
        "traits": {
            "custom": "",
            "rarity": {
                "value": "uncommon"
            },
            "value": [
                "archetype"
            ]
        }
    },
    "effects": [],
    "flags": {},
    "img": "systems/pf2e/icons/features/feats/feats.webp",
    "name": "Opportune Throw",
    "type": "feat"
}
