{
    "_id": "HBhLR980Q0cb2rxp",
    "data": {
        "actionCategory": {
            "value": ""
        },
        "actionType": {
            "value": "passive"
        },
        "actions": {
            "value": null
        },
        "description": {
            "value": "<p>You have perfected the formulas for bombs that impede your enemies.</p>\n<p>When you use @Compendium[pf2e.feats-srd.Debilitating Bomb]{Debilitating Bomb}, your target avoids the condition the bomb imposes only if it critically succeeds at its saving throw.</p>"
        },
        "featType": {
            "value": "class"
        },
        "level": {
            "value": 18
        },
        "location": "",
        "prerequisites": {
            "value": []
        },
        "rules": [
            {
                "key": "Note",
                "predicate": {
                    "all": [
                        "alchemical",
                        "bomb",
                        "debilitating-bomb"
                    ]
                },
                "selector": "attack-roll",
                "text": "<p class='compact-text'><strong>{item|name}</strong> If your bomb hits, the target must critically succed at its Fortitude save to avoid the condition the bomb imposes.</p>"
            }
        ],
        "source": {
            "value": "Pathfinder Core Rulebook"
        },
        "traits": {
            "custom": "",
            "rarity": {
                "value": "common"
            },
            "value": [
                "alchemist"
            ]
        }
    },
    "effects": [],
    "flags": {},
    "img": "systems/pf2e/icons/features/feats/feats.webp",
    "name": "Perfect Debilitation",
    "type": "feat"
}
