{
    "_id": "LbMPCAyUrLRHykGA",
    "data": {
        "actionCategory": {
            "value": ""
        },
        "actionType": {
            "value": "passive"
        },
        "actions": {
            "value": null
        },
        "description": {
            "value": "<p>Your innovation sets foes on fire, covers them in acid, leaves barbed thorns behind, or otherwise deals persistent damage to your foes that sticks around long after you deliver your boosted attack. When you or your construct innovation damage a foe with offensive boost, that foe also takes [[/r {1d8}[persistent]]]{1d8} @Compendium[pf2e.conditionitems.Persistent Damage]{Persistent Damage} of the same damage type as the offensive boost damage.</p>"
        },
        "featType": {
            "value": "class"
        },
        "level": {
            "value": 16
        },
        "location": "",
        "prerequisites": {
            "value": [
                {
                    "value": "offensive boost"
                }
            ]
        },
        "rules": [],
        "source": {
            "value": ""
        },
        "traits": {
            "custom": "",
            "rarity": {
                "value": "common"
            },
            "value": [
                "inventor"
            ]
        }
    },
    "effects": [],
    "flags": {},
    "img": "systems/pf2e/icons/default-icons/feats.webp",
    "name": "Persistent Boost",
    "type": "feat"
}
