{
    "_id": "PFMsj4LtdAIuGn4R",
    "data": {
        "actionCategory": {
            "value": ""
        },
        "actionType": {
            "value": "passive"
        },
        "actions": {
            "value": null
        },
        "description": {
            "value": "<p>You catch an opponent off-guard by spinning your weapon. You gain the Pistol Twirl gunslinger feat, enabling you to Feint against creatures within your weapon's first range increment. This otherwise serves as Pistol Twirl for the purpose of meeting prerequisites, although as normal, it doesn't count as another pistol phenom feat for the purpose of meeting Pistol Phenom Dedication's special entry and taking another archetype. Whenever you Feint with a one-handed firearm, you can choose to attempt a Performance check instead of a Deception check.</p>\n<p><strong>Special</strong> You can't select another dedication feat until you've gained at least two other feats from the pistol phenom archetype.</p>"
        },
        "featType": {
            "value": "archetype"
        },
        "level": {
            "value": 2
        },
        "location": "",
        "prerequisites": {
            "value": [
                {
                    "value": "trained in at least one type of one-handed firearm"
                },
                {
                    "value": "trained in Deception"
                },
                {
                    "value": "trained in Performance"
                }
            ]
        },
        "rules": [],
        "source": {
            "value": ""
        },
        "traits": {
            "custom": "",
            "rarity": {
                "value": "uncommon"
            },
            "value": [
                "archetype",
                "dedication"
            ]
        }
    },
    "effects": [],
    "flags": {},
    "img": "systems/pf2e/icons/default-icons/feats.webp",
    "name": "Pistol Phenom Dedication",
    "type": "feat"
}
