{
    "_id": "tBWSxVxrojRcEzJt",
    "data": {
        "actionCategory": {
            "value": "defensive"
        },
        "actionType": {
            "value": "reaction"
        },
        "actions": {
            "value": null
        },
        "description": {
            "value": "<p><strong>Frequency</strong> once per day</p>\n<hr />\n<p><strong>Trigger</strong> Your turn starts or your oracular curse would advance.</p>\n<p>Seeing Syndara superimpose creatures with similar metaphysical properties, you've realized a way to manipulate the effects of your oracular curse. You immediately change your curse to its minor, moderate, or major stage, or back to its mild form, exchanging the curse effect with that of a parallel version of yourself in another reality.</p>"
        },
        "featType": {
            "value": "class"
        },
        "level": {
            "value": 20
        },
        "location": "",
        "prerequisites": {
            "value": []
        },
        "rules": [],
        "source": {
            "value": "Pathfinder #168: King of the Mountain"
        },
        "traits": {
            "custom": "",
            "rarity": {
                "value": "uncommon"
            },
            "value": [
                "divine",
                "necromancy",
                "oracle"
            ]
        }
    },
    "effects": [],
    "flags": {},
    "img": "systems/pf2e/icons/default-icons/feats.webp",
    "name": "Scapegoat Parallel Self",
    "type": "feat"
}
