{
    "_id": "l3PosipTLXANeoT8",
    "data": {
        "actionCategory": {
            "value": ""
        },
        "actionType": {
            "value": "reaction"
        },
        "actions": {
            "value": null
        },
        "description": {
            "value": "<p><strong>Trigger</strong> A Large or larger enemy ends a move action adjacent to you.</p>\n<hr />\n<p>You are an expert at avoiding the lumbering footsteps of larger creatures. You @Compendium[pf2e.actionspf2e.Step]{Step} to another space adjacent to the enemy.</p>"
        },
        "featType": {
            "value": "ancestry"
        },
        "level": {
            "value": 5
        },
        "prerequisites": {
            "value": []
        },
        "rules": [],
        "source": {
            "value": "Pathfinder Advanced Player's Guide"
        },
        "traits": {
            "custom": "",
            "rarity": {
                "value": "common"
            },
            "value": [
                "halfling"
            ]
        }
    },
    "effects": [],
    "flags": {},
    "img": "systems/pf2e/icons/features/feats/feats.webp",
    "name": "Step Lively",
    "type": "feat"
}
