{
    "_id": "NgUB5toKxBd8RJmm",
    "data": {
        "actionCategory": {
            "value": ""
        },
        "actionType": {
            "value": "passive"
        },
        "actions": {
            "value": null
        },
        "description": {
            "value": "<p>Your plans account for your foes' resistances, enabling you to strike a telling blow. When you hit with a Strike on which you substituted your attack roll due to @Compendium[pf2e.actionspf2e.Devise a Stratagem]{Devise a Strategem}, you ignore an amount of resistance equal to your Intelligence modifier for each resistance that applies against your attack.</p>"
        },
        "featType": {
            "value": "class"
        },
        "level": {
            "value": 14
        },
        "prerequisites": {
            "value": []
        },
        "rules": [],
        "source": {
            "value": "Pathfinder Advanced Player's Guide"
        },
        "traits": {
            "custom": "",
            "rarity": {
                "value": "common"
            },
            "value": [
                "investigator"
            ]
        }
    },
    "effects": [],
    "flags": {},
    "img": "systems/pf2e/icons/features/feats/feats.webp",
    "name": "Strategic Bypass",
    "type": "feat"
}
