{
    "_id": "tZn4qIHCUA6wCdnI",
    "data": {
        "additionalLanguages": {
            "count": 0,
            "custom": "",
            "value": [
                "celestial",
                "elven",
                "iruxi",
                "sylvan",
                "terran",
                "utopian"
            ]
        },
        "boosts": {
            "0": {
                "value": [
                    "con"
                ]
            },
            "1": {
                "value": [
                    "wis"
                ]
            },
            "2": {
                "value": [
                    "str",
                    "dex",
                    "con",
                    "int",
                    "wis",
                    "cha"
                ]
            }
        },
        "description": {
            "value": "<p><em>Conrasus are shards of cosmic force given consciousness who construct intricate exoskeletons to interface with the mortal world. Both an integral part of the underlying processes of the universe and strangely set apart, conrasus look to aeons to understand their existence.</em></p>\n<hr />\n<p>Conrasus aren't entirely clear on their own origins. Some historians think them a failed experiment of a wizardly cabal—possibly a splinter of artificers from the ancient Jitska Imperium—who desperately hoped to bind a pleroma to bolster their army but who accidentally conjured shattered scraps of the aeon instead. Others believe conrasus were built by their ancestors using an accelerated, iterative evolution process as natural as one designed by those who build portions of their own bodies could ever hope to achieve. Most likely, it is a mix of the two.</p>\n<h2>You Might...</h2>\n<ul>\n<li>Do your best to determine and act upon the will of your guiding aeon.</li>\n<li>Use rituals and repetitive actions as a means to meditate and reflect on your purpose.</li>\n<li>Have difficulty applying your cosmic instincts and senses to a physical existence.</li>\n</ul>\n<h2>Others Probably...</h2>\n<ul>\n<li>View you as part of a hivemind at best or lacking in free will at worst.</li>\n<li>Have trouble understanding your perspective or attempts at communication.</li>\n<li>Look to you as the expert on any matters involving aeons or related beings.</li>\n</ul>\n<h2>Physical Description</h2>\n<p>The true form of a conrasu is an abstract chunk of spiritual essence. While their being exists beyond the truth of humanoid senses, to the mortal eye, their body usually resembles a globe of light, darkness, or space. Floating, internal pinpricks of illumination sit inside the ball, slightly obscured as if peeking through a gelatinous substance. These “cores” surround themselves with bodies made out of still-living wood, creating the form that most people recognize as a conrasu.</p>\n<p>Conrasus themselves are called to a path and, once they find it, shape frames to create a suitable form, leading to a wide variety of appearances. As a conrasu ages, the supple green wood of ttheir body hardens, causing their limbs to lose mobility. Conrasus must constantly grow new arms and roots for their living exoskeleton, leaving their frozen limbs as immobile effigies along their shell.</p>\n<p>Conrasus can't maintain their integrity without their wooden exoskeletons. A conrasu that loses its exoskeleton dissipates and dies, though they can be returned to life with magic like other beings.</p>\n<h2>Society</h2>\n<p>There are three distinct types of conrasus. Maintainers tend and care for others, believing they must cultivate a proper balance between various forces. Shapers build and direct those around them, and feel that balance is maintained by those who strive to preserve the world's equilibrium. Lastly, correctors fix problems of all sorts, often acting as stalwart bastions of law who perceive the world in absolutes, with few to no shades of gray. True balance can be achieved only in cases where pressure and force have been applied to make necessary changes.</p>\n<p>On rare occasions, a conrasu may hear and heed the call of another form of extraplanar being. One might serve a psychopomp, another an archon, and yet another might become a witch and adopt an unknown figure as a patron.</p>\n<h2>Alignment and Religion</h2>\n<p>Many conrasus consider themselves bound to a specific aeon, following them like a deity and doing what they believe to be the aeon's bidding. As a result, almost all conrasus are lawful neutral in alignment.</p>\n<h2>Names</h2>\n<p>Conrasus have little in the way of consciousness as others understand it before they self-actualize and leave the nursery-towns where they sprouted. That includes a name, a concept of gender, and even the passage of time beyond their little bubbles-these are picked up in the wider world. As a result, a conrasu might have nearly any appellation.</p>\n<h3>Sample Names</h3>\n<p>Automa, Azubu, Dumi, Emeka, Ganizadi, Locu, Incanes, Radi, Shell, Weave</p>"
        },
        "flaws": {
            "0": {
                "value": [
                    "cha"
                ]
            }
        },
        "hp": 10,
        "items": {
            "tdik1": {
                "id": "BgHrucbZ9TH92RDv",
                "img": "systems/pf2e/icons/default-icons/feat.svg",
                "level": 1,
                "name": "Sunlight Healing",
                "pack": "pf2e.ancestryfeatures"
            }
        },
        "languages": {
            "custom": "",
            "value": [
                "mwangi",
                "rasu"
            ]
        },
        "reach": 5,
        "rules": [],
        "size": "med",
        "source": {
            "value": "Pathfinder Lost Omens: The Mwangi Expanse"
        },
        "speed": 25,
        "traits": {
            "custom": "",
            "rarity": {
                "value": "rare"
            },
            "value": [
                "aeon",
                "conrasu",
                "plant"
            ]
        },
        "vision": "normal"
    },
    "effects": [],
    "flags": {},
    "img": "systems/pf2e/icons/default-icons/alternatives/ancestries/conrasu.svg",
    "name": "Conrasu",
    "type": "ancestry"
}
