{
    "_id": "x1YinOddgUxwOLqP",
    "data": {
        "additionalLanguages": {
            "count": 0,
            "custom": "",
            "value": [
                "common",
                "draconic",
                "dwarven",
                "elven",
                "gnomish",
                "goblin",
                "halfling",
                "jotun",
                "orcish",
                "sylvan",
                "undercommon"
            ]
        },
        "boosts": {
            "0": {
                "value": [
                    "int"
                ]
            },
            "1": {
                "value": []
            },
            "2": {
                "value": [
                    "str",
                    "dex",
                    "con",
                    "int",
                    "wis",
                    "cha"
                ]
            }
        },
        "description": {
            "value": "<p><em>Shisks are secretive mountain-dwellers, bone-feathered humanoids who lurk underground in dark tunnels and caverns. Their fascination with collecting and protecting esoteric knowledge is one of the few things that can persuade them to explore the outside world.</em></p>\n<hr />\n<p>Shisks rarely encounter other peoples, even in the Mwangi Expanse. Shisks subsist on low-calorie diets of vegetables and insects, causing them to rarely compete with others for resources or seek out people to trade. They have a tight-knit society, wary of outsiders, though they don't outright attack visitors. Their history is passed down verbally and musically, and they rarely maintain written records in order to keep their knowledge safe. Often the only proof that shisks exist comes from explorers finding signs of their architecture: organic and low-impact adobe buildings carved out of mountains rather than built atop them.</p>\n<h2>You Might...</h2>\n<ul>\n<li>See yourself as a part of nature and avoid taking anything you don't need.</li>\n<li>Be wary of others getting one over on you by tricking you into revealing something.</li>\n<li>Love warmth and enjoy sunbathing despite your subterranean nature.</li>\n</ul>\n<h2>Others Probably...</h2>\n<ul>\n<li>Are concerned by your diet and how little you eat.</li>\n<li>Become confused or annoyed by your refusal to give information freely.</li>\n<li>Appreciate your incredible memory and knowledge.</li>\n</ul>\n<h2>Physical Description</h2>\n<p>Shisks have features and skin-tones similar to humans, usually ranging from deep tan to deep black. They are lighter than their body size might indicate, due to having hollow bones. Shisks have no body hair-instead, their backs are covered in vestigial plumage that now grow only as bony quills that resemble calcified pin feathers. Though shisks can't fly, these spines are longer around their arms, as if they once had wings. A shisk's eyes contract into slits in the sunlight and are typically warmly colored, from hazel and brown to more unique colors like red or amber. Shisks have two prominent narrow fangs as the front teeth on their upper jaw, causing some people to mistake them for asanbosams or vampires.</p>\n<h2>Society</h2>\n<p>Though rarely encountered, shisks are willing to speak, host, and trade with outsiders. Their economy might be confusing to others: they greatly eschew materialism in favor of information and the arts. They freely give away material goods for knowledge or even performances, considering themselves on the “winning” side of a bargain if people are willing to take material things in exchange for valuable information. They never give away information for material goods, only for other knowledge, and they rarely ask for material goods in trades.</p>\n<p>Shisk are so paranoid that different communities of shisks have been known to clash with one another over secrets. Wars are fought not over territory or resources, but over coveted information. On a few occasions, when shisk sages or diplomats convinced different groups of shisks to put aside their differences and collaborate, great puzzles and mysteries of Golarion have been solved in a matter of hours.</p>\n<p>Shisk clothing is loose and breathable, and often minimal to avoid catching on their bony feathers. Due to their society's disregard for materialism, the shisk live in great harmony with nature around them, taking only what they need. Shisk often take up simple hobbies, such as sunbathing.</p>\n<h2>Alignment and Religion</h2>\n<p>Seeing themselves as part of the natural world and typically focused on their own pursuits instead of society, most shisks adopt neutral alignments. Some shisks are patrons of gods that have been long forgotten. Many shisks worship the sun god Chohar, a fact which might seem odd for people who dwell underground. The Green Faith is highly common among shisks, but when seeking out personal gods to revere, most shisks prefer gods of knowledge and secrets such as Irez, Nethys, or Norgorber.</p>\n<h2>Names</h2>\n<p>Shisk names are usually granted by their parents, though these names often have secret meanings known only to their families. They are often filled with sibilant syllables, occasionally punctuated by sharp vowels.</p>\n<h3>Sample Names</h3>\n<p>Adomssha, Asjossa, Chishinsa, Dalissho, Lessia, Lishassha, Somissu, Quinshu</p>"
        },
        "flaws": {
            "0": {
                "value": []
            }
        },
        "hp": 8,
        "items": {},
        "languages": {
            "custom": "",
            "value": [
                "mwangi",
                "shisk"
            ]
        },
        "reach": 5,
        "rules": [],
        "size": "med",
        "source": {
            "value": "Pathfinder Lost Omens: The Mwangi Expanse"
        },
        "speed": 25,
        "traits": {
            "custom": "",
            "rarity": {
                "value": "rare"
            },
            "value": [
                "humanoid",
                "shisk"
            ]
        },
        "vision": "darkvision"
    },
    "effects": [],
    "flags": {},
    "img": "systems/pf2e/icons/default-icons/ancestry.svg",
    "name": "Shisk",
    "type": "ancestry"
}
