{
    "_id": "ydsLEGjY89Akc4oZ",
    "data": {
        "description": {
            "value": "<p>Granted by casting <em>@Compendium[pf2e.spells-srd.Pest Form]{Pest Form}</em>.</p>\n<p>You transform into a the battle form of a Tiny animal, such as a cat, insect, lizard, or rat. You can decide the specific type of animal (such as a rat or praying mantis), but this has no effect on the form's Size or statistics. While in this form, you gain the animal trait. You can Dismiss the spell.</p>\n<p>You gain the following statistics and abilities:</p>\n<ul>\n<li>AC = 15 + your level. Ignore your armor's check penalty and Speed reduction.</li>\n<li>Speed 10 feet.</li>\n<li>Weakness 5 to physical damage. (If you take physical damage in this form, you take 5 additional damage.)</li>\n<li>Low-light vision and imprecise scent 30 feet.</li>\n<li>Acrobatics and Stealth modifiers of +10, unless your own modifier is higher; Athletics modifier -4.</li>\n</ul>\n<hr />\n<p><strong>Heightened (4th)</strong> You can turn into a flying creature, such as a bird, which grants you a fly Speed of 20 feet.</p>"
        },
        "duration": {
            "expiry": "turn-start",
            "sustained": false,
            "unit": "minutes",
            "value": 10
        },
        "level": {
            "value": 1
        },
        "rules": [
            {
                "key": "BattleForm",
                "overrides": {
                    "armorClass": {
                        "ignoreCheckPenalty": true,
                        "ignoreSpeedReduction": true,
                        "modifier": "15 + @details.level.value"
                    },
                    "senses": {
                        "lowLightVision": {},
                        "scent": {
                            "acuity": "imprecise",
                            "range": 30
                        }
                    },
                    "size": "tiny",
                    "skills": {
                        "acr": {
                            "modifier": 10
                        },
                        "ath": {
                            "modifier": -4,
                            "ownIfHigher": false
                        },
                        "ste": {
                            "modifier": 10
                        }
                    },
                    "speeds": {
                        "land": 10
                    },
                    "traits": [
                        "animal"
                    ],
                    "weaknesses": [
                        {
                            "type": "physical",
                            "value": 5
                        }
                    ]
                },
                "ownUnarmed": true,
                "value": {
                    "brackets": [
                        {
                            "start": 4,
                            "value": {
                                "speeds": {
                                    "fly": 20
                                }
                            }
                        }
                    ],
                    "field": "item|data.level.value"
                }
            }
        ],
        "source": {
            "value": ""
        },
        "start": {
            "initiative": null,
            "value": 0
        },
        "target": null,
        "tokenIcon": {
            "show": true
        },
        "traits": {
            "custom": "",
            "rarity": {
                "value": "common"
            },
            "value": []
        }
    },
    "effects": [],
    "flags": {},
    "img": "systems/pf2e/icons/spells/pest-form.webp",
    "name": "Spell Effect: Pest Form",
    "type": "effect"
}
