{
    "_id": "ctMxYPGEpstvhW9C",
    "data": {
        "description": {
            "value": "<p>Granted by <em>@Compendium[pf2e.spells-srd.Forbidding Ward]{Forbidding Ward}</em>.</p>\n<p>You are warded against the attacks and hostile spells from the target enemy. You gain a +1 status bonus to Armor Class and saving throws against the target enemy's attacks, spells, and other effects.</p>"
        },
        "duration": {
            "expiry": "turn-start",
            "sustained": true,
            "unit": "minutes",
            "value": 1
        },
        "level": {
            "value": 1
        },
        "rules": [
            {
                "key": "ToggleProperty",
                "label": "Attacked by target of Forbidding Ward",
                "property": "flags.pf2e.rollOptions.all.forbidding-ward"
            },
            {
                "key": "FlatModifier",
                "label": "Forbidding Ward",
                "predicate": {
                    "all": [
                        "forbidding-ward"
                    ]
                },
                "selector": "ac",
                "type": "status",
                "value": {
                    "brackets": [
                        {
                            "end": 5,
                            "value": 1
                        },
                        {
                            "start": 6,
                            "value": 2
                        }
                    ],
                    "field": "item|data.level.value"
                }
            },
            {
                "key": "FlatModifier",
                "label": "Forbidding Ward",
                "predicate": {
                    "all": [
                        "forbidding-ward"
                    ]
                },
                "selector": "saving-throw",
                "type": "status",
                "value": {
                    "brackets": [
                        {
                            "end": 5,
                            "value": 1
                        },
                        {
                            "start": 6,
                            "value": 2
                        }
                    ],
                    "field": "item|data.level.value"
                }
            }
        ],
        "source": {
            "value": ""
        },
        "start": {
            "initiative": null,
            "value": 0
        },
        "target": null,
        "tokenIcon": {
            "show": true
        },
        "traits": {
            "custom": "",
            "rarity": {
                "value": "common"
            },
            "value": []
        }
    },
    "effects": [],
    "flags": {},
    "img": "systems/pf2e/icons/spells/forbidding-ward.webp",
    "name": "Spell Effect: Forbidding Ward",
    "type": "effect"
}
