{
    "_id": "ubT5UGReu1PoeCL0",
    "data": {
        "description": {
            "value": "<p>Granted by <em>@Compendium[pf2e.spells-srd.Ki Strike]{Ki Strike}</em>, and selecting negative.</p>"
        },
        "duration": {
            "expiry": "turn-start",
            "sustained": false,
            "unit": "rounds",
            "value": 1
        },
        "level": {
            "value": 1
        },
        "rules": [
            {
                "key": "FlatModifier",
                "label": "Ki Strike",
                "selector": "attack",
                "type": "status",
                "value": 1
            },
            {
                "damageType": "negative",
                "dieSize": "d6",
                "key": "DamageDice",
                "label": "Ki Strike",
                "selector": "damage",
                "value": {
                    "brackets": [
                        {
                            "end": 8,
                            "value": {
                                "diceNumber": 1
                            }
                        },
                        {
                            "end": 16,
                            "start": 9,
                            "value": {
                                "diceNumber": 2
                            }
                        },
                        {
                            "start": 17,
                            "value": {
                                "diceNumber": 3
                            }
                        }
                    ]
                }
            }
        ],
        "source": {
            "value": ""
        },
        "start": {
            "initiative": null,
            "value": 0
        },
        "target": null,
        "tokenIcon": {
            "show": true
        },
        "traits": {
            "custom": "",
            "rarity": {
                "value": "common"
            },
            "value": []
        }
    },
    "effects": [],
    "flags": {},
    "img": "systems/pf2e/icons/spells/ki-strike.webp",
    "name": "Spell Effect: Ki Strike (Negative)",
    "type": "effect"
}
