{
    "_id": "j6po934p4jcUVC6l",
    "data": {
        "description": {
            "value": "<p>Granted by casting <em>@Compendium[pf2e.spells-srd.Shifting Form]{Shifting Form}</em> and choosing to gain a 20-foot status bonus to your Speed.</p>"
        },
        "duration": {
            "expiry": "turn-start",
            "sustained": false,
            "unit": "minutes",
            "value": 1
        },
        "level": {
            "value": 4
        },
        "rules": [
            {
                "key": "FlatModifier",
                "selector": "speed",
                "type": "status",
                "value": 20
            }
        ],
        "source": {
            "value": "Pathfinder Core Rulebook"
        },
        "start": {
            "initiative": null,
            "value": 0
        },
        "target": null,
        "tokenIcon": {
            "show": true
        },
        "traits": {
            "custom": "",
            "rarity": {
                "value": "common"
            },
            "value": []
        }
    },
    "effects": [],
    "flags": {},
    "img": "systems/pf2e/icons/spells/shifting-form.webp",
    "name": "Spell Effect: Shifting Form (Speed)",
    "type": "effect"
}
