{
    "_id": "PpzH9tJULk5ksX9w",
    "data": {
        "actionCategory": {
            "value": ""
        },
        "actionType": {
            "value": "passive"
        },
        "actions": {
            "value": null
        },
        "description": {
            "value": "<p>For good or ill, your ancestors' deeds drew the attention of psychopomps, or you might somehow count one in your family tree. The presence of these shepherds of souls and enemies of undeath has left an indelible mark on you.</p>\n<p><strong>Spell List</strong> divine</p>\n<p><strong>Bloodline Skills</strong> Intimidation, Religion</p>\n<p><strong>Granted Spells</strong> cantrip: <em>@Compendium[pf2e.spells-srd.Disrupt Undead]{Disrupt Undead}</em>; 1st:<em>@Compendium[pf2e.spells-srd.Heal]{Heal}</em>; 2nd: <em>@Compendium[pf2e.spells-srd.Calm Emotions]{Calm Emotions}</em>; 3rd: <em>@Compendium[pf2e.spells-srd.Searing Light]{Searing Light}</em>; 4th: <em>@Compendium[pf2e.spells-srd.Dimensional Anchor]{Dimensional Anchor}</em>; 5th: <em>@Compendium[pf2e.spells-srd.Death Ward]{Death Ward}</em>; 6th: <em>@Compendium[pf2e.spells-srd.Spirit Blast]{Spirit Blast}</em>; 7th: <em>@Compendium[pf2e.spells-srd.Finger of Death]{Finger of Death}</em>; 8th: <em>@Compendium[pf2e.spells-srd.Spirit Song]{Spirit Song}</em>; 9th: <em>@Compendium[pf2e.spells-srd.Massacre]{Massacre}</em></p>\n<p><strong>Bloodline Spells</strong> initial: <em>@Compendium[pf2e.spells-srd.Sepulchral Mask]{Sepulchral Mask}</em>; advanced: <em>@Compendium[pf2e.spells-srd.Spirit Veil]{Spirit Veil}</em>; greater: <em>@Compendium[pf2e.spells-srd.Shepherd of Souls]{Shepherd of Souls}</em></p>\n<p><strong>Blood Magic</strong> The border between life and death becomes blurred to you. Either you gain a +2 status bonus to Fortitude saving throws for 1 round, or a target takes 1 damage per spell level. The damage is negative if the target is living or positive if the target is undead. If the spell already deals that type of damage, combine it with the spell's initial damage before determining weaknesses and resistances.</p>\n<p>@Compendium[pf2e.feature-effects.Effect: Psychopomp Blood Magic (Self)]{Effect: Psychopomp Blood Magic (Self)}</p>"
        },
        "featType": {
            "value": "classfeature"
        },
        "level": {
            "value": 1
        },
        "location": "",
        "prerequisites": {
            "value": []
        },
        "rules": [
            {
                "key": "ActiveEffectLike",
                "mode": "upgrade",
                "path": "data.resources.focus.max",
                "priority": 10,
                "value": 1
            },
            {
                "key": "ActiveEffectLike",
                "mode": "upgrade",
                "path": "data.skills.itm.rank",
                "value": 1
            },
            {
                "key": "ActiveEffectLike",
                "mode": "upgrade",
                "path": "data.skills.rel.rank",
                "value": 1
            },
            {
                "key": "ActiveEffectLike",
                "mode": "override",
                "path": "data.proficiencies.aliases.sorcerer",
                "priority": 39,
                "value": "divine"
            }
        ],
        "source": {
            "value": ""
        },
        "traits": {
            "custom": "",
            "rarity": {
                "value": "common"
            },
            "value": [
                "sorcerer"
            ]
        }
    },
    "effects": [],
    "flags": {},
    "img": "systems/pf2e/icons/features/classes/psychopomp.webp",
    "name": "Bloodline: Psychopomp",
    "type": "feat"
}
