{
    "_id": "IxxPEahbqXwIXum7",
    "data": {
        "actionCategory": {
            "value": ""
        },
        "actionType": {
            "value": "passive"
        },
        "actions": {
            "value": null
        },
        "description": {
            "value": "<p>You learn a special discovery depending on your field.</p>\n<p>@Compendium[pf2e.classfeatures.Field Discovery (Bomber)]{Field Discovery (Bomber)}</p>\n<p>@Compendium[pf2e.classfeatures.Field Discovery (Chirurgeon)]{Field Discovery (Chirurgeon)}</p>\n<p>@Compendium[pf2e.classfeatures.Field Discovery (Mutagenist)]{Field Discovery (Mutagenist)}</p>\n<p>@Compendium[pf2e.classfeatures.Field Discovery (Toxicologist)]{Field Discovery (Toxicologist)}</p>"
        },
        "featType": {
            "value": "classfeature"
        },
        "level": {
            "value": 5
        },
        "location": "",
        "prerequisites": {
            "value": []
        },
        "rules": [],
        "source": {
            "value": ""
        },
        "traits": {
            "custom": "",
            "rarity": {
                "value": "common"
            },
            "value": [
                "alchemist"
            ]
        }
    },
    "effects": [],
    "flags": {},
    "img": "systems/pf2e/icons/features/classes/choice-feature.webp",
    "name": "Field Discovery",
    "type": "feat"
}
