{
    "_id": "YMBsi4bndRAk5CX4",
    "data": {
        "actionCategory": {
            "value": ""
        },
        "actionType": {
            "value": "passive"
        },
        "actions": {
            "value": null
        },
        "description": {
            "value": "<p>Your muse is a virtuoso, inspiring you to greater heights. If it's a creature, it might be a performance-loving creature such as a choral angel or lillend azata; if a deity, it might be @Compendium[pf2e.deities.Shelyn]{Shelyn}. As a bard with a maestro muse, you are an inspiration to your allies and confident of your musical and oratorical abilities. You gain the @Compendium[pf2e.feats-srd.Lingering Composition]{Lingering Composition} feat and add <em>@Compendium[pf2e.spells-srd.Soothe]{Soothe}</em> to your spell repertoire.</p>"
        },
        "featType": {
            "value": "classfeature"
        },
        "level": {
            "value": 1
        },
        "location": "",
        "prerequisites": {
            "value": []
        },
        "rules": [],
        "source": {
            "value": ""
        },
        "traits": {
            "custom": "",
            "rarity": {
                "value": "common"
            },
            "value": [
                "bard"
            ]
        }
    },
    "effects": [],
    "flags": {},
    "img": "systems/pf2e/icons/features/classes/maestro.webp",
    "name": "Maestro Muse",
    "type": "feat"
}
