{
    "_id": "64sdDzjLWu2W2R2e",
    "data": {
        "abilities": {
            "cha": {
                "mod": 0
            },
            "con": {
                "mod": 5
            },
            "dex": {
                "mod": 5
            },
            "int": {
                "mod": -3
            },
            "str": {
                "mod": 8
            },
            "wis": {
                "mod": 5
            }
        },
        "attributes": {
            "ac": {
                "details": "",
                "value": 30
            },
            "allSaves": {
                "value": ""
            },
            "hp": {
                "details": "",
                "max": 170,
                "temp": 0,
                "value": 170
            },
            "initiative": {
                "ability": "perception"
            },
            "perception": {
                "value": 21
            },
            "shield": {
                "ac": 0,
                "brokenThreshold": 0,
                "hardness": 0,
                "max": 0,
                "value": 0
            },
            "speed": {
                "otherSpeeds": [
                    {
                        "exceptions": "",
                        "label": "Swim",
                        "type": "swim",
                        "value": "50"
                    }
                ],
                "value": "20"
            }
        },
        "details": {
            "alignment": {
                "value": "N"
            },
            "blurb": "",
            "creatureType": "Beast",
            "level": {
                "value": 10
            },
            "privateNotes": "",
            "publicNotes": "<p>Legendary creatures lurking in remote lakes, water orms always find their way into the tavern tales of lakeside communities. To some travelers, every lake of respectable size seems to be surrounded by towns full of fishers claiming to have spotted a water orm. These elusive creatures inhabit lakes mainly in cool and gloomy regions. Some claim that water orms are an offshoot of sea serpents and linnorms, but no credible link between these creatures has been found.</p>\n<p>Water orms have many features that sea serpents do not, such as the ability to understand the rudiments of language. Their natural inclination to avoid contact and remain hidden often remains at odds with their equally compelling curiosity about those they might spy upon the shores of their lakes. Water orm sightings usually occur when they can't help but to rise up to the surface to take a peek at someone  particularly unusual on the beach or floating on the water's surface.</p>\n<p>These creatures are extremely long-lived and can go for decades, or even centuries, with very little to eat. This allows water orms to subsist in lakes without surfacing for many years, even in bodies of fresh water without ample food sources. Water orms might lie in a silty lake bed for years, their elusiveness only contributing to their mythical reputation. When a pet or child goes missing near a lake, rumors might hold that the local water orm is responsible, leading to folk tales that caution residents against venturing out alone near the water.</p>\n<p>While most water orms are described as serpentine or long-necked reptiles, others look similar to bizarrely elongated seals or whales, impossibly large sea horses, or long-necked creatures with paddles resembling those of elasmosauruses.</p>",
            "source": {
                "value": "Pathfinder Bestiary 2"
            }
        },
        "resources": {},
        "saves": {
            "fortitude": {
                "saveDetail": "",
                "value": 21
            },
            "reflex": {
                "saveDetail": "",
                "value": 19
            },
            "will": {
                "saveDetail": "",
                "value": 17
            }
        },
        "traits": {
            "attitude": {
                "value": "hostile"
            },
            "ci": [],
            "di": {
                "custom": "",
                "value": []
            },
            "dr": [
                {
                    "label": "Cold",
                    "type": "cold",
                    "value": "10"
                },
                {
                    "label": "Fire",
                    "type": "fire",
                    "value": "10"
                }
            ],
            "dv": [],
            "languages": {
                "custom": "",
                "selected": [],
                "value": [
                    "aquan"
                ]
            },
            "rarity": {
                "value": "rare"
            },
            "senses": {
                "value": "darkvision"
            },
            "size": {
                "value": "huge"
            },
            "traits": {
                "custom": "",
                "value": [
                    "aquatic",
                    "beast",
                    "water"
                ]
            }
        }
    },
    "effects": [],
    "flags": {},
    "img": "systems/pf2e/icons/default-icons/npc.svg",
    "items": [
        {
            "_id": "h9Ugyirm1B1g6pt6",
            "data": {
                "attack": {
                    "value": ""
                },
                "attackEffects": {
                    "value": [
                        "grab"
                    ]
                },
                "bonus": {
                    "value": 24
                },
                "damageRolls": {
                    "urspp1xr5ctj7j7m9lj8": {
                        "damage": "2d10+11",
                        "damageType": "piercing"
                    }
                },
                "description": {
                    "value": ""
                },
                "rules": [],
                "slug": null,
                "source": {
                    "value": ""
                },
                "traits": {
                    "custom": "",
                    "rarity": {
                        "value": "common"
                    },
                    "value": [
                        "reach-15"
                    ]
                },
                "weaponType": {
                    "value": "melee"
                }
            },
            "effects": [],
            "flags": {},
            "img": "systems/pf2e/icons/default-icons/melee.svg",
            "name": "Jaws",
            "sort": 100000,
            "type": "melee"
        },
        {
            "_id": "J2LUtQlsnbpMEQ1r",
            "data": {
                "attack": {
                    "value": ""
                },
                "attackEffects": {
                    "value": []
                },
                "bonus": {
                    "value": 24
                },
                "damageRolls": {
                    "2isctdhpycdwpd59z4nx": {
                        "damage": "2d6+11",
                        "damageType": "bludgeoning"
                    }
                },
                "description": {
                    "value": ""
                },
                "rules": [],
                "slug": null,
                "source": {
                    "value": ""
                },
                "traits": {
                    "custom": "",
                    "rarity": {
                        "value": "common"
                    },
                    "value": [
                        "agile",
                        "reach-15"
                    ]
                },
                "weaponType": {
                    "value": "melee"
                }
            },
            "effects": [],
            "flags": {},
            "img": "systems/pf2e/icons/default-icons/melee.svg",
            "name": "Tail",
            "sort": 200000,
            "type": "melee"
        },
        {
            "_id": "8F42ZUECGwbl9nmU",
            "data": {
                "actionCategory": {
                    "value": "interaction"
                },
                "actionType": {
                    "value": "passive"
                },
                "actions": {
                    "value": null
                },
                "description": {
                    "value": "<p>@Localize[PF2E.NPC.Abilities.Glossary.Darkvision]</p>"
                },
                "requirements": {
                    "value": ""
                },
                "rules": [],
                "slug": "darkvision",
                "source": {
                    "value": ""
                },
                "traits": {
                    "custom": "",
                    "rarity": {
                        "value": "common"
                    },
                    "value": []
                },
                "trigger": {
                    "value": ""
                },
                "weapon": {
                    "value": ""
                }
            },
            "effects": [],
            "flags": {
                "core": {
                    "sourceId": "Compendium.pf2e.bestiary-ability-glossary-srd.qCCLZhnp2HhP3Ex6"
                }
            },
            "img": "systems/pf2e/icons/default-icons/action.svg",
            "name": "Darkvision",
            "sort": 300000,
            "type": "action"
        },
        {
            "_id": "fakAfk3puTMpw1vT",
            "data": {
                "actionCategory": {
                    "value": "interaction"
                },
                "actionType": {
                    "value": "passive"
                },
                "actions": {
                    "value": null
                },
                "description": {
                    "value": "<p>A water orm can go for 10 years without feeding. Beyond this limit, the water orm's hunger causes it to become @Compendium[pf2e.conditionitems.Slowed]{Slowed 1}, but doesn't otherwise impact its lifespan. A water orm that's slowed as a result of starvation can remove this condition by using Swallow Whole to gulp down a meal.</p>"
                },
                "requirements": {
                    "value": ""
                },
                "rules": [],
                "slug": null,
                "source": {
                    "value": ""
                },
                "traits": {
                    "custom": "",
                    "rarity": {
                        "value": "common"
                    },
                    "value": []
                },
                "trigger": {
                    "value": ""
                },
                "weapon": {
                    "value": ""
                }
            },
            "effects": [],
            "flags": {},
            "img": "systems/pf2e/icons/actions/Passive.webp",
            "name": "Slow Metabolism",
            "sort": 400000,
            "type": "action"
        },
        {
            "_id": "qpAN2omg7HvCwOzk",
            "data": {
                "actionCategory": {
                    "value": "interaction"
                },
                "actionType": {
                    "value": "passive"
                },
                "actions": {
                    "value": null
                },
                "description": {
                    "value": "<p>A water orm automatically tries to counteract any detection, revelation, or scrying divination attempted against it, using its Stealth modifier for the counteract check.</p>"
                },
                "requirements": {
                    "value": ""
                },
                "rules": [],
                "slug": null,
                "source": {
                    "value": ""
                },
                "traits": {
                    "custom": "",
                    "rarity": {
                        "value": "common"
                    },
                    "value": [
                        "abjuration",
                        "primal",
                        "detection",
                        "revelation",
                        "scrying",
                        "divination"
                    ]
                },
                "trigger": {
                    "value": ""
                },
                "weapon": {
                    "value": ""
                }
            },
            "effects": [],
            "flags": {},
            "img": "systems/pf2e/icons/default-icons/mystery-man.svg",
            "name": "Undetectable",
            "sort": 500000,
            "type": "action"
        },
        {
            "_id": "Us7BcRckPUy5WuaZ",
            "data": {
                "actionCategory": {
                    "value": "offensive"
                },
                "actionType": {
                    "value": "action"
                },
                "actions": {
                    "value": 1
                },
                "description": {
                    "value": "<p>Large, [[/r {2d8+8}[bludgeoning]]]{2d8+8 bludgeoning damage}, Rupture 22</p>\n<hr />\n<p>@Localize[PF2E.NPC.Abilities.Glossary.SwallowWhole]</p>"
                },
                "requirements": {
                    "value": ""
                },
                "rules": [],
                "slug": "swallow-whole",
                "source": {
                    "value": ""
                },
                "traits": {
                    "custom": "",
                    "rarity": {
                        "value": "common"
                    },
                    "value": [
                        "attack"
                    ]
                },
                "trigger": {
                    "value": ""
                },
                "weapon": {
                    "value": ""
                }
            },
            "effects": [],
            "flags": {
                "core": {
                    "sourceId": "Compendium.pf2e.bestiary-ability-glossary-srd.uJSseLa57HZYSMUu"
                }
            },
            "img": "systems/pf2e/icons/actions/OneAction.webp",
            "name": "Swallow Whole",
            "sort": 600000,
            "type": "action"
        },
        {
            "_id": "JAh7SWOTsIXvrckz",
            "data": {
                "actionCategory": {
                    "value": "offensive"
                },
                "actionType": {
                    "value": "action"
                },
                "actions": {
                    "value": 3
                },
                "description": {
                    "value": "<p>A water orm can dissolve into water, appearing only as a long, dark, serpentine stretch of water. While in this form, a water orm's swim Speed increases to 600 feet, it automatically succeeds at Athletics checks to @Compendium[pf2e.actionspf2e.Swim]{Swim}, and it gains a +4 circumstance bonus to Stealth checks in water. A water orm can remain in this form for 8 hours, but it can't enter salt water when using this ability. A water orm can return to its normal form using a single action which has the concentrate trait.</p>"
                },
                "requirements": {
                    "value": ""
                },
                "rules": [
                    {
                        "key": "ToggleProperty",
                        "property": "flags.pf2e.all.rollOptions.water-travel"
                    },
                    {
                        "key": "FlatModifier",
                        "predicate": {
                            "all": [
                                "water-travel"
                            ]
                        },
                        "selector": "stealth",
                        "type": "circumstance",
                        "value": 4
                    }
                ],
                "slug": null,
                "source": {
                    "value": ""
                },
                "traits": {
                    "custom": "",
                    "rarity": {
                        "value": "common"
                    },
                    "value": [
                        "primal",
                        "transmutation",
                        "water",
                        "concentrate"
                    ]
                },
                "trigger": {
                    "value": ""
                },
                "weapon": {
                    "value": ""
                }
            },
            "effects": [],
            "flags": {},
            "img": "systems/pf2e/icons/actions/ThreeActions.webp",
            "name": "Water Travel",
            "sort": 700000,
            "type": "action"
        },
        {
            "_id": "YBRIxpMXUrxJfeV1",
            "data": {
                "actionCategory": {
                    "value": "offensive"
                },
                "actionType": {
                    "value": "action"
                },
                "actions": {
                    "value": 1
                },
                "description": {
                    "value": "<p>@Localize[PF2E.NPC.Abilities.Glossary.Grab]</p>"
                },
                "requirements": {
                    "value": ""
                },
                "rules": [],
                "slug": "grab",
                "source": {
                    "value": ""
                },
                "traits": {
                    "custom": "",
                    "rarity": {
                        "value": "common"
                    },
                    "value": []
                },
                "trigger": {
                    "value": ""
                },
                "weapon": {
                    "value": ""
                }
            },
            "effects": [],
            "flags": {
                "core": {
                    "sourceId": "Compendium.pf2e.bestiary-ability-glossary-srd.Tkd8sH4pwFIPzqTr"
                }
            },
            "img": "systems/pf2e/icons/actions/OneAction.webp",
            "name": "Grab",
            "sort": 800000,
            "type": "action"
        },
        {
            "_id": "JcpPimnHZaIhA14s",
            "data": {
                "description": {
                    "value": ""
                },
                "item": {
                    "value": 0
                },
                "mod": {
                    "value": 22
                },
                "proficient": {
                    "value": 0
                },
                "rules": [],
                "slug": null,
                "source": {
                    "value": ""
                },
                "traits": {
                    "custom": "",
                    "rarity": {
                        "value": "common"
                    },
                    "value": []
                }
            },
            "effects": [],
            "flags": {},
            "img": "systems/pf2e/icons/default-icons/lore.svg",
            "name": "Athletics",
            "sort": 900000,
            "type": "lore"
        },
        {
            "_id": "Srum1jXpO6XzOINn",
            "data": {
                "description": {
                    "value": ""
                },
                "item": {
                    "value": 0
                },
                "mod": {
                    "value": 23
                },
                "proficient": {
                    "value": 0
                },
                "rules": [],
                "slug": null,
                "source": {
                    "value": ""
                },
                "traits": {
                    "custom": "",
                    "rarity": {
                        "value": "common"
                    },
                    "value": []
                }
            },
            "effects": [],
            "flags": {},
            "img": "systems/pf2e/icons/default-icons/lore.svg",
            "name": "Stealth",
            "sort": 1000000,
            "type": "lore"
        }
    ],
    "name": "Water Orm",
    "token": {
        "disposition": -1,
        "height": 3,
        "img": "systems/pf2e/icons/default-icons/npc.svg",
        "name": "Water Orm",
        "width": 3
    },
    "type": "npc"
}
