{
    "_id": "xEjGEBvTfDJECSki",
    "data": {
        "ability": {
            "value": ""
        },
        "area": {
            "areaType": "",
            "value": ""
        },
        "areasize": {
            "value": ""
        },
        "category": {
            "value": "focus"
        },
        "components": {
            "material": false,
            "somatic": true,
            "verbal": true
        },
        "cost": {
            "value": ""
        },
        "damage": {
            "value": {}
        },
        "description": {
            "value": "<p>You take the form of your ancestral spirits, becoming @Compendium[pf2e.conditionitems.Invisible]{Invisible} and quasi‑corporeal. You gain resistance 10 to all damage (except force and damage from Strikes with the ghost touch property rune), and this resistance is doubled against non‑magical and precision damage.</p>\n<p>You gain a fly Speed equal to your land Speed; when @Compendium[pf2e.actionspf2e.Fly]{Flying}, moving upward isn't difficult terrain for you. You can't move through solid objects, but you can float through tiny gaps.</p>\n<p>You can't Cast Spells (but you can @Compendium[pf2e.actionspf2e.Sustain a Spell]{Sustain a Spell}), activate items, or use actions that have the attack or manipulate trait.</p>\n<hr />\n<p><strong>Heightened (+2)</strong> The resistance increases by 5.</p>\n<p>@Compendium[pf2e.spell-effects.Spell Effect: Ancestral Form]{Spell Effect: Ancestral Form}</p>"
        },
        "duration": {
            "value": "sustained up to 1 minute"
        },
        "hasCounteractCheck": {
            "value": false
        },
        "level": {
            "value": 6
        },
        "location": {
            "value": ""
        },
        "materials": {
            "value": ""
        },
        "prepared": {
            "value": ""
        },
        "primarycheck": {
            "value": ""
        },
        "range": {
            "value": ""
        },
        "rules": [],
        "save": {
            "basic": "",
            "value": ""
        },
        "school": {
            "value": "transmutation"
        },
        "secondarycasters": {
            "value": ""
        },
        "secondarycheck": {
            "value": ""
        },
        "source": {
            "value": "Pathfinder Advanced Player's Guide"
        },
        "spellType": {
            "value": "utility"
        },
        "sustained": {
            "value": false
        },
        "target": {
            "value": ""
        },
        "time": {
            "value": "2"
        },
        "traditions": {
            "custom": "",
            "value": []
        },
        "traits": {
            "custom": "",
            "rarity": {
                "value": "uncommon"
            },
            "value": [
                "oracle",
                "cursebound"
            ]
        }
    },
    "effects": [],
    "flags": {},
    "img": "systems/pf2e/icons/spells/ancestral-form.webp",
    "name": "Ancestral Form",
    "type": "spell"
}
