{
    "_id": "VuPDHoVEPLbMfCJC",
    "data": {
        "ability": {
            "value": ""
        },
        "area": {
            "areaType": "",
            "value": ""
        },
        "areasize": {
            "value": ""
        },
        "autoHeightenLevel": {
            "value": null
        },
        "category": {
            "value": "spell"
        },
        "components": {
            "focus": false,
            "material": false,
            "somatic": true,
            "verbal": true
        },
        "cost": {
            "value": ""
        },
        "damage": {
            "value": {}
        },
        "description": {
            "value": "<p>You tap into the target's inner being and curse it to become a bestial version of itself. The effect is based on its Fortitude save.</p>\n<hr />\n<p><strong>Critical Success</strong>: The target is unaffected.</p>\n<p><strong>Success</strong> The target's body gains minor bestial features. Its insides churn as they partially transform, causing it to be @Compendium[pf2e.conditionitems.Clumsy]{Clumsy 1} for 1 round. When it recovers from the Clumsy condition, its features revert to normal and the spell ends.</p>\n<p><strong>Failure</strong> The target transforms into a bestial form for 1 hour. The target becomes @Compendium[pf2e.conditionitems.Clumsy]{Clumsy 1} and gains weakness 1 to silver. It gains a claw, hoof, horn, or jaws Strike(your choice) that uses the target's unarmed Strike statistics except that the damage type changes to bludgeoning, piercing, or slashing, as appropriate. Whenever the target attempts to use any manipulate action, it must succeed at a DC 5 flat check or the action is lost. @Compendium[pf2e.spell-effects.Spell Effect: Bestial Curse (Failure)]{Spell Effect: Bestial Curse (Failure)}</p>\n<p><strong>Critical Failure</strong>: As failure, but the duration is unlimited. @Compendium[pf2e.spell-effects.Spell Effect: Bestial Curse (Critical Failure)]{Spell Effect: Bestial Curse (Critical Failure)}</p>"
        },
        "duration": {
            "value": "varies"
        },
        "hasCounteractCheck": {
            "value": false
        },
        "level": {
            "value": 4
        },
        "location": {
            "value": ""
        },
        "materials": {
            "value": ""
        },
        "prepared": {
            "value": false
        },
        "primarycheck": {
            "value": ""
        },
        "range": {
            "value": "touch"
        },
        "rules": [],
        "save": {
            "basic": "",
            "value": "fortitude"
        },
        "school": {
            "value": "transmutation"
        },
        "secondarycasters": {
            "value": ""
        },
        "secondarycheck": {
            "value": ""
        },
        "source": {
            "value": "Pathfinder Advanced Player's Guide"
        },
        "spellType": {
            "value": "save"
        },
        "sustained": {
            "value": false
        },
        "target": {
            "value": "1 living humanoid"
        },
        "time": {
            "value": "2"
        },
        "traditions": {
            "value": [
                "arcane",
                "occult",
                "primal"
            ]
        },
        "traits": {
            "custom": "",
            "rarity": {
                "value": "common"
            },
            "value": [
                "curse",
                "polymorph"
            ]
        }
    },
    "effects": [],
    "flags": {},
    "img": "systems/pf2e/icons/spells/bestial-curse.webp",
    "name": "Bestial Curse",
    "type": "spell"
}
