{
    "_id": "VXUrO8TwRqBpNzdU",
    "data": {
        "ability": {
            "value": ""
        },
        "area": {
            "areaType": "",
            "value": ""
        },
        "autoHeightenLevel": {
            "value": null
        },
        "category": {
            "value": "spell"
        },
        "components": {
            "focus": false,
            "material": false,
            "somatic": true,
            "verbal": true
        },
        "cost": {
            "value": ""
        },
        "damage": {
            "applyMod": false,
            "value": {}
        },
        "description": {
            "value": "<p>You inflict a curse upon the target that causes any wound to gush blood. The target must attempt a Fortitude save.</p>\n<hr />\n<p><strong>Critical Success</strong> The target is unaffected.</p>\n<p><strong>Success</strong> For 1 minute, the first time each round that the target takes at least 10 piercing or slashing damage from a single Strike, it takes [[/r 2d6]] additional damage of the same type.</p>\n<p><strong>Failure</strong> As success, but when it takes the additional damage, it also takes [[/r 2d6 #persistent bleed]] @Compendium[pf2e.conditionitems.Persistent Damage]{Persistent Bleed Damage}.</p>\n<hr />\n<p><strong>Heightened (+2)</strong> The additional damage increases by [[/r 1d6]] and the persistent bleed damage increases by 1d6.</p>"
        },
        "duration": {
            "value": "varies"
        },
        "hasCounteractCheck": {
            "value": false
        },
        "level": {
            "value": 4
        },
        "location": {
            "value": ""
        },
        "materials": {
            "value": ""
        },
        "prepared": {
            "value": ""
        },
        "range": {
            "value": "30 feet"
        },
        "rules": [],
        "save": {
            "basic": "",
            "value": "fortitude"
        },
        "school": {
            "value": "necromancy"
        },
        "source": {
            "value": "Pathfinder Secrets of Magic"
        },
        "spellType": {
            "value": "save"
        },
        "sustained": {
            "value": false
        },
        "target": {
            "value": "1 creature"
        },
        "time": {
            "value": "2"
        },
        "traditions": {
            "custom": "",
            "value": [
                "divine",
                "occult",
                "primal"
            ]
        },
        "traits": {
            "custom": "",
            "rarity": {
                "value": "common"
            },
            "value": [
                "curse"
            ]
        }
    },
    "effects": [],
    "flags": {},
    "img": "systems/pf2e/icons/spells/bloodspray-curse.webp",
    "name": "Bloodspray Curse",
    "type": "spell"
}
