{
    "_id": "TCk2MDwf5L5OYjFC",
    "data": {
        "ability": {
            "value": ""
        },
        "area": {
            "areaType": "",
            "value": null
        },
        "areasize": {
            "value": ""
        },
        "category": {
            "value": "spell"
        },
        "components": {
            "material": false,
            "somatic": true,
            "verbal": true
        },
        "cost": {
            "value": ""
        },
        "damage": {
            "value": {}
        },
        "description": {
            "value": "<p>A cloak of swirling colors shrouds the target. Creatures are @Compendium[pf2e.conditionitems.Dazzled]{Dazzled} while adjacent to it, and attacking the target causes a brilliant flash of light. A creature that hits the target with a melee attack must attempt a Will save.The creature is temporarily immune until the end of its turn; this effect has the incapacitation trait.</p>\n<hr />\n<p><strong>Success</strong> The attacker is unaffected.</p>\n<p><strong>Failure</strong> The attacker is @Compendium[pf2e.conditionitems.Blinded]{Blinded} for 1 round.</p>\n<p><strong>Critical Failure</strong> The attacker is @Compendium[pf2e.conditionitems.Stunned]{Stunned} for 1 round.</p>"
        },
        "duration": {
            "value": "1 minute"
        },
        "hasCounteractCheck": {
            "value": false
        },
        "level": {
            "value": 5
        },
        "location": {
            "value": ""
        },
        "materials": {
            "value": ""
        },
        "prepared": {
            "value": ""
        },
        "primarycheck": {
            "value": ""
        },
        "range": {
            "value": "30 feet"
        },
        "rules": [],
        "save": {
            "basic": "",
            "value": ""
        },
        "school": {
            "value": "illusion"
        },
        "secondarycasters": {
            "value": ""
        },
        "secondarycheck": {
            "value": ""
        },
        "source": {
            "value": "Pathfinder Core Rulebook"
        },
        "spellType": {
            "value": "utility"
        },
        "sustained": {
            "value": false
        },
        "target": {
            "value": "1 creature"
        },
        "time": {
            "value": "2"
        },
        "traditions": {
            "value": [
                "arcane",
                "occult"
            ]
        },
        "traits": {
            "custom": "",
            "rarity": {
                "value": "common"
            },
            "value": [
                "visual"
            ]
        }
    },
    "effects": [],
    "flags": {},
    "img": "systems/pf2e/icons/spells/cloak-of-colors.webp",
    "name": "Cloak of Colors",
    "type": "spell"
}
