{
    "_id": "aSDfGcUOUVGU5m1g",
    "data": {
        "ability": {
            "value": ""
        },
        "area": {
            "areaType": "",
            "value": ""
        },
        "autoHeightenLevel": {
            "value": null
        },
        "category": {
            "value": "spell"
        },
        "components": {
            "focus": false,
            "material": false,
            "somatic": true,
            "verbal": true
        },
        "cost": {
            "value": ""
        },
        "damage": {
            "value": {}
        },
        "description": {
            "value": "<p>You infuse yourself with the corrupting death and pure malevolence of Abaddon, transforming into a Large daemon battle form. You must have enough space to expand into or the spell is lost. When you cast this spell you choose either ceustodaemon, leukodaemon, meladaemon, or piscodaemon. The battle form is Medium if you choose ceustodaemon. While in this form, you gain the daemon and fiend traits. You have hands in this battle form and can use manipulate actions. You can Dismiss the spell.</p>\n<p>You gain the following statistics and abilities regardless of the form that you choose:</p>\n<ul>\n<li>AC = 21 + your level. Ignore your armor check's penalty and Speed reduction.</li>\n<li>15 temporary Hit Points and weakness 5 to good.</li>\n<li>A +2 status bonus to all saving throws against death effects.</li>\n<li>Resistance 10 to poison.</li>\n<li>Darkvision.</li>\n<li>One or more attacks specific to the battle form you use. You're trained with them. Your attack modifier is +21, and you use the listed damage. These attacks are Strength based (for the purpose of the enfeebled condition, for example). If your unarmed attack modifier is higher, you can use it instead.</li>\n<li>Athletics modifier of +23, unless your own modifier is higher.</li>\n</ul>\n<p>You also gain specific abilities based on the type of Daemon you choose:</p>\n<ul>\n<li><strong>Ceustodaemon</strong> Speed 25 feet;\n<ul>\n<li><strong>Melee</strong> <span class=\"pf2-icon\">1</span> jaws (reach 10 feet), <strong>Damage</strong> 2d10+10 piercing plus 1d6 evil;</li>\n<li><strong>Melee</strong> <span class=\"pf2-icon\">1</span> claw (agile, reach 10 feet), <strong>Damage</strong> 2d6 slashing plus 1d6 evil;</li>\n<li>Any successful jaws or claw Strike deals an additional 1d6 damage, and you take the same amount of damage.</li>\n</ul>\n</li>\n</ul>\n<p>@Compendium[pf2e.spell-effects.Spell Effect: Daemon Form (Ceustodaemon)]{Spell Effect: Daemon Form (Ceustodaemon)}</p>\n<ul>\n<li><strong>Leukodaemon</strong> Speed 25 feet, fly 40 feet; +2 status bonus to saves against diseases;\n<ul>\n<li><strong>Melee</strong> <span class=\"pf2-icon\">1</span> jaws (reach 10 feet), <strong>Damage</strong> 2d10+10 piercing plus 1d6 evil;</li>\n<li><strong>Melee</strong> <span class=\"pf2-icon\">1</span> claw (agile, reach 10 feet), <strong>Damage</strong> 2d6 slashing plus 1d6 evil;</li>\n<li><strong>Ranged</strong> <span class=\"pf2-icon\">1</span> composite longbow (deadly d10, range increment 100 feet, volley), <strong>Damage</strong> 2d8 piercing plus 1d6 evil.</li>\n</ul>\n</li>\n</ul>\n<p>@Compendium[pf2e.spell-effects.Spell Effect: Daemon Form (Leukodaemon)]{Spell Effect: Daemon Form (Leukodaemon)}</p>\n<ul>\n<li><strong>Meladaemon</strong> Speed 25 feet, fly 40 feet;\n<ul>\n<li><strong>Melee</strong><span class=\"pf2-icon\">1</span> jaws (reach 10 feet), <strong>Damage</strong> 2d10+10 piercing plus 1d6 evil;</li>\n<li><strong>Melee</strong> <span class=\"pf2-icon\">1</span> claw (agile, reach 10 feet), <strong>Damage</strong> 1d8 slashing plus 1d6 evil and 1d6 negative, and you can spend an action after a hit to Grab the target.</li>\n</ul>\n</li>\n</ul>\n<p>@Compendium[pf2e.spell-effects.Spell Effect: Daemon Form (Meladaemon)]{Spell Effect: Daemon Form (Meladaemon)}</p>\n<ul>\n<li><strong>Piscodaemon</strong> Speed 25 feet, swim 40 feet;\n<ul>\n<li><strong>Melee</strong> <span class=\"pf2-icon\">1</span> claw, <strong>Damage</strong> 2d10+10 piercing plus 1d6 evil and 1d6 persistent bleed, and you can spend an action after a hit to Grab the target;</li>\n<li><strong>Melee</strong> <span class=\"pf2-icon\">1</span> tentacle (agile), <strong>Damage</strong> 2d6 bludgeoning plus 1d6 evil and 1d6 poison.</li>\n</ul>\n</li>\n</ul>\n<p>@Compendium[pf2e.spell-effects.Spell Effect: Daemon Form (Piscodaemon)]{Spell Effect: Daemon Form (Piscodaemon)}</p>"
        },
        "duration": {
            "value": "1 minute"
        },
        "hasCounteractCheck": {
            "value": false
        },
        "level": {
            "value": 6
        },
        "location": {
            "value": ""
        },
        "materials": {
            "value": ""
        },
        "prepared": {
            "value": ""
        },
        "range": {
            "value": ""
        },
        "rules": [],
        "save": {
            "basic": "",
            "value": ""
        },
        "school": {
            "value": "transmutation"
        },
        "source": {
            "value": "Pathfinder Secrets of Magic"
        },
        "spellType": {
            "value": "utility"
        },
        "sustained": {
            "value": false
        },
        "target": {
            "value": ""
        },
        "time": {
            "value": "2"
        },
        "traditions": {
            "custom": "",
            "value": [
                "arcane",
                "divine"
            ]
        },
        "traits": {
            "custom": "",
            "rarity": {
                "value": "common"
            },
            "value": [
                "evil",
                "polymorph"
            ]
        }
    },
    "effects": [],
    "flags": {},
    "img": "systems/pf2e/icons/spells/daemon-form.webp",
    "name": "Daemon Form",
    "type": "spell"
}
