{
    "_id": "KhM8MhoUgoUjBMIz",
    "data": {
        "ability": {
            "value": ""
        },
        "area": {
            "areaType": "",
            "value": ""
        },
        "areasize": {
            "value": ""
        },
        "autoHeightenLevel": {
            "value": null
        },
        "category": {
            "value": "spell"
        },
        "components": {
            "focus": false,
            "material": false,
            "somatic": true,
            "verbal": true
        },
        "cost": {
            "value": ""
        },
        "damage": {
            "value": {}
        },
        "description": {
            "value": "<p>You channel the primal forces of nature to transform into a Large animal battle form, specifically that of a powerful and terrifying dinosaur. You must have space to expand or the spell is lost. When you cast this spell, choose ankylosaurus, brontosaurus, deinonychus, stegosaurus, triceratops, or tyrannosaurus. You can decide the specific type of animal, but this has no effect on the form's Size or statistics. While in this form, you gain the animal and dinosaur traits. You can Dismiss the spell.</p>\n<p>You gain the following statistics and abilities regardless of which battle form you choose:</p>\n<ul>\n<li>AC = 18 + your level. Ignore your armor's check penalty and Speed reduction.</li>\n<li>15 temporary Hit Points.</li>\n<li>Low-light vision and imprecise scent 30 feet.</li>\n<li>One or more unarmed melee attacks specific to the battle form you choose, which are the only attacks you can use. You're trained with them. Your attack modifier is +16, and your damage bonus is +9. These attacks are Strength based (for the purpose of the @Compendium[pf2e.conditionitems.Enfeebled]{Enfeebled} condition, for example). If your unarmed attack modifier is higher, you can use it instead.</li>\n<li>Athletics modifier of +18, unless your own is higher.</li>\n</ul>\n<p>You also gain specific abilities based on the form you choose:</p>\n<ul>\n<li><strong>@Compendium[pf2e.spell-effects.Spell Effect: Dinosaur Form (Ankylosaurus)]{Ankylosaurus}</strong>\n<ul>\n<li>Speed 25 feet;</li>\n<li><strong>Melee</strong> <span class=\"pf2-icon\">1</span> tail (backswing, reach 10 feet), <strong>Damage</strong> 2d6 bludgeoning;</li>\n<li><strong>Melee</strong> <span class=\"pf2-icon\">1</span> foot, <strong>Damage</strong> 2d6 bludgeoning.</li>\n</ul>\n</li>\n<li><strong>@Compendium[pf2e.spell-effects.Spell Effect: Dinosaur Form (Brontosaurus)]{Brontosaurus}</strong>\n<ul>\n<li>Speed 25 feet;</li>\n<li><strong>Melee</strong> <span class=\"pf2-icon\">1</span> tail (reach 15 feet), <strong>Damage</strong> 2d6 bludgeoning;</li>\n<li><strong>Melee</strong> <span class=\"pf2-icon\">1</span> foot, <strong>Damage</strong> 2d8 bludgeoning.</li>\n</ul>\n</li>\n<li><strong>@Compendium[pf2e.spell-effects.Spell Effect: Dinosaur Form (Deinonychus)]{Deinonychus}</strong>\n<ul>\n<li>Speed 40 feet;</li>\n<li><strong>Melee</strong> <span class=\"pf2-icon\">1</span> talon (agile), <strong>Damage</strong> 2d4 piercing plus [[/r 1 #persistent bleed]] @Compendium[pf2e.conditionitems.Persistent Damage]{Persistent Bleed Damage};</li>\n<li><strong>Melee</strong> <span class=\"pf2-icon\">1</span> jaws, <strong>Damage</strong> 1d10 piercing.</li>\n</ul>\n</li>\n<li><strong>@Compendium[pf2e.spell-effects.Spell Effect: Dinosaur Form (Stegosaurus)]{Stegosaurus}</strong>\n<ul>\n<li>Speed 30 feet;</li>\n<li><strong>Melee</strong> <span class=\"pf2-icon\">1</span> tail (reach 10 feet), <strong>Damage</strong> 2d8 piercing.</li>\n</ul>\n</li>\n<li><strong>@Compendium[pf2e.spell-effects.Spell Effect: Dinosaur Form (Triceratops)]{Triceratops}</strong>\n<ul>\n<li>Speed 30 feet;</li>\n<li><strong>Melee</strong> <span class=\"pf2-icon\">1</span> horn, <strong>Damage</strong> 2d8 piercing, plus [[/r 1d6 #persistent bleed]] @Compendium[pf2e.conditionitems.Persistent Damage]{Persistent Bleed Damage} on a critical hit;</li>\n<li><strong>Melee</strong> <span class=\"pf2-icon\">1 </span>foot, <strong>Damage</strong> 2d6 bludgeoning.</li>\n</ul>\n</li>\n<li><strong>@Compendium[pf2e.spell-effects.Spell Effect: Dinosaur Form (Tyrannosaurus)]{Tyrannosaurus}</strong>\n<ul>\n<li>Speed 30 feet;</li>\n<li><strong>Melee</strong> <span class=\"pf2-icon\">1</span> jaws (deadly, reach 10 feet), <strong>Damage</strong> 1d12 piercing;</li>\n<li><strong>Melee</strong> <span class=\"pf2-icon\">1</span> tail (reach 10 feet), <strong>Damage</strong> 1d10 bludgeoning.</li>\n</ul>\n</li>\n</ul>\n<hr />\n<p><strong>Heightened (5th)</strong> Your battle form is Huge and your attacks have 15-foot reach, or 20-foot reach if they started with 15-foot reach. You instead gain 20 temporary HP, an attack modifier of +18, a damage bonus of +6, double the damage dice, and Athletics +21.</p>\n<p><strong>Heightened (7th)</strong> Your battle form is Gargantuan and your attacks have 20-foot reach, or 25-foot reach if they started with 15-foot reach. You instead gain AC = 21 + your level, 25 temporary HP, an attack modifier of +25, a damage bonus of +15, double the damage dice, and Athletics +25.</p>"
        },
        "duration": {
            "value": "1 minute"
        },
        "hasCounteractCheck": {
            "value": false
        },
        "level": {
            "value": 4
        },
        "location": {
            "value": ""
        },
        "materials": {
            "value": ""
        },
        "prepared": {
            "value": ""
        },
        "primarycheck": {
            "value": ""
        },
        "range": {
            "value": ""
        },
        "rules": [],
        "save": {
            "basic": "",
            "value": ""
        },
        "school": {
            "value": "transmutation"
        },
        "secondarycasters": {
            "value": ""
        },
        "secondarycheck": {
            "value": ""
        },
        "source": {
            "value": "Pathfinder Core Rulebook"
        },
        "spellType": {
            "value": "utility"
        },
        "sustained": {
            "value": false
        },
        "target": {
            "value": ""
        },
        "time": {
            "value": "2"
        },
        "traditions": {
            "value": [
                "primal"
            ]
        },
        "traits": {
            "custom": "",
            "rarity": {
                "value": "common"
            },
            "value": [
                "polymorph"
            ]
        }
    },
    "effects": [],
    "flags": {},
    "img": "systems/pf2e/icons/spells/dinosaur-form.webp",
    "name": "Dinosaur Form",
    "type": "spell"
}
