{
    "_id": "7dKtMehJ6YrXwJLR",
    "data": {
        "ability": {
            "value": ""
        },
        "area": {
            "areaType": "",
            "value": ""
        },
        "autoHeightenLevel": {
            "value": null
        },
        "category": {
            "value": "spell"
        },
        "components": {
            "focus": false,
            "material": false,
            "somatic": true,
            "verbal": true
        },
        "cost": {
            "value": ""
        },
        "damage": {
            "value": {}
        },
        "description": {
            "value": "<p>You adjust your magnetic polarity, plucking daggers from hands and coins from belts. The targeted objects fly to your location, letting you catch them easily in your hands, or dropping to the ground at your position, at your discretion. Unattended objects fly to you automatically. If you target secured objects or those in another creature's possession (such as sheathed weapons), you must attempt to Disarm the creature of the metal objects, making a spell attack roll instead of an Athletics check to do so.</p>\n<p>Instead of drawing the objects to yourself, you can polarize a single metal object within range, designating it as a lodestone and causing the metal objects to fly to it instead. The lodestone must be at least three times the total Bulk of the targeted metal objects. Objects will stick to the lodestone for 1 minute, though they can be wrenched away with an Interact action.</p>"
        },
        "duration": {
            "value": ""
        },
        "hasCounteractCheck": {
            "value": false
        },
        "level": {
            "value": 2
        },
        "location": {
            "value": ""
        },
        "materials": {
            "value": ""
        },
        "range": {
            "value": "60 feet"
        },
        "rules": [],
        "save": {
            "basic": "",
            "value": ""
        },
        "school": {
            "value": "evocation"
        },
        "source": {
            "value": "Pathfinder Secrets of Magic"
        },
        "spellType": {
            "value": "utility"
        },
        "sustained": {
            "value": false
        },
        "target": {
            "value": "up to 10 metal objects with a total Bulk of 1 or less"
        },
        "time": {
            "value": "2"
        },
        "traditions": {
            "custom": "",
            "value": [
                "arcane",
                "primal"
            ]
        },
        "traits": {
            "custom": "",
            "rarity": {
                "value": "common"
            },
            "value": []
        }
    },
    "effects": [],
    "flags": {},
    "img": "systems/pf2e/icons/spells/magnetic-attraction.webp",
    "name": "Magnetic Attraction",
    "type": "spell"
}
