{
    "_id": "JUJYVbtNNFdvyrBS",
    "data": {
        "ability": {
            "value": ""
        },
        "area": {
            "areaType": "",
            "value": ""
        },
        "autoHeightenLevel": {
            "value": null
        },
        "category": {
            "value": "spell"
        },
        "components": {
            "focus": false,
            "material": false,
            "somatic": true,
            "verbal": true
        },
        "cost": {
            "value": ""
        },
        "damage": {
            "applyMod": false,
            "value": {
                "0": {
                    "applyMod": false,
                    "type": {
                        "subtype": "",
                        "value": "healing"
                    },
                    "value": "1d8+4"
                }
            }
        },
        "description": {
            "value": "<p>You channel negative energy through your magical connection to your undead minion to strengthen the creature. The target regains 1d8+4 Hit Points when you Cast the Spell, and it gains a +2 status bonus to saves against positive effects for the duration.</p>\n<p>@Compendium[pf2e.spell-effects.Spell Effect: Necromancer's Generosity]{Spell Effect: Necromancer's Generosity}</p>\n<hr />\n<p><strong>Heightened (+1)</strong> The amount of healing increases by 1d8+4.</p>"
        },
        "duration": {
            "value": "1 minute"
        },
        "hasCounteractCheck": {
            "value": false
        },
        "level": {
            "value": 1
        },
        "location": {
            "value": ""
        },
        "materials": {
            "value": ""
        },
        "range": {
            "value": "30 feet"
        },
        "rules": [],
        "save": {
            "basic": "",
            "value": ""
        },
        "scaling": {
            "damage": {
                "0": "1d8+4"
            },
            "interval": 1
        },
        "school": {
            "value": "necromancy"
        },
        "source": {
            "value": "Pathfinder Secrets of Magic"
        },
        "spellType": {
            "value": "heal"
        },
        "sustained": {
            "value": false
        },
        "target": {
            "value": "1 undead minion you control"
        },
        "time": {
            "value": "2"
        },
        "traditions": {
            "custom": "",
            "value": [
                "arcane",
                "divine"
            ]
        },
        "traits": {
            "custom": "",
            "rarity": {
                "value": "common"
            },
            "value": [
                "negative"
            ]
        }
    },
    "effects": [],
    "flags": {},
    "img": "systems/pf2e/icons/spells/necromancers-generocity.webp",
    "name": "Necromancer's Generosity",
    "type": "spell"
}
