{
    "_id": "7CUgqHunmHfW2lC5",
    "data": {
        "ability": {
            "value": ""
        },
        "area": {
            "areaType": "",
            "value": null
        },
        "areasize": {
            "value": ""
        },
        "category": {
            "value": "focus"
        },
        "components": {
            "material": false,
            "somatic": true,
            "verbal": true
        },
        "cost": {
            "value": ""
        },
        "damage": {
            "value": {}
        },
        "description": {
            "value": "<p>Dry winds dehydrate a creature. The target must attempt a Fortitude save; if used on a creature with the water trait or a creature made primarily of liquid (such as many oozes), the creature uses the outcome for one degree of success worse than the result. Creatures whose bodies contain no significant moisture (such as earth elementals) are immune to <em>parch</em>.</p>\n<p>If a creature affected by <em>parch</em> drinks a liquid, such as a swig of water or a potion, the spell ends. Affected creatures that have the water trait or are made primarily of liquid, as well as affected creatures that can't drink, can end the effect as a two-action activity, which has the concentrate trait.</p>\n<hr />\n<p><strong>Critical Success</strong> The target is unaffected.</p>\n<p><strong>Success</strong> The target takes a -1 status penalty to its checks and DCs for 1 round.</p>\n<p><strong>Failure</strong> The target takes a -1 status penalty to its checks and DCs for 1 minute.</p>\n<p><strong>Critical Failure</strong> The target takes a -2 status penalty to its checks and DCs for 1 minute and is @Compendium[pf2e.conditionitems.Dazzled]{Dazzled} as long as it has this penalty.</p>\n<hr />\n<p><strong>Heightened (4th)</strong> You can target up to 4 creatures.</p>"
        },
        "duration": {
            "value": ""
        },
        "hasCounteractCheck": {
            "value": false
        },
        "level": {
            "value": 1
        },
        "location": {
            "value": ""
        },
        "materials": {
            "value": ""
        },
        "prepared": {
            "value": ""
        },
        "primarycheck": {
            "value": ""
        },
        "range": {
            "value": "60 feet"
        },
        "rules": [],
        "save": {
            "basic": "basic",
            "value": "fortitude"
        },
        "school": {
            "value": "evocation"
        },
        "secondarycasters": {
            "value": ""
        },
        "secondarycheck": {
            "value": ""
        },
        "source": {
            "value": "Pathfinder Lost Omens: Gods & Magic"
        },
        "spellType": {
            "value": "save"
        },
        "sustained": {
            "value": false
        },
        "target": {
            "value": "1 creature"
        },
        "time": {
            "value": "2"
        },
        "traditions": {
            "custom": "",
            "value": []
        },
        "traits": {
            "custom": "",
            "rarity": {
                "value": "common"
            },
            "value": [
                "cleric",
                "force"
            ]
        }
    },
    "effects": [],
    "flags": {},
    "img": "systems/pf2e/icons/spells/parch.webp",
    "name": "Parch",
    "type": "spell"
}
