{
    "_id": "mBH1L01kYmB8EL56",
    "data": {
        "actionCategory": {
            "value": ""
        },
        "actionType": {
            "value": "passive"
        },
        "actions": {
            "value": null
        },
        "description": {
            "value": "<p>Your spirit is open to the secrets of beyond, granting you greater access to kitsune magic. You gain the @Compendium[pf2e.feats-srd.Kitsune Spell Familiarity]{Kitsune Spell Familiarity} ancestry feat. Your alternate form is a common Medium humanoid ancestry prevalent where you grew up (typically human), called a tailless form.</p>"
        },
        "featType": {
            "value": "heritage"
        },
        "level": {
            "value": 1
        },
        "location": "",
        "prerequisites": {
            "value": []
        },
        "rules": [],
        "source": {
            "value": ""
        },
        "traits": {
            "custom": "",
            "rarity": {
                "value": "common"
            },
            "value": [
                "kitsune"
            ]
        }
    },
    "effects": [],
    "flags": {},
    "img": "systems/pf2e/icons/default-icons/feat.svg",
    "name": "Empty Sky Kitsune",
    "type": "feat"
}
