{
    "_id": "vPhPgzpRjYDMT9Kq",
    "data": {
        "actionCategory": {
            "value": ""
        },
        "actionType": {
            "value": "passive"
        },
        "actions": {
            "value": null
        },
        "description": {
            "value": "<p>You can see in darkness and dim light just as well as you can see in bright light, though your vision in darkness is in black and white. Some forms of magical darkness, such as a 4th-level <em>@Compendium[pf2e.spells-srd.Darkness]{Darkness}</em> spell, block normal @Compendium[pf2e.ancestryfeatures.Darkvision]{Darkvision}. You, however, can see through even these forms of magical darkness.</p>"
        },
        "featType": {
            "value": "ancestryfeature"
        },
        "level": {
            "value": 1
        },
        "location": "",
        "prerequisites": {
            "value": []
        },
        "rules": [
            {
                "key": "Sense",
                "label": "PF2E.SensesGreaterDarkvision",
                "selector": "greaterDarkvision"
            }
        ],
        "source": {
            "value": ""
        },
        "traits": {
            "custom": "",
            "rarity": {
                "value": "common"
            },
            "value": []
        }
    },
    "effects": [],
    "flags": {},
    "img": "systems/pf2e/icons/default-icons/feat.svg",
    "name": "Greater Darkvision",
    "type": "feat"
}
