{
    "_id": "SqEcb1c3yeoJMxm0",
    "data": {
        "actionCategory": {
            "value": "interaction"
        },
        "actionType": {
            "value": "passive"
        },
        "actions": {
            "value": null
        },
        "description": {
            "value": "<p>You're a large, powerful gnoll, with tawny fur and brown spots on your hide. You gain 10 Hit Points from your ancestry instead of 8 and gain a +1 circumstance bonus to Athletics checks to Shove or Trip foes.</p>"
        },
        "featType": {
            "value": "heritage"
        },
        "level": {
            "value": 1
        },
        "location": "",
        "prerequisites": {
            "value": []
        },
        "rules": [
            {
                "key": "FlatModifier",
                "label": "Great Gnoll",
                "predicate": {
                    "any": [
                        "action:shove",
                        "action:trip"
                    ]
                },
                "selector": "athletics",
                "type": "circumstance",
                "value": 1
            },
            {
                "key": "ActiveEffectLike",
                "mode": "override",
                "path": "data.attributes.ancestryhp",
                "value": 10
            }
        ],
        "source": {
            "value": ""
        },
        "traits": {
            "custom": "",
            "rarity": {
                "value": "common"
            },
            "value": [
                "gnoll",
                "heritage"
            ]
        }
    },
    "effects": [],
    "flags": {},
    "img": "systems/pf2e/icons/default-icons/feat.svg",
    "name": "Great Gnoll",
    "type": "feat"
}
