{
    "_id": "S1062No0sYH35AhN",
    "data": {
        "actionCategory": {
            "value": ""
        },
        "actionType": {
            "value": "passive"
        },
        "actions": {
            "value": null
        },
        "description": {
            "value": "<p>Your skin can detect the slightest changes in ocean currents. You gain imprecise wavesense with a range of 30 feet, allowing you to sense motion in the water around you. You also gain a +1 circumstance bonus to Survival checks to Sense Direction in aquatic environments.</p>"
        },
        "featType": {
            "value": "heritage"
        },
        "level": {
            "value": 1
        },
        "location": "",
        "prerequisites": {
            "value": []
        },
        "rules": [
            {
                "key": "FlatModifier",
                "label": "Tactile Azarketi (Sense Direction in aquatic environements)",
                "predicate": {
                    "all": [
                        "action:sense-direction",
                        "terrain:aquatic"
                    ]
                },
                "selector": "survival",
                "type": "circumstance",
                "value": 1
            },
            {
                "acuity": "imprecise",
                "key": "Sense",
                "label": "PF2E.SensesWavesense",
                "range": 30,
                "selector": "wavesense"
            }
        ],
        "source": {
            "value": ""
        },
        "traits": {
            "custom": "",
            "rarity": {
                "value": "common"
            },
            "value": [
                "azarketi"
            ]
        }
    },
    "effects": [],
    "flags": {},
    "img": "systems/pf2e/icons/default-icons/feat.svg",
    "name": "Tactile Azarketi",
    "type": "feat"
}
