{
    "_id": "nwkYZs6YwXYAJ4ps",
    "data": {
        "description": {
            "value": "<p>Granted by @Compendium[pf2e.feats-srd.Crane Stance]{Crane Stance}</p>\n<p>You enter the stance of a crane, holding your arms in an imitation of a crane's wings and using flowing, defensive motions. You gain a +1 circumstance bonus to AC, but the only Strikes you can make are crane wing attacks. These deal 1d6 bludgeoning damage; are in the brawling group; and have the agile, finesse, nonlethal, and unarmed traits.</p>\n<p>While in Crane Stance, reduce the DC for @Compendium[pf2e.actionspf2e.High Jump]{High Jump} and @Compendium[pf2e.actionspf2e.Long Jump]{Long Jump} by 5, and when you @Compendium[pf2e.actionspf2e.Leap]{Leap}, you can move an additional 5 feet horizontally or 2 feet vertically.</p>"
        },
        "duration": {
            "expiry": "turn-start",
            "sustained": false,
            "unit": "unlimited",
            "value": -1
        },
        "level": {
            "value": 0
        },
        "rules": [
            {
                "category": "unarmed",
                "damage": {
                    "base": {
                        "damageType": "bludgeoning",
                        "dice": 1,
                        "die": "d6"
                    }
                },
                "group": "brawling",
                "key": "Strike",
                "label": "Crane Wing",
                "range": null,
                "traits": [
                    "agile",
                    "finesse",
                    "unarmed",
                    "nonlethal"
                ]
            },
            {
                "key": "FlatModifier",
                "selector": "ac",
                "type": "circumstance",
                "value": 1
            },
            {
                "key": "Note",
                "predicate": {
                    "any": [
                        "action:high-jump",
                        "action:long-jump",
                        "action:leap"
                    ]
                },
                "selector": "athletics",
                "text": "<p class='compact-text'><strong>Crane Stance</strong> Reduce the DC for High Jump and Long Jump by 5, and when you Leap, you can move an additional 5 feet horizontally or 2 feet vertically.</p>"
            },
            {
                "key": "ActiveEffectLike",
                "mode": "override",
                "path": "flags.pf2e.rollOptions.all.crane-stance",
                "priority": 10,
                "value": true
            }
        ],
        "source": {
            "value": ""
        },
        "start": {
            "initiative": null,
            "value": 0
        },
        "target": null,
        "tokenIcon": {
            "show": true
        },
        "traits": {
            "custom": "",
            "rarity": {
                "value": "common"
            },
            "value": []
        }
    },
    "effects": [],
    "flags": {},
    "img": "systems/pf2e/icons/features/feats/crane-stance.webp",
    "name": "Stance: Crane Stance",
    "type": "effect"
}
