{
    "_id": "IfUod2VxNmZMGGPq",
    "data": {
        "description": {
            "value": "<p>The bodyguard selects one creature they can see and hear within 30 feet. That creature gains a +2 circumstance bonus to AC as long as the bodyguard is adjacent to the chosen creature and can act; this bonus lasts until the start of the bodyguard's next turn.</p>"
        },
        "duration": {
            "expiry": "turn-start",
            "sustained": false,
            "unit": "rounds",
            "value": 1
        },
        "level": {
            "value": 1
        },
        "rules": [
            {
                "key": "FlatModifier",
                "label": "Bodyguard's Defense",
                "selector": "ac",
                "type": "circumstance",
                "value": 2
            }
        ],
        "source": {
            "value": ""
        },
        "start": {
            "initiative": null,
            "value": 0
        },
        "target": null,
        "tokenIcon": {
            "show": true
        },
        "traits": {
            "custom": "",
            "rarity": {
                "value": "common"
            },
            "value": []
        }
    },
    "effects": [],
    "flags": {},
    "img": "systems/pf2e/icons/spells/battlefield-persistence.webp",
    "name": "Effect: Bodyguard's Defense",
    "type": "effect"
}
