{
    "_id": "MMOfg6GP9fhCCbep",
    "content": "<p>Play at the start of your turn.</p>\n<hr />\n<p>Until the end of your turn, ignore penalties to checks and DCs from conditions.</p>",
    "flags": {},
    "name": "Press On",
    "permission": {
        "default": 0
    }
}
